(footprint "E73-2G4M04S" (version 20211014) (generator pcbnew)
  (layer "F.Cu")
  (tedit 5AFF5B3A)
  (descr "http://www.cdebyte.com/en/downpdf.aspx?id=243")
  (tags "BLE BLE5 nRF52832")
  (attr smd)
  (fp_text reference "REF**" (at 0 16.4) (layer "F.SilkS")
    (effects (font (size 1 1) (thickness 0.15)))
    (tstamp ce17bbf0-8502-4720-9a59-7dc0eaabaa25)
  )
  (fp_text value "E73-2G4M04S" (at 0 -15.35) (layer "F.Fab")
    (effects (font (size 1 1) (thickness 0.15)))
    (tstamp 96249559-6bae-461f-9f05-dd71dbec3b75)
  )
  (fp_text user "KEEP-OUT ZONE" (at 0 -12.85) (layer "Cmts.User")
    (effects (font (size 1 1) (thickness 0.15)))
    (tstamp 8ac743cb-ba04-4db1-866a-057b45d0e61b)
  )
  (fp_text user "on any PCB layer." (at 0 -10.1) (layer "Cmts.User")
    (effects (font (size 0.4 0.4) (thickness 0.06)))
    (tstamp 99373151-c3da-4d90-8f48-8f4bfe402c09)
  )
  (fp_text user "No metal, traces, or components" (at 0 -11.1) (layer "Cmts.User")
    (effects (font (size 0.4 0.4) (thickness 0.06)))
    (tstamp a517cb6c-238d-4b23-a22c-9ebbc913ee1f)
  )
  (fp_text user "${REFERENCE}" (at 0 0) (layer "F.Fab")
    (effects (font (size 1 1) (thickness 0.15)))
    (tstamp 66474d0e-9e1b-4025-96fa-8ac7d521606a)
  )
  (fp_line (start -8.87 -14.47) (end -8.87 -8.49) (layer "F.SilkS") (width 0.12) (tstamp 0bd6963f-4f69-4e87-8a00-097ecaed5df6))
  (fp_line (start 8.87 14.47) (end 8.87 13.35) (layer "F.SilkS") (width 0.12) (tstamp 0e81bcb8-8f8f-403f-8c2c-f802ba72ca51))
  (fp_line (start 8.87 -14.47) (end 8.87 -8.49) (layer "F.SilkS") (width 0.12) (tstamp 1c2777bf-1c59-49d7-845b-0d7dadc5e4f9))
  (fp_line (start -8.87 -5.7) (end -8.87 -4.66) (layer "F.SilkS") (width 0.12) (tstamp 652a140f-0482-45ea-8822-499a50a862f2))
  (fp_line (start 8.87 -5.7) (end 8.87 -4.66) (layer "F.SilkS") (width 0.12) (tstamp 7e49f923-2285-4af6-ada4-a5da50f45b6c))
  (fp_line (start 8.87 14.47) (end 7.72 14.47) (layer "F.SilkS") (width 0.12) (tstamp 84d70f61-dfd6-4048-8895-441b95cd1593))
  (fp_line (start 8.87 -14.47) (end -8.87 -14.47) (layer "F.SilkS") (width 0.12) (tstamp c649f09b-23f9-4c72-b03b-b2013cbc6870))
  (fp_line (start -8.87 -8.49) (end -9.37 -8.49) (layer "F.SilkS") (width 0.12) (tstamp c8a2c542-23ae-4e39-81c3-53880c9c3c76))
  (fp_line (start -8.87 14.47) (end -7.72 14.47) (layer "F.SilkS") (width 0.12) (tstamp de82afdb-bdc8-465b-9d6f-cd22ee9f94f0))
  (fp_line (start -8.87 14.47) (end -8.87 13.35) (layer "F.SilkS") (width 0.12) (tstamp f9859ca9-b63f-483f-bc8f-336ac063bbd4))
  (fp_line (start -8.75 -14.35) (end 8.75 -14.35) (layer "Dwgs.User") (width 0.1) (tstamp 04c72c8c-142d-49ba-8a2c-6a2e6398c8c7))
  (fp_line (start 8.75 -8.85) (end -8.75 -8.85) (layer "Dwgs.User") (width 0.1) (tstamp 3753e92e-1346-4258-8cc5-922de3f431c2))
  (fp_line (start 8.75 -9.35) (end 3.75 -14.35) (layer "Dwgs.User") (width 0.1) (tstamp 39b6288d-55eb-40ae-bdff-d9c85b4ed997))
  (fp_line (start 8.75 -11.35) (end 5.75 -14.35) (layer "Dwgs.User") (width 0.1) (tstamp 406a3efa-9a3c-419b-8c41-fcebc61df0a0))
  (fp_line (start -5.25 -14.35) (end 0.25 -8.85) (layer "Dwgs.User") (width 0.1) (tstamp 5630dac8-05f0-4d5a-8acf-e302199e88e5))
  (fp_line (start 1.25 -8.85) (end -4.25 -14.35) (layer "Dwgs.User") (width 0.1) (tstamp 57bcf375-c4c7-4965-b3df-fae89b41ea49))
  (fp_line (start 4.75 -14.35) (end 8.75 -10.35) (layer "Dwgs.User") (width 0.1) (tstamp 753074cc-369b-4e54-bcaa-ff4ab15fd358))
  (fp_line (start 2.75 -14.35) (end 8.25 -8.85) (layer "Dwgs.User") (width 0.1) (tstamp 7c3560d8-2166-445d-9f1f-37870526f70e))
  (fp_line (start -0.75 -8.85) (end -6.25 -14.35) (layer "Dwgs.User") (width 0.1) (tstamp 804e86ff-126e-4237-9be3-e26f477b8cd6))
  (fp_line (start 7.25 -8.85) (end 1.75 -14.35) (layer "Dwgs.User") (width 0.1) (tstamp 82a197f9-fffc-4a69-b72a-2332b19bdd1a))
  (fp_line (start 8.75 -13.35) (end 7.75 -14.35) (layer "Dwgs.User") (width 0.1) (tstamp 88299d8b-c811-4264-af52-fa7865e1a703))
  (fp_line (start -8.75 -13.85) (end -3.75 -8.85) (layer "Dwgs.User") (width 0.1) (tstamp 88ac3d8e-f619-4ea6-b0ef-900965bac186))
  (fp_line (start -8.75 -9.85) (end -7.75 -8.85) (layer "Dwgs.User") (width 0.1) (tstamp 8f9e0d21-78d2-4bc0-8337-0f0d5dc1c068))
  (fp_line (start -8.75 -10.85) (end -6.75 -8.85) (layer "Dwgs.User") (width 0.1) (tstamp 92a4efed-4ddb-475d-8a1e-60ccbcf67533))
  (fp_line (start -7.25 -14.35) (end -1.75 -8.85) (layer "Dwgs.User") (width 0.1) (tstamp 9b09ac88-39f5-43ee-84ee-6da9ef82c8a1))
  (fp_line (start 0.75 -14.35) (end 6.25 -8.85) (layer "Dwgs.User") (width 0.1) (tstamp a0c6f196-e1e7-4c28-b72a-f5d7d94558cd))
  (fp_line (start -4.75 -8.85) (end -8.75 -12.85) (layer "Dwgs.User") (width 0.1) (tstamp c4bca212-a92c-4c43-99dd-65b6d3fc92a2))
  (fp_line (start -3.25 -14.35) (end 2.25 -8.85) (layer "Dwgs.User") (width 0.1) (tstamp d2c00891-f9c5-4b3e-bf53-5b4499fdaf7c))
  (fp_line (start -2.75 -8.85) (end -8.25 -14.35) (layer "Dwgs.User") (width 0.1) (tstamp df76961d-4745-4c17-b263-45ab4f044ce4))
  (fp_line (start -8.75 -11.85) (end -5.75 -8.85) (layer "Dwgs.User") (width 0.1) (tstamp dfb62e2b-81fa-4c2a-8cbc-fd9910e67910))
  (fp_line (start 5.25 -8.85) (end -0.25 -14.35) (layer "Dwgs.User") (width 0.1) (tstamp e5980924-fb13-421b-8fd1-e0d141522a5b))
  (fp_line (start -1.25 -14.35) (end 4.25 -8.85) (layer "Dwgs.User") (width 0.1) (tstamp f1c94192-b262-4b72-a2c7-1feb6978df54))
  (fp_line (start 3.25 -8.85) (end -2.25 -14.35) (layer "Dwgs.User") (width 0.1) (tstamp f704a067-0254-46c4-9588-47135ffe2b50))
  (fp_line (start -8.75 -8.85) (end -8.75 -14.35) (layer "Dwgs.User") (width 0.1) (tstamp fa02b3e5-1cd1-420c-ab83-7e0e65ad0cff))
  (fp_line (start 8.75 -14.35) (end 8.75 -8.85) (layer "Dwgs.User") (width 0.1) (tstamp fb7807d0-2f41-4c5b-b8a6-f564455fa138))
  (fp_line (start 6.75 -14.35) (end 8.75 -12.35) (layer "Dwgs.User") (width 0.1) (tstamp fca0f0fd-af86-48e9-9172-6be591c73479))
  (fp_line (start 9.9 15.5) (end 9.9 -14.6) (layer "F.CrtYd") (width 0.05) (tstamp 2125ec4d-a95a-49c9-9b73-19154d6564f7))
  (fp_line (start -9.9 -14.6) (end -9.9 15.5) (layer "F.CrtYd") (width 0.05) (tstamp 7181d8c4-00b6-4de2-ae26-f4ddfadbe956))
  (fp_line (start 9.9 -14.6) (end -9.9 -14.6) (layer "F.CrtYd") (width 0.05) (tstamp d03aea54-2552-4e44-a909-78a156b88330))
  (fp_line (start -9.9 15.5) (end 9.9 15.5) (layer "F.CrtYd") (width 0.05) (tstamp ee05a592-c641-4626-abda-a149d499f1c5))
  (fp_line (start 8.75 14.35) (end 8.75 -14.35) (layer "F.Fab") (width 0.1) (tstamp 48d3576b-7547-463d-90ca-39129606e2c5))
  (fp_line (start -8.75 -8.07) (end -8.75 -14.35) (layer "F.Fab") (width 0.1) (tstamp 6a32750a-e363-4bde-8937-de5b117f0de3))
  (fp_line (start -8.75 14.35) (end 8.75 14.35) (layer "F.Fab") (width 0.1) (tstamp 86222d52-1f2c-48ae-afe4-639af43a98a0))
  (fp_line (start -8.75 -7.37) (end -8.75 14.35) (layer "F.Fab") (width 0.1) (tstamp 89bf6449-59e1-42d1-b244-814a61d4c55f))
  (fp_line (start -8.75 -8.07) (end -8.4 -7.72) (layer "F.Fab") (width 0.1) (tstamp dbb78eb6-c65b-45c9-b381-43c413ca86c7))
  (fp_line (start -8.4 -7.72) (end -8.75 -7.37) (layer "F.Fab") (width 0.1) (tstamp ebe82234-e8ea-4216-88a5-9251f0501de4))
  (fp_line (start 8.75 -14.35) (end -8.75 -14.35) (layer "F.Fab") (width 0.1) (tstamp fa26a749-cf98-4cc8-ae28-a645845a2cca))
  (pad "0" smd rect (at -8.75 -7.72) (size 1.8 0.7) (layers "F.Cu" "F.Paste" "F.Mask") (tstamp fe42d5c0-8973-4dd9-a81c-0c4c1093da89))
  (pad "1" smd rect (at -8.75 -6.45) (size 1.8 0.7) (layers "F.Cu" "F.Paste" "F.Mask") (tstamp dd31bee2-3b3d-4410-8fcb-1a8b85277a5b))
  (pad "2" smd rect (at -8.75 -3.91) (size 1.8 0.7) (layers "F.Cu" "F.Paste" "F.Mask") (tstamp e852b07f-c18c-4966-a462-86350c312c4c))
  (pad "3" smd rect (at -8.75 -2.64) (size 1.8 0.7) (layers "F.Cu" "F.Paste" "F.Mask") (tstamp 7f9c8f73-0064-4e8f-9ff1-a9bce8051b68))
  (pad "4" smd rect (at -8.75 -1.37) (size 1.8 0.7) (layers "F.Cu" "F.Paste" "F.Mask") (tstamp 6a1c6c31-8f1f-4796-abea-bb38608ead00))
  (pad "5" smd rect (at -8.75 -0.1) (size 1.8 0.7) (layers "F.Cu" "F.Paste" "F.Mask") (tstamp c9170446-4356-4898-8200-74e019969013))
  (pad "6" smd rect (at -8.75 1.17) (size 1.8 0.7) (layers "F.Cu" "F.Paste" "F.Mask") (tstamp 0441827c-a6d9-4948-b5c9-a10de712ee83))
  (pad "7" smd rect (at -8.75 2.44) (size 1.8 0.7) (layers "F.Cu" "F.Paste" "F.Mask") (tstamp 1cf9c764-e494-4a34-af93-74b68616635f))
  (pad "8" smd rect (at -8.75 3.71) (size 1.8 0.7) (layers "F.Cu" "F.Paste" "F.Mask") (tstamp f414e6be-bd56-4eb3-9534-367cdbc1d2ff))
  (pad "9" smd rect (at -8.75 4.98) (size 1.8 0.7) (layers "F.Cu" "F.Paste" "F.Mask") (tstamp 99f74d6b-b30e-474d-b5e0-7e297ac63850))
  (pad "10" smd rect (at -8.75 6.25) (size 1.8 0.7) (layers "F.Cu" "F.Paste" "F.Mask") (tstamp 0c662b6f-716b-4f61-a92d-353fff78f767))
  (pad "11" smd rect (at -8.75 7.52) (size 1.8 0.7) (layers "F.Cu" "F.Paste" "F.Mask") (tstamp 3a0b9b89-211f-4505-88d8-7ba42aca5685))
  (pad "12" smd rect (at -8.75 8.79) (size 1.8 0.7) (layers "F.Cu" "F.Paste" "F.Mask") (tstamp ff2e2250-121d-443e-ad1f-96603ce0d469))
  (pad "13" smd rect (at -8.75 10.06) (size 1.8 0.7) (layers "F.Cu" "F.Paste" "F.Mask") (tstamp ad6a5a6f-5010-4dd3-b1c4-edf2fc2abfaa))
  (pad "14" smd rect (at -8.75 11.33) (size 1.8 0.7) (layers "F.Cu" "F.Paste" "F.Mask") (tstamp 2466a10a-52b5-42c8-b6d6-0c13dccbff1c))
  (pad "15" smd rect (at -8.75 12.6) (size 1.8 0.7) (layers "F.Cu" "F.Paste" "F.Mask") (tstamp 6cc275a0-132a-475e-a8f4-7e9d02c846be))
  (pad "16" smd rect (at -6.985 14.35) (size 0.7 1.8) (layers "F.Cu" "F.Paste" "F.Mask") (tstamp d8ee708c-6810-4951-a803-82b08772211c))
  (pad "17" smd rect (at -5.715 14.35) (size 0.7 1.8) (layers "F.Cu" "F.Paste" "F.Mask") (tstamp ae51eeca-7218-4b20-9e95-e7d9d621cf67))
  (pad "18" smd rect (at -4.445 14.35) (size 0.7 1.8) (layers "F.Cu" "F.Paste" "F.Mask") (tstamp 4c1c4191-cca5-424e-a285-4ea15edb7707))
  (pad "19" smd rect (at -3.175 14.35) (size 0.7 1.8) (layers "F.Cu" "F.Paste" "F.Mask") (tstamp 0352209f-50fb-4ca8-8aab-5000884204d1))
  (pad "20" smd rect (at -1.905 14.35) (size 0.7 1.8) (layers "F.Cu" "F.Paste" "F.Mask") (tstamp a9c2c544-c5a0-4f70-aba6-644f9073c248))
  (pad "21" smd rect (at -0.635 14.35) (size 0.7 1.8) (layers "F.Cu" "F.Paste" "F.Mask") (tstamp 6704fd44-3637-4f55-93bb-bf9e55f071fa))
  (pad "22" smd rect (at 0.635 14.35) (size 0.7 1.8) (layers "F.Cu" "F.Paste" "F.Mask") (tstamp ade472a2-d084-4fa9-894f-876aacfefccd))
  (pad "23" smd rect (at 1.905 14.35) (size 0.7 1.8) (layers "F.Cu" "F.Paste" "F.Mask") (tstamp 8fb9f7f8-c959-4f7b-8725-17b87bc26509))
  (pad "24" smd rect (at 3.175 14.35) (size 0.7 1.8) (layers "F.Cu" "F.Paste" "F.Mask") (tstamp 0fed50f4-161c-46f0-ad67-82e0382930b4))
  (pad "25" smd rect (at 4.445 14.35) (size 0.7 1.8) (layers "F.Cu" "F.Paste" "F.Mask") (tstamp 537fdbb5-cd4d-4955-89b1-e1011f2ef8d9))
  (pad "26" smd rect (at 5.715 14.35) (size 0.7 1.8) (layers "F.Cu" "F.Paste" "F.Mask") (tstamp 1b59a35f-8dc7-4cea-9475-e4a191448308))
  (pad "27" smd rect (at 6.985 14.35) (size 0.7 1.8) (layers "F.Cu" "F.Paste" "F.Mask") (tstamp f9859d78-7533-4b94-9c21-4cd073d48c0b))
  (pad "28" smd rect (at 8.75 12.6) (size 1.8 0.7) (layers "F.Cu" "F.Paste" "F.Mask") (tstamp 502ff48a-a77f-4492-9774-3add75d2cebf))
  (pad "29" smd rect (at 8.75 11.33) (size 1.8 0.7) (layers "F.Cu" "F.Paste" "F.Mask") (tstamp ddec6c12-1834-4a55-98d9-25a664ff7561))
  (pad "30" smd rect (at 8.75 10.06) (size 1.8 0.7) (layers "F.Cu" "F.Paste" "F.Mask") (tstamp d1e1d79e-6c82-4fb5-a66c-1eb455dbf459))
  (pad "31" smd rect (at 8.75 8.79) (size 1.8 0.7) (layers "F.Cu" "F.Paste" "F.Mask") (tstamp 9d5ef617-3264-48d4-b01a-f145c9b7e5da))
  (pad "32" smd rect (at 8.75 7.52) (size 1.8 0.7) (layers "F.Cu" "F.Paste" "F.Mask") (tstamp b4768dfa-4fba-4c67-a913-0ee36bd8de04))
  (pad "33" smd rect (at 8.75 6.25) (size 1.8 0.7) (layers "F.Cu" "F.Paste" "F.Mask") (tstamp f17bc0f1-84ec-4924-8b47-31d18dada051))
  (pad "34" smd rect (at 8.75 4.98) (size 1.8 0.7) (layers "F.Cu" "F.Paste" "F.Mask") (tstamp 63523727-e61f-4d7a-93e2-cfdc8e79b821))
  (pad "35" smd rect (at 8.75 3.71) (size 1.8 0.7) (layers "F.Cu" "F.Paste" "F.Mask") (tstamp b9dfe4f5-61e2-4274-be46-9d590f5bceaa))
  (pad "36" smd rect (at 8.75 2.44) (size 1.8 0.7) (layers "F.Cu" "F.Paste" "F.Mask") (tstamp c2ae51ee-68bb-4e55-b4d6-d108137a9dfb))
  (pad "37" smd rect (at 8.75 1.17) (size 1.8 0.7) (layers "F.Cu" "F.Paste" "F.Mask") (tstamp adb0b448-85c2-40da-ab8e-8c8c00447035))
  (pad "38" smd rect (at 8.75 -0.1) (size 1.8 0.7) (layers "F.Cu" "F.Paste" "F.Mask") (tstamp bb25b974-16e6-45f0-9740-b04afa7dfae1))
  (pad "39" smd rect (at 8.75 -1.37) (size 1.8 0.7) (layers "F.Cu" "F.Paste" "F.Mask") (tstamp 6c5bc759-2d71-4fae-9dc4-a94cedefc681))
  (pad "40" smd rect (at 8.75 -2.64) (size 1.8 0.7) (layers "F.Cu" "F.Paste" "F.Mask") (tstamp 64f17e6a-8fbe-4cc8-b8e6-e4a701a55b20))
  (pad "41" smd rect (at 8.75 -3.91) (size 1.8 0.7) (layers "F.Cu" "F.Paste" "F.Mask") (tstamp f19bfc3a-7628-4165-93ff-b41989de9bc8))
  (pad "42" smd rect (at 8.75 -6.45) (size 1.8 0.7) (layers "F.Cu" "F.Paste" "F.Mask") (tstamp 35c59198-055c-4c02-bffd-d88542fabbab))
  (pad "43" smd rect (at 8.75 -7.72) (size 1.8 0.7) (layers "F.Cu" "F.Paste" "F.Mask") (tstamp b4d73d50-586e-47db-ac15-6eaf7bae4236))
  (model "${KICAD6_3DMODEL_DIR}/RF_Module.3dshapes/E73-2G4M04S.wrl"
    (offset (xyz 0 0 0))
    (scale (xyz 1 1 1))
    (rotate (xyz 0 0 0))
  )
)
