(footprint "Garmin_M8-35_9.8x14.0mm_Layout6x6_P1.5mm" (version 20211014) (generator pcbnew)
  (layer "F.Cu")
  (tedit 5C5B2DE1)
  (descr "D52M ANT SoC Module https://www.thisisant.com/assets/resources/D00001687_D52_Module_Datasheet.v.2.3_(Garmin).pdf")
  (tags "RF SoC Radio ANT Bluetooth BLE D52 nRF52 Garmin Canada Dynastream Nordic")
  (solder_mask_margin 0.000001)
  (attr smd)
  (fp_text reference "REF**" (at 0 8) (layer "F.SilkS")
    (effects (font (size 1 1) (thickness 0.15)))
    (tstamp df4220e0-5c32-4a1d-a2f3-625b3ed14598)
  )
  (fp_text value "Garmin_M8-35_9.8x14.0mm_Layout6x6_P1.5mm" (at 0 -8) (layer "F.Fab")
    (effects (font (size 1 1) (thickness 0.15)))
    (tstamp b02e94cc-fbfd-4d3a-9515-d9b89b220c56)
  )
  (fp_text user "KEEP-OUT" (at 0 -4.4) (layer "Cmts.User")
    (effects (font (size 1 1) (thickness 0.15)))
    (tstamp d0758159-616c-4ba0-8de0-320616a1be64)
  )
  (fp_text user "COPPER" (at 0 -6.1) (layer "Cmts.User")
    (effects (font (size 1 1) (thickness 0.15)))
    (tstamp e8e96084-d323-4ac0-b948-9ffb1b59bd12)
  )
  (fp_text user "${REFERENCE}" (at 0 0) (layer "F.Fab")
    (effects (font (size 1 1) (thickness 0.15)))
    (tstamp c15a8425-704e-4772-9417-35105a70c1cd)
  )
  (fp_poly (pts
      (xy 3.32 4.185)
      (xy 3.32 3.82)
      (xy 3.685 3.82)
      (xy 3.685 4.185)
    ) (layer "F.Paste") (width 0) (fill solid) (tstamp 00d6df6d-4c4d-4833-b937-50c5dc3cf35b))
  (fp_poly (pts
      (xy 2.315 6.18)
      (xy 2.315 5.815)
      (xy 2.68 5.815)
      (xy 2.68 6.18)
    ) (layer "F.Paste") (width 0) (fill solid) (tstamp 079412ae-2b6e-4513-8f87-2825f0328bd5))
  (fp_poly (pts
      (xy -1.18 3.18)
      (xy -1.18 2.815)
      (xy -0.815 2.815)
      (xy -0.815 3.18)
    ) (layer "F.Paste") (width 0) (fill solid) (tstamp 086d4a97-63a4-43be-8dae-7eb12a6b71f6))
  (fp_poly (pts
      (xy -2.68 1.68)
      (xy -2.68 1.315)
      (xy -2.315 1.315)
      (xy -2.315 1.68)
    ) (layer "F.Paste") (width 0) (fill solid) (tstamp 0a1be8d5-4c2f-464f-8b4b-ba3fbdd0df7b))
  (fp_poly (pts
      (xy 2.315 -1.815)
      (xy 2.315 -2.18)
      (xy 2.68 -2.18)
      (xy 2.68 -1.815)
    ) (layer "F.Paste") (width 0) (fill solid) (tstamp 0a4102b9-920b-4e7a-be33-fdc3e390a83f))
  (fp_poly (pts
      (xy -3.685 1.185)
      (xy -3.685 0.82)
      (xy -3.32 0.82)
      (xy -3.32 1.185)
    ) (layer "F.Paste") (width 0) (fill solid) (tstamp 0a85b739-0d2f-4ff7-a907-9ca0efbf3af2))
  (fp_poly (pts
      (xy -4.18 4.185)
      (xy -4.18 3.82)
      (xy -3.815 3.82)
      (xy -3.815 4.185)
    ) (layer "F.Paste") (width 0) (fill solid) (tstamp 0ae2517f-d034-40d5-9707-54a9f928caa1))
  (fp_poly (pts
      (xy 0.815 1.185)
      (xy 0.815 0.82)
      (xy 1.18 0.82)
      (xy 1.18 1.185)
    ) (layer "F.Paste") (width 0) (fill solid) (tstamp 0ce5a502-3dae-41fe-baac-bb4ffaeacb08))
  (fp_poly (pts
      (xy 0.32 -1.815)
      (xy 0.32 -2.18)
      (xy 0.685 -2.18)
      (xy 0.685 -1.815)
    ) (layer "F.Paste") (width 0) (fill solid) (tstamp 0d221066-5d8d-4390-919e-94a286ab988d))
  (fp_poly (pts
      (xy 0.815 2.685)
      (xy 0.815 2.32)
      (xy 1.18 2.32)
      (xy 1.18 2.685)
    ) (layer "F.Paste") (width 0) (fill solid) (tstamp 0d4314fc-8b74-4eca-a095-3dc59eeeb2db))
  (fp_poly (pts
      (xy 3.32 1.185)
      (xy 3.32 0.82)
      (xy 3.685 0.82)
      (xy 3.685 1.185)
    ) (layer "F.Paste") (width 0) (fill solid) (tstamp 0e8a48ca-c83b-41d1-bf22-1f61b5a757da))
  (fp_poly (pts
      (xy 0.32 1.185)
      (xy 0.32 0.82)
      (xy 0.685 0.82)
      (xy 0.685 1.185)
    ) (layer "F.Paste") (width 0) (fill solid) (tstamp 0ee84192-c091-4f1d-8716-0ac9da44ee3e))
  (fp_poly (pts
      (xy -4.18 5.685)
      (xy -4.18 5.32)
      (xy -3.815 5.32)
      (xy -3.815 5.685)
    ) (layer "F.Paste") (width 0) (fill solid) (tstamp 11107a79-6671-442b-a658-42d7ab6fcf90))
  (fp_poly (pts
      (xy 0.32 5.685)
      (xy 0.32 5.32)
      (xy 0.685 5.32)
      (xy 0.685 5.685)
    ) (layer "F.Paste") (width 0) (fill solid) (tstamp 1119601d-fea3-4034-b634-5fd1092a0716))
  (fp_poly (pts
      (xy 2.315 2.685)
      (xy 2.315 2.32)
      (xy 2.68 2.32)
      (xy 2.68 2.685)
    ) (layer "F.Paste") (width 0) (fill solid) (tstamp 12a70963-e49d-4fa7-8963-0f643099c052))
  (fp_poly (pts
      (xy -2.185 5.685)
      (xy -2.185 5.32)
      (xy -1.82 5.32)
      (xy -1.82 5.685)
    ) (layer "F.Paste") (width 0) (fill solid) (tstamp 16d4e2b1-17f1-4296-bd36-a997d1606016))
  (fp_poly (pts
      (xy 3.815 0.18)
      (xy 3.815 -0.185)
      (xy 4.18 -0.185)
      (xy 4.18 0.18)
    ) (layer "F.Paste") (width 0) (fill solid) (tstamp 1aed055d-525d-4017-947c-0610cca48846))
  (fp_poly (pts
      (xy -0.685 -1.32)
      (xy -0.685 -1.685)
      (xy -0.32 -1.685)
      (xy -0.32 -1.32)
    ) (layer "F.Paste") (width 0) (fill solid) (tstamp 1c214e97-391c-4e3e-9712-e9f849f0f462))
  (fp_poly (pts
      (xy -3.685 5.685)
      (xy -3.685 5.32)
      (xy -3.32 5.32)
      (xy -3.32 5.685)
    ) (layer "F.Paste") (width 0) (fill solid) (tstamp 1c4a016a-995a-4c29-bd8f-3971f68cd5f8))
  (fp_poly (pts
      (xy 1.82 0.18)
      (xy 1.82 -0.185)
      (xy 2.185 -0.185)
      (xy 2.185 0.18)
    ) (layer "F.Paste") (width 0) (fill solid) (tstamp 1ce0c62a-2eb9-437d-960a-7bdc86628f91))
  (fp_poly (pts
      (xy -0.685 1.185)
      (xy -0.685 0.82)
      (xy -0.32 0.82)
      (xy -0.32 1.185)
    ) (layer "F.Paste") (width 0) (fill solid) (tstamp 1fb5861a-f610-4330-a1f3-c6ee310d4e4e))
  (fp_poly (pts
      (xy 1.82 1.185)
      (xy 1.82 0.82)
      (xy 2.185 0.82)
      (xy 2.185 1.185)
    ) (layer "F.Paste") (width 0) (fill solid) (tstamp 1fcae014-e1cd-4506-a26b-6eefa86d7685))
  (fp_poly (pts
      (xy -0.685 2.685)
      (xy -0.685 2.32)
      (xy -0.32 2.32)
      (xy -0.32 2.685)
    ) (layer "F.Paste") (width 0) (fill solid) (tstamp 21c08839-ca3c-4bd2-8847-3229bb47e526))
  (fp_poly (pts
      (xy 0.32 3.18)
      (xy 0.32 2.815)
      (xy 0.685 2.815)
      (xy 0.685 3.18)
    ) (layer "F.Paste") (width 0) (fill solid) (tstamp 231808ce-c69d-4e2e-b04c-33de94dbee52))
  (fp_poly (pts
      (xy -2.185 4.68)
      (xy -2.185 4.315)
      (xy -1.82 4.315)
      (xy -1.82 4.68)
    ) (layer "F.Paste") (width 0) (fill solid) (tstamp 232e69d0-7708-4d9a-bba6-5f20af841dbd))
  (fp_poly (pts
      (xy 2.315 1.185)
      (xy 2.315 0.82)
      (xy 2.68 0.82)
      (xy 2.68 1.185)
    ) (layer "F.Paste") (width 0) (fill solid) (tstamp 28c44551-ff67-4901-98df-c4b3ee8ae7a1))
  (fp_poly (pts
      (xy -2.185 -1.815)
      (xy -2.185 -2.18)
      (xy -1.82 -2.18)
      (xy -1.82 -1.815)
    ) (layer "F.Paste") (width 0) (fill solid) (tstamp 28efea24-7164-46ef-ad58-4a6d2d4ca4e4))
  (fp_poly (pts
      (xy -1.18 1.185)
      (xy -1.18 0.82)
      (xy -0.815 0.82)
      (xy -0.815 1.185)
    ) (layer "F.Paste") (width 0) (fill solid) (tstamp 29ad045c-ed6c-49a0-a83b-47b7eab33a68))
  (fp_poly (pts
      (xy 3.32 -1.815)
      (xy 3.32 -2.18)
      (xy 3.685 -2.18)
      (xy 3.685 -1.815)
    ) (layer "F.Paste") (width 0) (fill solid) (tstamp 29b8cc0c-f71f-4a21-9535-7f715dea9432))
  (fp_poly (pts
      (xy 2.315 4.185)
      (xy 2.315 3.82)
      (xy 2.68 3.82)
      (xy 2.68 4.185)
    ) (layer "F.Paste") (width 0) (fill solid) (tstamp 2e9f8b14-2c1f-426c-b0e6-8311b137c042))
  (fp_poly (pts
      (xy -3.685 4.185)
      (xy -3.685 3.82)
      (xy -3.32 3.82)
      (xy -3.32 4.185)
    ) (layer "F.Paste") (width 0) (fill solid) (tstamp 306be044-1b90-4f3c-9081-62ad43954b03))
  (fp_poly (pts
      (xy -0.685 4.68)
      (xy -0.685 4.315)
      (xy -0.32 4.315)
      (xy -0.32 4.68)
    ) (layer "F.Paste") (width 0) (fill solid) (tstamp 3094f4a7-8f71-4c0c-b118-33ce2a31903a))
  (fp_poly (pts
      (xy -0.685 -1.815)
      (xy -0.685 -2.18)
      (xy -0.32 -2.18)
      (xy -0.32 -1.815)
    ) (layer "F.Paste") (width 0) (fill solid) (tstamp 33e2abb6-d2fa-4842-9855-e77c60f357e6))
  (fp_poly (pts
      (xy -2.68 -1.32)
      (xy -2.68 -1.685)
      (xy -2.315 -1.685)
      (xy -2.315 -1.32)
    ) (layer "F.Paste") (width 0) (fill solid) (tstamp 341355d6-78df-44d2-bf56-1b305aeb5829))
  (fp_poly (pts
      (xy -1.18 -1.32)
      (xy -1.18 -1.685)
      (xy -0.815 -1.685)
      (xy -0.815 -1.32)
    ) (layer "F.Paste") (width 0) (fill solid) (tstamp 36240b53-e0f0-4d0e-a71f-958d43ab7348))
  (fp_poly (pts
      (xy 3.32 0.18)
      (xy 3.32 -0.185)
      (xy 3.685 -0.185)
      (xy 3.685 0.18)
    ) (layer "F.Paste") (width 0) (fill solid) (tstamp 38058b61-fbbd-402f-8ca6-0ea8a1c9f817))
  (fp_poly (pts
      (xy -2.185 -1.32)
      (xy -2.185 -1.685)
      (xy -1.82 -1.685)
      (xy -1.82 -1.32)
    ) (layer "F.Paste") (width 0) (fill solid) (tstamp 3b87c997-e9e1-4c2b-9f06-584c2aebfbbf))
  (fp_poly (pts
      (xy -4.18 1.68)
      (xy -4.18 1.315)
      (xy -3.815 1.315)
      (xy -3.815 1.68)
    ) (layer "F.Paste") (width 0) (fill solid) (tstamp 43c170cd-7f66-45e1-8b55-3d1c225c56ec))
  (fp_poly (pts
      (xy 0.815 3.18)
      (xy 0.815 2.815)
      (xy 1.18 2.815)
      (xy 1.18 3.18)
    ) (layer "F.Paste") (width 0) (fill solid) (tstamp 456f694a-4635-4ebd-b0e2-e0ac2a520b24))
  (fp_poly (pts
      (xy 0.32 0.18)
      (xy 0.32 -0.185)
      (xy 0.685 -0.185)
      (xy 0.685 0.18)
    ) (layer "F.Paste") (width 0) (fill solid) (tstamp 461fa061-f446-485c-a19c-cc3997e51c33))
  (fp_poly (pts
      (xy 3.815 1.185)
      (xy 3.815 0.82)
      (xy 4.18 0.82)
      (xy 4.18 1.185)
    ) (layer "F.Paste") (width 0) (fill solid) (tstamp 4718c6f3-4723-4bdc-a816-2601326b8e74))
  (fp_poly (pts
      (xy 3.815 3.18)
      (xy 3.815 2.815)
      (xy 4.18 2.815)
      (xy 4.18 3.18)
    ) (layer "F.Paste") (width 0) (fill solid) (tstamp 49f85f14-a44a-446c-8822-1db3cc7b5d70))
  (fp_poly (pts
      (xy 2.315 -0.315)
      (xy 2.315 -0.68)
      (xy 2.68 -0.68)
      (xy 2.68 -0.315)
    ) (layer "F.Paste") (width 0) (fill solid) (tstamp 4a99d1c9-608a-4794-8aa7-857ed56854ac))
  (fp_poly (pts
      (xy -0.685 -0.315)
      (xy -0.685 -0.68)
      (xy -0.32 -0.68)
      (xy -0.32 -0.315)
    ) (layer "F.Paste") (width 0) (fill solid) (tstamp 4c22a2ae-f210-46d8-992e-7206c1323e18))
  (fp_poly (pts
      (xy 2.315 5.685)
      (xy 2.315 5.32)
      (xy 2.68 5.32)
      (xy 2.68 5.685)
    ) (layer "F.Paste") (width 0) (fill solid) (tstamp 4d498819-2127-47c6-823c-d8c442c210f8))
  (fp_poly (pts
      (xy 3.32 2.685)
      (xy 3.32 2.32)
      (xy 3.685 2.32)
      (xy 3.685 2.685)
    ) (layer "F.Paste") (width 0) (fill solid) (tstamp 5202bf6d-5c9a-4790-ab7e-b94b554bdd67))
  (fp_poly (pts
      (xy -2.68 -1.815)
      (xy -2.68 -2.18)
      (xy -2.315 -2.18)
      (xy -2.315 -1.815)
    ) (layer "F.Paste") (width 0) (fill solid) (tstamp 527894b6-2e84-4db6-a62f-484752a6858d))
  (fp_poly (pts
      (xy 3.815 6.18)
      (xy 3.815 5.815)
      (xy 4.18 5.815)
      (xy 4.18 6.18)
    ) (layer "F.Paste") (width 0) (fill solid) (tstamp 54732ffc-bcdd-4096-9941-305786273559))
  (fp_poly (pts
      (xy 1.82 -1.815)
      (xy 1.82 -2.18)
      (xy 2.185 -2.18)
      (xy 2.185 -1.815)
    ) (layer "F.Paste") (width 0) (fill solid) (tstamp 55db9890-aea2-4ff4-a1c7-3ccaa088577b))
  (fp_poly (pts
      (xy 0.32 4.68)
      (xy 0.32 4.315)
      (xy 0.685 4.315)
      (xy 0.685 4.68)
    ) (layer "F.Paste") (width 0) (fill solid) (tstamp 576ebb23-89b2-44ed-966d-19ad1d76ab3c))
  (fp_poly (pts
      (xy 0.32 2.685)
      (xy 0.32 2.32)
      (xy 0.685 2.32)
      (xy 0.685 2.685)
    ) (layer "F.Paste") (width 0) (fill solid) (tstamp 57edb716-8d94-4cad-885e-afaccd68ca41))
  (fp_poly (pts
      (xy -1.18 1.68)
      (xy -1.18 1.315)
      (xy -0.815 1.315)
      (xy -0.815 1.68)
    ) (layer "F.Paste") (width 0) (fill solid) (tstamp 58e164d5-dacf-483f-ad23-d1f97f7aea41))
  (fp_poly (pts
      (xy 0.32 -1.32)
      (xy 0.32 -1.685)
      (xy 0.685 -1.685)
      (xy 0.685 -1.32)
    ) (layer "F.Paste") (width 0) (fill solid) (tstamp 59e0d434-7f71-4392-9527-9b79a8ddef4c))
  (fp_poly (pts
      (xy 3.32 4.68)
      (xy 3.32 4.315)
      (xy 3.685 4.315)
      (xy 3.685 4.68)
    ) (layer "F.Paste") (width 0) (fill solid) (tstamp 5c0a3fe4-f2bc-4182-b115-41c2428cf5ee))
  (fp_poly (pts
      (xy -3.685 6.18)
      (xy -3.685 5.815)
      (xy -3.32 5.815)
      (xy -3.32 6.18)
    ) (layer "F.Paste") (width 0) (fill solid) (tstamp 5e6e9416-a956-4aeb-b27d-c800ebb1c35e))
  (fp_poly (pts
      (xy -1.18 2.685)
      (xy -1.18 2.32)
      (xy -0.815 2.32)
      (xy -0.815 2.685)
    ) (layer "F.Paste") (width 0) (fill solid) (tstamp 6044f853-e0d5-4206-937b-f3d7b24e1381))
  (fp_poly (pts
      (xy 2.315 4.68)
      (xy 2.315 4.315)
      (xy 2.68 4.315)
      (xy 2.68 4.68)
    ) (layer "F.Paste") (width 0) (fill solid) (tstamp 64aeab62-bea8-4176-ad58-8d78455b271e))
  (fp_poly (pts
      (xy 0.815 -1.32)
      (xy 0.815 -1.685)
      (xy 1.18 -1.685)
      (xy 1.18 -1.32)
    ) (layer "F.Paste") (width 0) (fill solid) (tstamp 65b90771-92cb-47ec-9fb2-904acc373481))
  (fp_poly (pts
      (xy 2.315 0.18)
      (xy 2.315 -0.185)
      (xy 2.68 -0.185)
      (xy 2.68 0.18)
    ) (layer "F.Paste") (width 0) (fill solid) (tstamp 66961d70-597e-4d0a-a1b6-567450791e65))
  (fp_poly (pts
      (xy 3.815 5.685)
      (xy 3.815 5.32)
      (xy 4.18 5.32)
      (xy 4.18 5.685)
    ) (layer "F.Paste") (width 0) (fill solid) (tstamp 677a2fb5-c587-40c0-9148-2af3c51a278b))
  (fp_poly (pts
      (xy 2.315 -1.32)
      (xy 2.315 -1.685)
      (xy 2.68 -1.685)
      (xy 2.68 -1.32)
    ) (layer "F.Paste") (width 0) (fill solid) (tstamp 6a83967f-5715-4d90-aa15-99dddbbb4ae8))
  (fp_poly (pts
      (xy -4.18 -0.315)
      (xy -4.18 -0.68)
      (xy -3.815 -0.68)
      (xy -3.815 -0.315)
    ) (layer "F.Paste") (width 0) (fill solid) (tstamp 6b085cc0-daa8-446c-95f4-2aae519ca77a))
  (fp_poly (pts
      (xy 1.82 1.68)
      (xy 1.82 1.315)
      (xy 2.185 1.315)
      (xy 2.185 1.68)
    ) (layer "F.Paste") (width 0) (fill solid) (tstamp 6d4ab30c-00e0-4154-9652-8bf1e245515b))
  (fp_poly (pts
      (xy 0.815 5.685)
      (xy 0.815 5.32)
      (xy 1.18 5.32)
      (xy 1.18 5.685)
    ) (layer "F.Paste") (width 0) (fill solid) (tstamp 6d695a75-2fdb-4199-bba6-bdc8c5fac057))
  (fp_poly (pts
      (xy 3.32 -1.32)
      (xy 3.32 -1.685)
      (xy 3.685 -1.685)
      (xy 3.685 -1.32)
    ) (layer "F.Paste") (width 0) (fill solid) (tstamp 6e2ade03-8f46-411f-985d-dcb4d7128c06))
  (fp_poly (pts
      (xy -2.68 4.185)
      (xy -2.68 3.82)
      (xy -2.315 3.82)
      (xy -2.315 4.185)
    ) (layer "F.Paste") (width 0) (fill solid) (tstamp 7064363f-6a97-4271-abf3-ef8db4890d1d))
  (fp_poly (pts
      (xy -0.685 3.18)
      (xy -0.685 2.815)
      (xy -0.32 2.815)
      (xy -0.32 3.18)
    ) (layer "F.Paste") (width 0) (fill solid) (tstamp 71d03cae-eb29-4447-9f20-b5c99eda1221))
  (fp_poly (pts
      (xy -3.685 4.68)
      (xy -3.685 4.315)
      (xy -3.32 4.315)
      (xy -3.32 4.68)
    ) (layer "F.Paste") (width 0) (fill solid) (tstamp 760f6490-4d83-4ce3-a1ad-1e6c2eccbd37))
  (fp_poly (pts
      (xy -2.68 3.18)
      (xy -2.68 2.815)
      (xy -2.315 2.815)
      (xy -2.315 3.18)
    ) (layer "F.Paste") (width 0) (fill solid) (tstamp 798fbbb7-8eb9-4306-8831-8c6b32a97f15))
  (fp_poly (pts
      (xy -2.185 6.18)
      (xy -2.185 5.815)
      (xy -1.82 5.815)
      (xy -1.82 6.18)
    ) (layer "F.Paste") (width 0) (fill solid) (tstamp 7a7da7ea-d7b0-4983-903d-b8b8dc5d890c))
  (fp_poly (pts
      (xy -2.68 -0.315)
      (xy -2.68 -0.68)
      (xy -2.315 -0.68)
      (xy -2.315 -0.315)
    ) (layer "F.Paste") (width 0) (fill solid) (tstamp 7d1374ce-0668-4fba-bcad-90256a107f7e))
  (fp_poly (pts
      (xy -4.18 6.18)
      (xy -4.18 5.815)
      (xy -3.815 5.815)
      (xy -3.815 6.18)
    ) (layer "F.Paste") (width 0) (fill solid) (tstamp 7d48b78b-560b-4764-bf08-9dd25e9ad28c))
  (fp_poly (pts
      (xy -0.685 0.18)
      (xy -0.685 -0.185)
      (xy -0.32 -0.185)
      (xy -0.32 0.18)
    ) (layer "F.Paste") (width 0) (fill solid) (tstamp 7dad3e63-1248-4fce-be53-6d578da05f4a))
  (fp_poly (pts
      (xy -0.685 6.18)
      (xy -0.685 5.815)
      (xy -0.32 5.815)
      (xy -0.32 6.18)
    ) (layer "F.Paste") (width 0) (fill solid) (tstamp 7f29a282-c285-43d4-b4f0-67d2e9bfa38b))
  (fp_poly (pts
      (xy -1.18 6.18)
      (xy -1.18 5.815)
      (xy -0.815 5.815)
      (xy -0.815 6.18)
    ) (layer "F.Paste") (width 0) (fill solid) (tstamp 8057e310-94bd-4b4d-a632-419352ded64f))
  (fp_poly (pts
      (xy 1.82 4.68)
      (xy 1.82 4.315)
      (xy 2.185 4.315)
      (xy 2.185 4.68)
    ) (layer "F.Paste") (width 0) (fill solid) (tstamp 811f4a46-a99d-47fa-9b98-aa79c4f1ce8b))
  (fp_poly (pts
      (xy 3.815 4.185)
      (xy 3.815 3.82)
      (xy 4.18 3.82)
      (xy 4.18 4.185)
    ) (layer "F.Paste") (width 0) (fill solid) (tstamp 8162a3aa-f086-4945-bbc9-d6adcb36898c))
  (fp_poly (pts
      (xy 3.32 3.18)
      (xy 3.32 2.815)
      (xy 3.685 2.815)
      (xy 3.685 3.18)
    ) (layer "F.Paste") (width 0) (fill solid) (tstamp 82a37669-ce65-4abd-8b31-3fb55db318d3))
  (fp_poly (pts
      (xy 3.32 -0.315)
      (xy 3.32 -0.68)
      (xy 3.685 -0.68)
      (xy 3.685 -0.315)
    ) (layer "F.Paste") (width 0) (fill solid) (tstamp 82c06576-1f33-4721-a4ac-d7d930a2039f))
  (fp_poly (pts
      (xy -4.18 1.185)
      (xy -4.18 0.82)
      (xy -3.815 0.82)
      (xy -3.815 1.185)
    ) (layer "F.Paste") (width 0) (fill solid) (tstamp 847fbc18-44a5-47c2-b947-defaf1d4b5af))
  (fp_poly (pts
      (xy 0.815 6.18)
      (xy 0.815 5.815)
      (xy 1.18 5.815)
      (xy 1.18 6.18)
    ) (layer "F.Paste") (width 0) (fill solid) (tstamp 86b0837e-3b03-4624-8b86-f5818f7a8508))
  (fp_poly (pts
      (xy 0.815 -1.815)
      (xy 0.815 -2.18)
      (xy 1.18 -2.18)
      (xy 1.18 -1.815)
    ) (layer "F.Paste") (width 0) (fill solid) (tstamp 8a98d755-0f82-426e-8567-d5a37da3ba76))
  (fp_poly (pts
      (xy -1.18 0.18)
      (xy -1.18 -0.185)
      (xy -0.815 -0.185)
      (xy -0.815 0.18)
    ) (layer "F.Paste") (width 0) (fill solid) (tstamp 8e21d8b2-1504-4874-aa2e-4cdc516232d2))
  (fp_poly (pts
      (xy 1.82 6.18)
      (xy 1.82 5.815)
      (xy 2.185 5.815)
      (xy 2.185 6.18)
    ) (layer "F.Paste") (width 0) (fill solid) (tstamp 920d94e6-31a8-4fdc-8553-19d0f6485b8f))
  (fp_poly (pts
      (xy -3.685 1.68)
      (xy -3.685 1.315)
      (xy -3.32 1.315)
      (xy -3.32 1.68)
    ) (layer "F.Paste") (width 0) (fill solid) (tstamp 932f868b-f6b4-473d-a5cf-20096447be9a))
  (fp_poly (pts
      (xy 0.815 4.185)
      (xy 0.815 3.82)
      (xy 1.18 3.82)
      (xy 1.18 4.185)
    ) (layer "F.Paste") (width 0) (fill solid) (tstamp 933b6c88-3aec-4a64-bcc7-748e7eaf861c))
  (fp_poly (pts
      (xy 3.815 2.685)
      (xy 3.815 2.32)
      (xy 4.18 2.32)
      (xy 4.18 2.685)
    ) (layer "F.Paste") (width 0) (fill solid) (tstamp 956a3c83-6ff5-4e93-a52a-01b1e5d2c727))
  (fp_poly (pts
      (xy -1.18 4.185)
      (xy -1.18 3.82)
      (xy -0.815 3.82)
      (xy -0.815 4.185)
    ) (layer "F.Paste") (width 0) (fill solid) (tstamp 98363729-b49d-41ef-899f-1f0f778c0953))
  (fp_poly (pts
      (xy 1.82 -0.315)
      (xy 1.82 -0.68)
      (xy 2.185 -0.68)
      (xy 2.185 -0.315)
    ) (layer "F.Paste") (width 0) (fill solid) (tstamp 9a3080ad-8ba3-43d7-b733-9b6fc3e2a132))
  (fp_poly (pts
      (xy -4.18 2.685)
      (xy -4.18 2.32)
      (xy -3.815 2.32)
      (xy -3.815 2.685)
    ) (layer "F.Paste") (width 0) (fill solid) (tstamp 9a53f082-d510-4a16-83b3-7dd63b09c686))
  (fp_poly (pts
      (xy 3.32 6.18)
      (xy 3.32 5.815)
      (xy 3.685 5.815)
      (xy 3.685 6.18)
    ) (layer "F.Paste") (width 0) (fill solid) (tstamp 9ee57082-f26d-42e8-bc9d-cff9b48f69a1))
  (fp_poly (pts
      (xy -2.68 4.68)
      (xy -2.68 4.315)
      (xy -2.315 4.315)
      (xy -2.315 4.68)
    ) (layer "F.Paste") (width 0) (fill solid) (tstamp 9ee995ea-e8a6-40c5-8f6e-5ac71ebfb9d0))
  (fp_poly (pts
      (xy 3.815 1.68)
      (xy 3.815 1.315)
      (xy 4.18 1.315)
      (xy 4.18 1.68)
    ) (layer "F.Paste") (width 0) (fill solid) (tstamp 9fb92e36-b6be-4210-8202-f62fa1526bce))
  (fp_poly (pts
      (xy 3.32 5.685)
      (xy 3.32 5.32)
      (xy 3.685 5.32)
      (xy 3.685 5.685)
    ) (layer "F.Paste") (width 0) (fill solid) (tstamp a0b20454-68db-48d1-904b-41b889fab62a))
  (fp_poly (pts
      (xy 1.82 3.18)
      (xy 1.82 2.815)
      (xy 2.185 2.815)
      (xy 2.185 3.18)
    ) (layer "F.Paste") (width 0) (fill solid) (tstamp a1baeb1e-90fa-4d05-a812-2c9139452482))
  (fp_poly (pts
      (xy -0.685 1.68)
      (xy -0.685 1.315)
      (xy -0.32 1.315)
      (xy -0.32 1.68)
    ) (layer "F.Paste") (width 0) (fill solid) (tstamp a5333bd2-2eff-4205-8f14-aa3641a22dba))
  (fp_poly (pts
      (xy -1.18 -0.315)
      (xy -1.18 -0.68)
      (xy -0.815 -0.68)
      (xy -0.815 -0.315)
    ) (layer "F.Paste") (width 0) (fill solid) (tstamp a58620bc-b22b-4836-b9db-f31cdbc28c89))
  (fp_poly (pts
      (xy 0.815 0.18)
      (xy 0.815 -0.185)
      (xy 1.18 -0.185)
      (xy 1.18 0.18)
    ) (layer "F.Paste") (width 0) (fill solid) (tstamp a9f480d4-fc1e-4321-af4e-79d863851f3c))
  (fp_poly (pts
      (xy -0.685 5.685)
      (xy -0.685 5.32)
      (xy -0.32 5.32)
      (xy -0.32 5.685)
    ) (layer "F.Paste") (width 0) (fill solid) (tstamp aefd0b6b-a33c-46b7-8aed-46cf7cd08ab3))
  (fp_poly (pts
      (xy -0.685 4.185)
      (xy -0.685 3.82)
      (xy -0.32 3.82)
      (xy -0.32 4.185)
    ) (layer "F.Paste") (width 0) (fill solid) (tstamp b00a1a6f-f57b-4bf6-8d16-b96f2e76fa3e))
  (fp_poly (pts
      (xy -2.185 4.185)
      (xy -2.185 3.82)
      (xy -1.82 3.82)
      (xy -1.82 4.185)
    ) (layer "F.Paste") (width 0) (fill solid) (tstamp b0a15c01-5ef3-4153-b720-9aa050646efe))
  (fp_poly (pts
      (xy 3.815 -1.815)
      (xy 3.815 -2.18)
      (xy 4.18 -2.18)
      (xy 4.18 -1.815)
    ) (layer "F.Paste") (width 0) (fill solid) (tstamp b4a21e34-0d55-4113-b2de-379058b78688))
  (fp_poly (pts
      (xy -3.685 3.18)
      (xy -3.685 2.815)
      (xy -3.32 2.815)
      (xy -3.32 3.18)
    ) (layer "F.Paste") (width 0) (fill solid) (tstamp b553dcf0-b14b-4c90-a687-a806e4040dce))
  (fp_poly (pts
      (xy -2.68 2.685)
      (xy -2.68 2.32)
      (xy -2.315 2.32)
      (xy -2.315 2.685)
    ) (layer "F.Paste") (width 0) (fill solid) (tstamp b580317a-1c23-4883-8355-bc6c2e3b8de4))
  (fp_poly (pts
      (xy 1.82 5.685)
      (xy 1.82 5.32)
      (xy 2.185 5.32)
      (xy 2.185 5.685)
    ) (layer "F.Paste") (width 0) (fill solid) (tstamp b965e6a7-d03a-4ba7-bc81-d3babdd9b554))
  (fp_poly (pts
      (xy 3.815 -1.32)
      (xy 3.815 -1.685)
      (xy 4.18 -1.685)
      (xy 4.18 -1.32)
    ) (layer "F.Paste") (width 0) (fill solid) (tstamp bc53e0d6-17fc-4ba4-9bfa-1a724f3adeff))
  (fp_poly (pts
      (xy 3.815 -0.315)
      (xy 3.815 -0.68)
      (xy 4.18 -0.68)
      (xy 4.18 -0.315)
    ) (layer "F.Paste") (width 0) (fill solid) (tstamp bc9f1eb9-75e9-4ce7-bc57-0c6fdeb1813f))
  (fp_poly (pts
      (xy -2.68 6.18)
      (xy -2.68 5.815)
      (xy -2.315 5.815)
      (xy -2.315 6.18)
    ) (layer "F.Paste") (width 0) (fill solid) (tstamp bdd7f3af-3b97-4c13-9722-319bee1d5fb1))
  (fp_poly (pts
      (xy -4.18 0.18)
      (xy -4.18 -0.185)
      (xy -3.815 -0.185)
      (xy -3.815 0.18)
    ) (layer "F.Paste") (width 0) (fill solid) (tstamp c4277319-c77d-4161-9f88-c32af3fe8ca3))
  (fp_poly (pts
      (xy 0.815 1.68)
      (xy 0.815 1.315)
      (xy 1.18 1.315)
      (xy 1.18 1.68)
    ) (layer "F.Paste") (width 0) (fill solid) (tstamp c46db753-e5ac-4aeb-ba97-13fae2ef98e6))
  (fp_poly (pts
      (xy 0.815 4.68)
      (xy 0.815 4.315)
      (xy 1.18 4.315)
      (xy 1.18 4.68)
    ) (layer "F.Paste") (width 0) (fill solid) (tstamp c988f294-8dd1-4427-b703-e447a9c119be))
  (fp_poly (pts
      (xy -1.18 -1.815)
      (xy -1.18 -2.18)
      (xy -0.815 -2.18)
      (xy -0.815 -1.815)
    ) (layer "F.Paste") (width 0) (fill solid) (tstamp ca924967-e6d2-4f6b-a653-84420e4e1782))
  (fp_poly (pts
      (xy -2.185 2.685)
      (xy -2.185 2.32)
      (xy -1.82 2.32)
      (xy -1.82 2.685)
    ) (layer "F.Paste") (width 0) (fill solid) (tstamp caefaccf-0a45-4843-a36b-9ef7d2f40bf6))
  (fp_poly (pts
      (xy -4.18 4.68)
      (xy -4.18 4.315)
      (xy -3.815 4.315)
      (xy -3.815 4.68)
    ) (layer "F.Paste") (width 0) (fill solid) (tstamp ce8061e8-8b28-4ce0-a505-c6bfde6cc955))
  (fp_poly (pts
      (xy 1.82 2.685)
      (xy 1.82 2.32)
      (xy 2.185 2.32)
      (xy 2.185 2.685)
    ) (layer "F.Paste") (width 0) (fill solid) (tstamp ceb08a34-f7e0-4d3d-8dbb-024f2916c960))
  (fp_poly (pts
      (xy 2.315 3.18)
      (xy 2.315 2.815)
      (xy 2.68 2.815)
      (xy 2.68 3.18)
    ) (layer "F.Paste") (width 0) (fill solid) (tstamp cefbaef5-c488-492d-97b7-b4db95b0f132))
  (fp_poly (pts
      (xy 0.32 -0.315)
      (xy 0.32 -0.68)
      (xy 0.685 -0.68)
      (xy 0.685 -0.315)
    ) (layer "F.Paste") (width 0) (fill solid) (tstamp cf303c41-a858-4882-b208-29838fe540b7))
  (fp_poly (pts
      (xy -1.18 4.68)
      (xy -1.18 4.315)
      (xy -0.815 4.315)
      (xy -0.815 4.68)
    ) (layer "F.Paste") (width 0) (fill solid) (tstamp d26b4195-6a43-4a63-8655-e60dc5cfc4e1))
  (fp_poly (pts
      (xy -3.685 -0.315)
      (xy -3.685 -0.68)
      (xy -3.32 -0.68)
      (xy -3.32 -0.315)
    ) (layer "F.Paste") (width 0) (fill solid) (tstamp d51f4f76-c6f9-4e98-88bf-c8826f1f3300))
  (fp_poly (pts
      (xy 3.32 1.68)
      (xy 3.32 1.315)
      (xy 3.685 1.315)
      (xy 3.685 1.68)
    ) (layer "F.Paste") (width 0) (fill solid) (tstamp d5a6607e-e563-4e36-b62c-435f25fdfbbd))
  (fp_poly (pts
      (xy -3.685 0.18)
      (xy -3.685 -0.185)
      (xy -3.32 -0.185)
      (xy -3.32 0.18)
    ) (layer "F.Paste") (width 0) (fill solid) (tstamp d6bd114f-9af9-4ba9-8c2b-10988338cf25))
  (fp_poly (pts
      (xy -4.18 3.18)
      (xy -4.18 2.815)
      (xy -3.815 2.815)
      (xy -3.815 3.18)
    ) (layer "F.Paste") (width 0) (fill solid) (tstamp d754f83c-642b-4846-a7a0-71a219a07492))
  (fp_poly (pts
      (xy -1.18 5.685)
      (xy -1.18 5.32)
      (xy -0.815 5.32)
      (xy -0.815 5.685)
    ) (layer "F.Paste") (width 0) (fill solid) (tstamp e09c0839-23f3-4023-b8cd-6475bac560f9))
  (fp_poly (pts
      (xy 1.82 -1.32)
      (xy 1.82 -1.685)
      (xy 2.185 -1.685)
      (xy 2.185 -1.32)
    ) (layer "F.Paste") (width 0) (fill solid) (tstamp e0faede9-df03-4a66-a0d9-892d7bd80501))
  (fp_poly (pts
      (xy -2.185 3.18)
      (xy -2.185 2.815)
      (xy -1.82 2.815)
      (xy -1.82 3.18)
    ) (layer "F.Paste") (width 0) (fill solid) (tstamp e1836dcd-b291-45d9-9ca5-ac167e61a2b8))
  (fp_poly (pts
      (xy -2.185 1.68)
      (xy -2.185 1.315)
      (xy -1.82 1.315)
      (xy -1.82 1.68)
    ) (layer "F.Paste") (width 0) (fill solid) (tstamp e18fdc8e-a88c-4b32-bac2-103e42c0244b))
  (fp_poly (pts
      (xy -2.68 0.18)
      (xy -2.68 -0.185)
      (xy -2.315 -0.185)
      (xy -2.315 0.18)
    ) (layer "F.Paste") (width 0) (fill solid) (tstamp e19123d4-b5dc-4dc2-8136-3848591c1163))
  (fp_poly (pts
      (xy 3.815 4.68)
      (xy 3.815 4.315)
      (xy 4.18 4.315)
      (xy 4.18 4.68)
    ) (layer "F.Paste") (width 0) (fill solid) (tstamp e310643f-37c4-43c6-a01b-ed2567e7f136))
  (fp_poly (pts
      (xy 0.32 4.185)
      (xy 0.32 3.82)
      (xy 0.685 3.82)
      (xy 0.685 4.185)
    ) (layer "F.Paste") (width 0) (fill solid) (tstamp e5fc02c2-08c1-47f5-a5fb-a6544ecf029f))
  (fp_poly (pts
      (xy -2.185 1.185)
      (xy -2.185 0.82)
      (xy -1.82 0.82)
      (xy -1.82 1.185)
    ) (layer "F.Paste") (width 0) (fill solid) (tstamp e73160c8-b84f-45b7-981c-8156d09be87e))
  (fp_poly (pts
      (xy 0.32 6.18)
      (xy 0.32 5.815)
      (xy 0.685 5.815)
      (xy 0.685 6.18)
    ) (layer "F.Paste") (width 0) (fill solid) (tstamp e7dcbf56-cd6c-4575-9931-b6e39756948e))
  (fp_poly (pts
      (xy -2.68 1.185)
      (xy -2.68 0.82)
      (xy -2.315 0.82)
      (xy -2.315 1.185)
    ) (layer "F.Paste") (width 0) (fill solid) (tstamp e8bc4ef5-f2f1-48b1-968e-b143ecae0499))
  (fp_poly (pts
      (xy -2.185 0.18)
      (xy -2.185 -0.185)
      (xy -1.82 -0.185)
      (xy -1.82 0.18)
    ) (layer "F.Paste") (width 0) (fill solid) (tstamp ea0a0d67-5e90-41c3-8e2f-ee60c47c8980))
  (fp_poly (pts
      (xy 2.315 1.68)
      (xy 2.315 1.315)
      (xy 2.68 1.315)
      (xy 2.68 1.68)
    ) (layer "F.Paste") (width 0) (fill solid) (tstamp eb22ec84-b012-4873-a1be-48f829ef6b41))
  (fp_poly (pts
      (xy 1.82 4.185)
      (xy 1.82 3.82)
      (xy 2.185 3.82)
      (xy 2.185 4.185)
    ) (layer "F.Paste") (width 0) (fill solid) (tstamp ec85a022-22f0-4ba7-90de-14f4846982ee))
  (fp_poly (pts
      (xy -2.68 5.685)
      (xy -2.68 5.32)
      (xy -2.315 5.32)
      (xy -2.315 5.685)
    ) (layer "F.Paste") (width 0) (fill solid) (tstamp ef0dd780-d7f9-4b9a-a3a4-a423c612a9d2))
  (fp_poly (pts
      (xy -2.185 -0.315)
      (xy -2.185 -0.68)
      (xy -1.82 -0.68)
      (xy -1.82 -0.315)
    ) (layer "F.Paste") (width 0) (fill solid) (tstamp ef6a7b1c-ac6a-4fe5-be6e-76f850bba90c))
  (fp_poly (pts
      (xy 0.32 1.68)
      (xy 0.32 1.315)
      (xy 0.685 1.315)
      (xy 0.685 1.68)
    ) (layer "F.Paste") (width 0) (fill solid) (tstamp f0b3cb68-1fdc-4f01-b0cf-1d55da855d10))
  (fp_poly (pts
      (xy 0.815 -0.315)
      (xy 0.815 -0.68)
      (xy 1.18 -0.68)
      (xy 1.18 -0.315)
    ) (layer "F.Paste") (width 0) (fill solid) (tstamp f592aaed-724c-409a-a7c5-66d978742324))
  (fp_poly (pts
      (xy -3.685 2.685)
      (xy -3.685 2.32)
      (xy -3.32 2.32)
      (xy -3.32 2.685)
    ) (layer "F.Paste") (width 0) (fill solid) (tstamp f69a47d3-720f-4ce4-833b-9e492b47ee39))
  (fp_line (start -5 -7.1) (end -5 7.1) (layer "F.SilkS") (width 0.12) (tstamp 149c9552-787e-4592-bd3a-87245aa3df11))
  (fp_line (start 5 7.1) (end 5 -7.1) (layer "F.SilkS") (width 0.12) (tstamp 42045fbc-fbef-4a91-99b9-44d33aad5f0c))
  (fp_line (start -5 7.1) (end 5 7.1) (layer "F.SilkS") (width 0.12) (tstamp cef8fa18-9235-407c-8f84-3e1f9d4eaf8a))
  (fp_line (start 5 -7.1) (end -5 -7.1) (layer "F.SilkS") (width 0.12) (tstamp e6934353-fadd-4dba-acec-513e108c228d))
  (fp_line (start 1.5 -7) (end -2.9 -2.6) (layer "Dwgs.User") (width 0.1) (tstamp 1304e80e-2c9a-41b3-a521-ac6aca7fc163))
  (fp_line (start -4.5 -2.6) (end -0.1 -7) (layer "Dwgs.User") (width 0.1) (tstamp 1a5b2a1c-fd38-43f2-b3d8-824065a6ab51))
  (fp_line (start 4.9 -4.8) (end 2.7 -2.6) (layer "Dwgs.User") (width 0.1) (tstamp 2af846fa-6825-4851-ad21-1cb6a8018cab))
  (fp_line (start -4.9 -5.4) (end -3.3 -7) (layer "Dwgs.User") (width 0.1) (tstamp 49958ccb-395c-4bfe-8135-8f496a8ce4a4))
  (fp_line (start -4.9 -3.8) (end -1.7 -7) (layer "Dwgs.User") (width 0.1) (tstamp 4d32797c-f108-4c5a-90cd-b557d2092c19))
  (fp_line (start 4.9 -2.6) (end 4.9 -7) (layer "Dwgs.User") (width 0.1) (tstamp 5baf48ec-fbac-435b-bb03-7736fcf0b246))
  (fp_line (start 4.9 -4) (end 3.5 -2.6) (layer "Dwgs.User") (width 0.1) (tstamp 68b96cf3-77aa-4b6f-b8cd-40c942b8de03))
  (fp_line (start 4.9 -3.2) (end 4.3 -2.6) (layer "Dwgs.User") (width 0.1) (tstamp 7478acef-2c6f-4333-a6d6-b49c353ed2a4))
  (fp_line (start 4.9 -6.4) (end 1.1 -2.6) (layer "Dwgs.User") (width 0.1) (tstamp 767c5486-2461-4323-b7f2-a73160291048))
  (fp_line (start -4.9 -2.6) (end 4.9 -2.6) (layer "Dwgs.User") (width 0.1) (tstamp 9064df19-520c-422c-b1cb-67e1161a12c7))
  (fp_line (start -4.9 -6.2) (end -4.1 -7) (layer "Dwgs.User") (width 0.1) (tstamp 90b78cc3-d7e6-467d-ac4b-52de7b147996))
  (fp_line (start -4.9 -7) (end -4.9 -2.625) (layer "Dwgs.User") (width 0.1) (tstamp 997599f5-9528-40b7-854d-8856d5760a9b))
  (fp_line (start 4.9 -7) (end -4.9 -7) (layer "Dwgs.User") (width 0.1) (tstamp a47c2f7e-5a83-4b2c-b3ad-3f9ee8b30c70))
  (fp_line (start 4.7 -7) (end 0.3 -2.6) (layer "Dwgs.User") (width 0.1) (tstamp adf3ce4a-734e-455b-a6b4-c71971f49523))
  (fp_line (start 4.9 -5.6) (end 1.9 -2.6) (layer "Dwgs.User") (width 0.1) (tstamp c59ba388-8bb3-4403-9e4b-1404b43771f9))
  (fp_line (start 3.9 -7) (end -0.5 -2.6) (layer "Dwgs.User") (width 0.1) (tstamp c73bed8d-8602-4a22-ae8e-653a31ab2721))
  (fp_line (start 3.1 -7) (end -1.3 -2.6) (layer "Dwgs.User") (width 0.1) (tstamp d0d9a24b-dceb-4d6e-97df-fa16283898a5))
  (fp_line (start 2.3 -7) (end -2.1 -2.6) (layer "Dwgs.User") (width 0.1) (tstamp e9d12c23-68f9-4857-ac34-8664286abec4))
  (fp_line (start 0.7 -7) (end -3.7 -2.6) (layer "Dwgs.User") (width 0.1) (tstamp ec4a14ea-cc4e-46fa-9ee0-c4c2c1236f23))
  (fp_line (start -4.9 -3) (end -0.9 -7) (layer "Dwgs.User") (width 0.1) (tstamp ed18f785-68c8-43a6-b1ac-d44332d97ad7))
  (fp_line (start -4.9 -4.6) (end -2.5 -7) (layer "Dwgs.User") (width 0.1) (tstamp f7d8591e-6c99-4f3c-8787-b26b31e89bc9))
  (fp_line (start 5.15 7.25) (end -5.15 7.25) (layer "F.CrtYd") (width 0.05) (tstamp 37597b96-1d08-40c9-8504-d2a3fecfd294))
  (fp_line (start -5.15 7.25) (end -5.15 -7.25) (layer "F.CrtYd") (width 0.05) (tstamp 39e8b638-a389-482e-b2b8-3dfa35dc6f94))
  (fp_line (start -5.15 -7.25) (end 5.15 -7.25) (layer "F.CrtYd") (width 0.05) (tstamp a9b237ac-c07a-45a5-b5ef-f64b65ae466d))
  (fp_line (start 5.15 -7.25) (end 5.15 7.25) (layer "F.CrtYd") (width 0.05) (tstamp e1415253-f218-4b3e-baa6-638e29f4c101))
  (fp_line (start -4.9 -2.15) (end -4.1 -1.75) (layer "F.Fab") (width 0.1) (tstamp 10ed1a9c-7f83-4e5a-9012-19d055b936d0))
  (fp_line (start -4.9 -2.6) (end 4.9 -2.6) (layer "F.Fab") (width 0.1) (tstamp 183a2344-035c-4174-bb51-703e398fb65d))
  (fp_line (start 4.9 -7) (end 4.9 7) (layer "F.Fab") (width 0.1) (tstamp 69d7a3a7-024b-4695-a45d-a957438fdc76))
  (fp_line (start 4.9 7) (end -4.9 7) (layer "F.Fab") (width 0.1) (tstamp 6a831e46-b4f5-4371-8300-d46d0fdd691b))
  (fp_line (start -4.9 -1.35) (end -4.1 -1.75) (layer "F.Fab") (width 0.1) (tstamp 7b554533-9d59-4933-8a8a-a556374fb81f))
  (fp_line (start -4.9 -7) (end 4.9 -7) (layer "F.Fab") (width 0.1) (tstamp 9fb1986a-fc52-4d7d-898f-30be697eb692))
  (fp_line (start -4.9 7) (end -4.9 -7) (layer "F.Fab") (width 0.1) (tstamp c5cc5877-a0b1-4493-bd34-a8f605b6ac09))
  (pad "A2" smd circle (at -2.25 -1.75) (size 0.762 0.762) (layers "F.Cu" "F.Mask") (tstamp 3efd75c0-5b7a-41c4-ba14-67b96addfecd))
  (pad "A3" smd circle (at -0.75 -1.75) (size 0.762 0.762) (layers "F.Cu" "F.Mask") (tstamp d68d35c1-cd51-42e8-8aaf-c062affce594))
  (pad "A4" smd circle (at 0.75 -1.75) (size 0.762 0.762) (layers "F.Cu" "F.Mask") (tstamp b5684773-a776-46da-9c1b-b9071868af1d))
  (pad "A5" smd circle (at 2.25 -1.75) (size 0.762 0.762) (layers "F.Cu" "F.Mask") (tstamp cee90492-7bd5-4fe8-a4f6-22a839b5d12a))
  (pad "A6" smd circle (at 3.75 -1.75) (size 0.762 0.762) (layers "F.Cu" "F.Mask") (tstamp 1cc02478-3987-4ed2-a923-0ee96e3bcd96))
  (pad "B1" smd circle (at -3.75 -0.25) (size 0.762 0.762) (layers "F.Cu" "F.Mask") (tstamp 4eb978ca-86a1-4df9-86c0-a517c9f4e173))
  (pad "B2" smd circle (at -2.25 -0.25) (size 0.762 0.762) (layers "F.Cu" "F.Mask") (tstamp 240f2920-9b32-4ce2-9732-f92a16741609))
  (pad "B3" smd circle (at -0.75 -0.25) (size 0.762 0.762) (layers "F.Cu" "F.Mask") (tstamp cf74b280-7ae0-430c-ba6a-d4a2288605ce))
  (pad "B4" smd circle (at 0.75 -0.25) (size 0.762 0.762) (layers "F.Cu" "F.Mask") (tstamp 6692a3c7-4742-46c5-96ff-4f6fc1b5a353))
  (pad "B5" smd circle (at 2.25 -0.25) (size 0.762 0.762) (layers "F.Cu" "F.Mask") (tstamp 751c3e89-9588-4837-b4cf-64b9bf6c740f))
  (pad "B6" smd circle (at 3.75 -0.25) (size 0.762 0.762) (layers "F.Cu" "F.Mask") (tstamp d8928454-35f3-4dfc-9844-7556cf8698bc))
  (pad "C1" smd circle (at -3.75 1.25) (size 0.762 0.762) (layers "F.Cu" "F.Mask") (tstamp 9427233c-3eb2-4e0f-a3cd-627da2ee94b0))
  (pad "C2" smd circle (at -2.25 1.25) (size 0.762 0.762) (layers "F.Cu" "F.Mask") (tstamp e35f1f86-ff32-4743-ae28-2e380b5c4fbb))
  (pad "C3" smd circle (at -0.75 1.25) (size 0.762 0.762) (layers "F.Cu" "F.Mask") (tstamp fe9728b3-e526-419e-951b-05d801d21fdd))
  (pad "C4" smd circle (at 0.75 1.25) (size 0.762 0.762) (layers "F.Cu" "F.Mask") (tstamp c2253a9c-2415-4469-960f-c2bc3ebea7b3))
  (pad "C5" smd circle (at 2.25 1.25) (size 0.762 0.762) (layers "F.Cu" "F.Mask") (tstamp 90ec98de-f3ab-4c83-ab75-e40c84f8c39d))
  (pad "C6" smd circle (at 3.75 1.25) (size 0.762 0.762) (layers "F.Cu" "F.Mask") (tstamp 7e59b5da-ba31-4527-9d93-48c498c12a44))
  (pad "D1" smd circle (at -3.75 2.75) (size 0.762 0.762) (layers "F.Cu" "F.Mask") (tstamp a5e864c9-840d-4d4f-9ec1-888c50b6dfd9))
  (pad "D2" smd circle (at -2.25 2.75) (size 0.762 0.762) (layers "F.Cu" "F.Mask") (tstamp a034834b-a00b-49c0-a188-59cae214d662))
  (pad "D3" smd circle (at -0.75 2.75) (size 0.762 0.762) (layers "F.Cu" "F.Mask") (tstamp 6838538a-2616-4df2-be38-45f9af5eab09))
  (pad "D4" smd circle (at 0.75 2.75) (size 0.762 0.762) (layers "F.Cu" "F.Mask") (tstamp d8497117-d955-470f-97b1-924d9e951445))
  (pad "D5" smd circle (at 2.25 2.75) (size 0.762 0.762) (layers "F.Cu" "F.Mask") (tstamp 63c06e51-0011-4fcf-8df4-629193820389))
  (pad "D6" smd circle (at 3.75 2.75) (size 0.762 0.762) (layers "F.Cu" "F.Mask") (tstamp bc813ee5-6031-482b-b0b6-5181a2e7cc54))
  (pad "E1" smd circle (at -3.75 4.25) (size 0.762 0.762) (layers "F.Cu" "F.Mask") (tstamp 1c404cf7-778e-466e-b345-6b8a082be3eb))
  (pad "E2" smd circle (at -2.25 4.25) (size 0.762 0.762) (layers "F.Cu" "F.Mask") (tstamp 7e1b975f-bacf-4693-bbbb-430807bc5761))
  (pad "E3" smd circle (at -0.75 4.25) (size 0.762 0.762) (layers "F.Cu" "F.Mask") (tstamp 7ec03a22-df76-4cc9-8bed-aa261649dd24))
  (pad "E4" smd circle (at 0.75 4.25) (size 0.762 0.762) (layers "F.Cu" "F.Mask") (tstamp c42bcdfa-2955-4433-b3ee-a6caf561852a))
  (pad "E5" smd circle (at 2.25 4.25) (size 0.762 0.762) (layers "F.Cu" "F.Mask") (tstamp e287289b-79cd-4690-a8b2-1f962717dd41))
  (pad "E6" smd circle (at 3.75 4.25) (size 0.762 0.762) (layers "F.Cu" "F.Mask") (tstamp f1e24e4a-93dd-4113-b836-a87a4e72651e))
  (pad "F1" smd circle (at -3.75 5.75) (size 0.762 0.762) (layers "F.Cu" "F.Mask") (tstamp 44a6eaca-d6f5-4900-92aa-862220a7d67a))
  (pad "F2" smd circle (at -2.25 5.75) (size 0.762 0.762) (layers "F.Cu" "F.Mask") (tstamp b801ba56-79a3-4992-b96f-73db1dcdd6c9))
  (pad "F3" smd circle (at -0.75 5.75) (size 0.762 0.762) (layers "F.Cu" "F.Mask") (tstamp 14fb9751-61ae-4b08-8870-bdf942329677))
  (pad "F4" smd circle (at 0.75 5.75) (size 0.762 0.762) (layers "F.Cu" "F.Mask") (tstamp a68f4e08-1c82-418a-87a0-402f5b6f6622))
  (pad "F5" smd circle (at 2.25 5.75) (size 0.762 0.762) (layers "F.Cu" "F.Mask") (tstamp 2c40cfa7-94c4-497a-be43-22a9cbd81ce9))
  (pad "F6" smd circle (at 3.75 5.75) (size 0.762 0.762) (layers "F.Cu" "F.Mask") (tstamp 0ddd3c4d-d50c-487f-bcb7-91dab99855bb))
  (model "${KICAD6_3DMODEL_DIR}/RF_Module.3dshapes/Garmin_M8-35_9.8x14.0mm_Layout6x6_P1.5mm.wrl"
    (offset (xyz 0 0 0))
    (scale (xyz 1 1 1))
    (rotate (xyz 0 0 0))
  )
)
