(footprint "MountingHole_3.2mm_M3_ISO14580" (version 20211014) (generator pcbnew)
  (layer "F.Cu")
  (tedit 56D1B4CB)
  (descr "Mounting Hole 3.2mm, no annular, M3, ISO14580")
  (tags "mounting hole 3.2mm no annular m3 iso14580")
  (attr exclude_from_pos_files exclude_from_bom)
  (fp_text reference "REF**" (at 0 -3.75) (layer "F.SilkS")
    (effects (font (size 1 1) (thickness 0.15)))
    (tstamp b2a8bb2f-3e62-480f-be7f-886a2634b921)
  )
  (fp_text value "MountingHole_3.2mm_M3_ISO14580" (at 0 3.75) (layer "F.Fab")
    (effects (font (size 1 1) (thickness 0.15)))
    (tstamp fa9fd270-25a4-4db7-9d6c-6bd0856b9bed)
  )
  (fp_text user "${REFERENCE}" (at 0.3 0) (layer "F.Fab")
    (effects (font (size 1 1) (thickness 0.15)))
    (tstamp c4a21ada-6ff0-4f41-8772-76912bf15e52)
  )
  (fp_circle (center 0 0) (end 2.75 0) (layer "Cmts.User") (width 0.15) (fill none) (tstamp 48f1174c-d2c8-4bf5-bcde-45a4323f3db1))
  (fp_circle (center 0 0) (end 3 0) (layer "F.CrtYd") (width 0.05) (fill none) (tstamp ac11ce79-92a4-48a7-a91a-8c521074c840))
  (pad "" np_thru_hole circle (at 0 0) (size 3.2 3.2) (drill 3.2) (layers *.Cu *.Mask) (tstamp 260b0346-880a-4f71-ac24-327132c68267))
)
