(footprint "MountingHole_4.3x6.2mm_M4_Pad_Via" (version 20211014) (generator pcbnew)
  (layer "F.Cu")
  (tedit 581E29B6)
  (descr "Mounting Hole 4.3x6.2mm, M4")
  (tags "mounting hole 4.3x6.2mm m4")
  (attr exclude_from_pos_files exclude_from_bom)
  (fp_text reference "REF**" (at 0 -5.3) (layer "F.SilkS")
    (effects (font (size 1 1) (thickness 0.15)))
    (tstamp f49aa0b8-5cc8-4d15-8279-f58192c2eaf9)
  )
  (fp_text value "MountingHole_4.3x6.2mm_M4_Pad_Via" (at 0 5.3) (layer "F.Fab")
    (effects (font (size 1 1) (thickness 0.15)))
    (tstamp 74c7b5e0-dc41-4d93-8450-b4edb393e87b)
  )
  (fp_text user "${REFERENCE}" (at 0.3 0) (layer "F.Fab")
    (effects (font (size 1 1) (thickness 0.15)))
    (tstamp 36857429-a31a-4c91-bbfc-e80ba41a6463)
  )
  (fp_circle (center -0.95 0) (end 3.35 0) (layer "Cmts.User") (width 0.15) (fill none) (tstamp 39bb954b-1ba0-486b-8b67-5f1b5232a5c2))
  (fp_circle (center 0.95 0) (end 5.25 0) (layer "Cmts.User") (width 0.15) (fill none) (tstamp 5fa6582e-f9fd-487b-be91-a190037c9ed1))
  (fp_line (start -0.95 -4.55) (end 0.95 -4.55) (layer "F.CrtYd") (width 0.05) (tstamp 38e37cb1-1742-497b-8963-44eb3c026a2b))
  (fp_line (start 0.95 4.55) (end -0.95 4.55) (layer "F.CrtYd") (width 0.05) (tstamp a3186720-4648-48b0-aa39-75afb82645f3))
  (fp_arc (start 0.95 -4.55) (mid 5.5 0) (end 0.95 4.55) (layer "F.CrtYd") (width 0.05) (tstamp 4b8fd6f3-5c88-4693-9941-51d7faf1873f))
  (fp_arc (start -0.95 4.55) (mid -5.5 0) (end -0.95 -4.55) (layer "F.CrtYd") (width 0.05) (tstamp ede27072-9d3c-4f72-92c7-3259ab534bc7))
  (pad "1" thru_hole circle (at 0 3.225) (size 0.9 0.9) (drill 0.6) (layers *.Cu *.Mask) (tstamp 0d020f22-4265-4ecd-af82-0d4abb2ee977))
  (pad "1" thru_hole circle (at -4.15 0) (size 0.9 0.9) (drill 0.6) (layers *.Cu *.Mask) (tstamp 13a6756b-8bc8-46b0-bc29-4a08235200bb))
  (pad "1" thru_hole circle (at -1.505 3.151) (size 0.9 0.9) (drill 0.6) (layers *.Cu *.Mask) (tstamp 2bba73d1-3cc9-40a4-8dad-3be3705b1057))
  (pad "1" thru_hole circle (at -2.92 -2.521) (size 0.9 0.9) (drill 0.6) (layers *.Cu *.Mask) (tstamp 2f551a18-fd10-4088-8c6c-c148a2250a3d))
  (pad "1" thru_hole circle (at 3.801 1.45) (size 0.9 0.9) (drill 0.6) (layers *.Cu *.Mask) (tstamp 3c43f068-ce42-4a46-8ef8-d1d05cabf1eb))
  (pad "1" thru_hole circle (at -3.801 1.45) (size 0.9 0.9) (drill 0.6) (layers *.Cu *.Mask) (tstamp 50b74bb6-7ac0-4b92-ba26-b1f888200de9))
  (pad "1" thru_hole circle (at 1.505 3.151) (size 0.9 0.9) (drill 0.6) (layers *.Cu *.Mask) (tstamp 5198769e-9ded-4826-8699-5bb1b6545d35))
  (pad "1" thru_hole circle (at -2.92 2.521) (size 0.9 0.9) (drill 0.6) (layers *.Cu *.Mask) (tstamp 55d615ca-da8d-43dc-900f-a676f5e5cf6e))
  (pad "1" thru_hole circle (at -3.801 -1.45) (size 0.9 0.9) (drill 0.6) (layers *.Cu *.Mask) (tstamp 76d8fb2e-01a0-48b3-9361-148994c19314))
  (pad "1" thru_hole oval (at 0 0) (size 10.4 8.6) (drill oval 6.2 4.3) (layers *.Cu *.Mask) (tstamp 7be6ff0a-be34-45c3-8b40-1e2c5908d6a0))
  (pad "1" thru_hole circle (at 2.92 2.521) (size 0.9 0.9) (drill 0.6) (layers *.Cu *.Mask) (tstamp 9d7a4ca0-f1f5-4a00-8f98-0e787cb1bc6f))
  (pad "1" thru_hole circle (at -1.505 -3.151) (size 0.9 0.9) (drill 0.6) (layers *.Cu *.Mask) (tstamp a880b558-bbb0-4f32-929d-143b132306f8))
  (pad "1" thru_hole circle (at 1.505 -3.151) (size 0.9 0.9) (drill 0.6) (layers *.Cu *.Mask) (tstamp bccdd033-e9b7-452a-bd54-941cb9c77e0b))
  (pad "1" thru_hole circle (at 2.92 -2.521) (size 0.9 0.9) (drill 0.6) (layers *.Cu *.Mask) (tstamp be9e2fda-46d1-46fb-95ea-8852b59a2c19))
  (pad "1" thru_hole circle (at 0 -3.225) (size 0.9 0.9) (drill 0.6) (layers *.Cu *.Mask) (tstamp ce3fe762-13c5-41b3-84f1-a638cf313d9c))
  (pad "1" thru_hole circle (at 4.15 0) (size 0.9 0.9) (drill 0.6) (layers *.Cu *.Mask) (tstamp d6a8cc51-4226-4f91-8178-36a7b1481162))
  (pad "1" thru_hole circle (at 3.801 -1.45) (size 0.9 0.9) (drill 0.6) (layers *.Cu *.Mask) (tstamp efffba41-9e0f-4a71-98cb-4c1e32c5a73c))
)
