(footprint "MountingHole_2.7mm_M2.5_ISO7380_Pad_TopOnly" (version 20211014) (generator pcbnew)
  (layer "F.Cu")
  (tedit 56D1B4CB)
  (descr "Mounting Hole 2.7mm, M2.5, ISO7380")
  (tags "mounting hole 2.7mm m2.5 iso7380")
  (attr exclude_from_pos_files exclude_from_bom)
  (fp_text reference "REF**" (at 0 -3.25) (layer "F.SilkS")
    (effects (font (size 1 1) (thickness 0.15)))
    (tstamp efc6551b-8615-4547-bdae-a66b55cca911)
  )
  (fp_text value "MountingHole_2.7mm_M2.5_ISO7380_Pad_TopOnly" (at 0 3.25) (layer "F.Fab")
    (effects (font (size 1 1) (thickness 0.15)))
    (tstamp 658cf0b5-2b33-4796-be5c-5212eff92cf1)
  )
  (fp_text user "${REFERENCE}" (at 0.3 0) (layer "F.Fab")
    (effects (font (size 1 1) (thickness 0.15)))
    (tstamp b96e4dba-00e6-4b27-9fd4-08c832f52129)
  )
  (fp_circle (center 0 0) (end 2.25 0) (layer "Cmts.User") (width 0.15) (fill none) (tstamp 9b941a38-40c6-4c64-af2f-90bf438985b1))
  (fp_circle (center 0 0) (end 2.5 0) (layer "F.CrtYd") (width 0.05) (fill none) (tstamp bec8d664-8c73-4e59-8e75-3a97fdc09ac0))
  (pad "1" connect circle (at 0 0) (size 4.5 4.5) (layers "F.Cu" "F.Mask") (tstamp 65b27d49-a5fd-48ed-9e2e-5fff36226aa9))
  (pad "1" thru_hole circle (at 0 0) (size 3.1 3.1) (drill 2.7) (layers *.Cu *.Mask) (tstamp dc0b2010-502f-4798-b341-2501e1f471ca))
)
