(footprint "MountingHole_5mm_Pad_Via" (version 20211014) (generator pcbnew)
  (layer "F.Cu")
  (tedit 56DDC416)
  (descr "Mounting Hole 5mm")
  (tags "mounting hole 5mm")
  (attr exclude_from_pos_files exclude_from_bom)
  (fp_text reference "REF**" (at 0 -6) (layer "F.SilkS")
    (effects (font (size 1 1) (thickness 0.15)))
    (tstamp 91f73b03-139a-4897-b0e4-d63dc5be5743)
  )
  (fp_text value "MountingHole_5mm_Pad_Via" (at 0 6) (layer "F.Fab")
    (effects (font (size 1 1) (thickness 0.15)))
    (tstamp e42a6c58-0a70-41d7-835e-2ad1f642020d)
  )
  (fp_text user "${REFERENCE}" (at 0.3 0) (layer "F.Fab")
    (effects (font (size 1 1) (thickness 0.15)))
    (tstamp decb540a-8a53-48c7-b1cc-3a7e37ac518d)
  )
  (fp_circle (center 0 0) (end 5 0) (layer "Cmts.User") (width 0.15) (fill none) (tstamp adae11a0-4a1a-46f6-81b0-d73c2aa0af8f))
  (fp_circle (center 0 0) (end 5.25 0) (layer "F.CrtYd") (width 0.05) (fill none) (tstamp 7d1daf28-120f-4d7c-97bc-3903fb69561e))
  (pad "1" thru_hole circle (at 0 3.75) (size 0.9 0.9) (drill 0.6) (layers *.Cu *.Mask) (tstamp 1bdc803f-9b50-4bbf-85ab-69f361e94654))
  (pad "1" thru_hole circle (at 0 -3.75) (size 0.9 0.9) (drill 0.6) (layers *.Cu *.Mask) (tstamp 3fcbcbee-5517-4f66-82e6-cda119febbd6))
  (pad "1" thru_hole circle (at 2.65165 -2.65165) (size 0.9 0.9) (drill 0.6) (layers *.Cu *.Mask) (tstamp 7e95bb1b-0e4a-406a-b310-6be6096c4837))
  (pad "1" thru_hole circle (at -3.75 0) (size 0.9 0.9) (drill 0.6) (layers *.Cu *.Mask) (tstamp 8770bf22-2a8d-4457-9ea6-1241d5078c69))
  (pad "1" thru_hole circle (at 0 0) (size 10 10) (drill 5) (layers *.Cu *.Mask) (tstamp 901cfa63-3460-4903-8d7a-0a6edeb11d8d))
  (pad "1" thru_hole circle (at 3.75 0) (size 0.9 0.9) (drill 0.6) (layers *.Cu *.Mask) (tstamp ac6779bd-c93b-4547-9256-8473db733d3b))
  (pad "1" thru_hole circle (at -2.65165 -2.65165) (size 0.9 0.9) (drill 0.6) (layers *.Cu *.Mask) (tstamp b974c239-dfcd-4b4d-9b0c-6884eea8cf37))
  (pad "1" thru_hole circle (at 2.65165 2.65165) (size 0.9 0.9) (drill 0.6) (layers *.Cu *.Mask) (tstamp f5de6d8b-c823-4f9a-a741-10b57742e595))
  (pad "1" thru_hole circle (at -2.65165 2.65165) (size 0.9 0.9) (drill 0.6) (layers *.Cu *.Mask) (tstamp f869a3bc-406f-421f-b58a-cfe94dc42d0c))
)
