(footprint "MountingHole_5mm_Pad_TopBottom" (version 20211014) (generator pcbnew)
  (layer "F.Cu")
  (tedit 56D1B4CB)
  (descr "Mounting Hole 5mm")
  (tags "mounting hole 5mm")
  (attr exclude_from_pos_files exclude_from_bom)
  (fp_text reference "REF**" (at 0 -6) (layer "F.SilkS")
    (effects (font (size 1 1) (thickness 0.15)))
    (tstamp 3c8d490a-9173-436e-bc5e-3585b7e3d857)
  )
  (fp_text value "MountingHole_5mm_Pad_TopBottom" (at 0 6) (layer "F.Fab")
    (effects (font (size 1 1) (thickness 0.15)))
    (tstamp acbca528-9756-4947-8712-69f33485b5fe)
  )
  (fp_text user "${REFERENCE}" (at 0.3 0) (layer "F.Fab")
    (effects (font (size 1 1) (thickness 0.15)))
    (tstamp b3b0ac53-eba5-4836-bae2-caacc81a81ef)
  )
  (fp_circle (center 0 0) (end 5 0) (layer "Cmts.User") (width 0.15) (fill none) (tstamp 66e2e038-3577-48bf-b687-72b1e3118e9b))
  (fp_circle (center 0 0) (end 5.25 0) (layer "F.CrtYd") (width 0.05) (fill none) (tstamp 481080b3-ed8f-49e9-ba0f-63519099d839))
  (pad "1" connect circle (at 0 0) (size 10 10) (layers "F.Cu" "F.Mask") (tstamp 56880155-590b-43f8-aea5-45c8649e72e9))
  (pad "1" connect circle (at 0 0) (size 10 10) (layers "B.Cu" "B.Mask") (tstamp 81ef6e4e-4372-41e1-871f-da57ce7c4924))
  (pad "1" thru_hole circle (at 0 0) (size 5.4 5.4) (drill 5) (layers *.Cu *.Mask) (tstamp f12e6c98-0177-47a8-a792-1362bb2777de))
)
