(footprint "MountingHole_4mm_Pad" (version 20211014) (generator pcbnew)
  (layer "F.Cu")
  (tedit 56D1B4CB)
  (descr "Mounting Hole 4mm")
  (tags "mounting hole 4mm")
  (attr exclude_from_pos_files exclude_from_bom)
  (fp_text reference "REF**" (at 0 -5) (layer "F.SilkS")
    (effects (font (size 1 1) (thickness 0.15)))
    (tstamp 524215a0-28ab-44ef-be19-3ae106b93863)
  )
  (fp_text value "MountingHole_4mm_Pad" (at 0 5) (layer "F.Fab")
    (effects (font (size 1 1) (thickness 0.15)))
    (tstamp 02a6bb93-e8d1-4839-962f-fad6649cf183)
  )
  (fp_text user "${REFERENCE}" (at 0.3 0) (layer "F.Fab")
    (effects (font (size 1 1) (thickness 0.15)))
    (tstamp 00b3c661-3615-45ea-ad12-974ba0dcee1b)
  )
  (fp_circle (center 0 0) (end 4 0) (layer "Cmts.User") (width 0.15) (fill none) (tstamp 606936f1-4aff-4157-9757-7af0c934d939))
  (fp_circle (center 0 0) (end 4.25 0) (layer "F.CrtYd") (width 0.05) (fill none) (tstamp 449c9a5d-dd3b-4369-a6c8-bc6ee6341ae3))
  (pad "1" thru_hole circle (at 0 0) (size 8 8) (drill 4) (layers *.Cu *.Mask) (tstamp 972172fe-10c7-4c5f-8859-8d8e8bc8ef51))
)
