(footprint "MountingHole_6.4mm_M6_ISO7380_Pad" (version 20211014) (generator pcbnew)
  (layer "F.Cu")
  (tedit 56D1B4CB)
  (descr "Mounting Hole 6.4mm, M6, ISO7380")
  (tags "mounting hole 6.4mm m6 iso7380")
  (attr exclude_from_pos_files exclude_from_bom)
  (fp_text reference "REF**" (at 0 -6.25) (layer "F.SilkS")
    (effects (font (size 1 1) (thickness 0.15)))
    (tstamp d536deb2-2676-48b0-a485-d7d51e6e7954)
  )
  (fp_text value "MountingHole_6.4mm_M6_ISO7380_Pad" (at 0 6.25) (layer "F.Fab")
    (effects (font (size 1 1) (thickness 0.15)))
    (tstamp 0f00b32d-8dc4-4a13-aa32-e4899ee5c2ec)
  )
  (fp_text user "${REFERENCE}" (at 0.3 0) (layer "F.Fab")
    (effects (font (size 1 1) (thickness 0.15)))
    (tstamp c78723ad-8535-4540-852d-dcfa0536d593)
  )
  (fp_circle (center 0 0) (end 5.25 0) (layer "Cmts.User") (width 0.15) (fill none) (tstamp 5e08f8a7-b0d2-47e6-9f45-fb1fa1736ecd))
  (fp_circle (center 0 0) (end 5.5 0) (layer "F.CrtYd") (width 0.05) (fill none) (tstamp c06538bb-b87c-4c44-a322-45452dd6b810))
  (pad "1" thru_hole circle (at 0 0) (size 10.5 10.5) (drill 6.4) (layers *.Cu *.Mask) (tstamp c67c8a38-add2-449c-bc43-e16ed7398da4))
)
