(footprint "MountingHole_6mm_Pad_Via" (version 20211014) (generator pcbnew)
  (layer "F.Cu")
  (tedit 56DDC678)
  (descr "Mounting Hole 6mm")
  (tags "mounting hole 6mm")
  (attr exclude_from_pos_files exclude_from_bom)
  (fp_text reference "REF**" (at 0 -7) (layer "F.SilkS")
    (effects (font (size 1 1) (thickness 0.15)))
    (tstamp 4e6a43d3-296c-4f67-a653-e0e67d86e2e2)
  )
  (fp_text value "MountingHole_6mm_Pad_Via" (at 0 7) (layer "F.Fab")
    (effects (font (size 1 1) (thickness 0.15)))
    (tstamp 584a7e63-bce8-42d4-b7fc-23a79128a5ea)
  )
  (fp_text user "${REFERENCE}" (at 0.3 0) (layer "F.Fab")
    (effects (font (size 1 1) (thickness 0.15)))
    (tstamp 2bd3367a-d5c8-47d4-b707-74dc68258aaa)
  )
  (fp_circle (center 0 0) (end 6 0) (layer "Cmts.User") (width 0.15) (fill none) (tstamp dce7b9b4-2b92-486b-8e85-dacca8dfe182))
  (fp_circle (center 0 0) (end 6.25 0) (layer "F.CrtYd") (width 0.05) (fill none) (tstamp a19d65ad-7ea0-43f0-afa1-bc1df6ef61ee))
  (pad "1" thru_hole circle (at 3.181981 3.181981) (size 0.9 0.9) (drill 0.6) (layers *.Cu *.Mask) (tstamp 0372e4d5-022b-4bc9-afd6-e3b039cda9cf))
  (pad "1" thru_hole circle (at 4.5 0) (size 0.9 0.9) (drill 0.6) (layers *.Cu *.Mask) (tstamp 2e3052be-ec8c-47cb-a0fb-26584b92741b))
  (pad "1" thru_hole circle (at -4.5 0) (size 0.9 0.9) (drill 0.6) (layers *.Cu *.Mask) (tstamp 36ab00b0-abb2-45c9-8577-38531ad505cc))
  (pad "1" thru_hole circle (at -3.181981 -3.181981) (size 0.9 0.9) (drill 0.6) (layers *.Cu *.Mask) (tstamp 50c464c4-b74e-4eea-9fdc-0d74718f9b94))
  (pad "1" thru_hole circle (at 0 0) (size 12 12) (drill 6) (layers *.Cu *.Mask) (tstamp 7c93f24f-8b20-4e29-87d7-eefbe67634e6))
  (pad "1" thru_hole circle (at 0 -4.5) (size 0.9 0.9) (drill 0.6) (layers *.Cu *.Mask) (tstamp a683999a-c4c5-4f11-b9f8-17070cbf6639))
  (pad "1" thru_hole circle (at 0 4.5) (size 0.9 0.9) (drill 0.6) (layers *.Cu *.Mask) (tstamp ba1e2a8e-e857-4e6a-a71c-b149581f7cc4))
  (pad "1" thru_hole circle (at -3.181981 3.181981) (size 0.9 0.9) (drill 0.6) (layers *.Cu *.Mask) (tstamp eda85f64-ff25-4d14-82b0-90196c0e242d))
  (pad "1" thru_hole circle (at 3.181981 -3.181981) (size 0.9 0.9) (drill 0.6) (layers *.Cu *.Mask) (tstamp f2ce5ab6-9cae-4ee2-942e-604efc1ce271))
)
