(footprint "MountingHole_4.3mm_M4_ISO7380_Pad" (version 20211014) (generator pcbnew)
  (layer "F.Cu")
  (tedit 56D1B4CB)
  (descr "Mounting Hole 4.3mm, M4, ISO7380")
  (tags "mounting hole 4.3mm m4 iso7380")
  (attr exclude_from_pos_files exclude_from_bom)
  (fp_text reference "REF**" (at 0 -4.8) (layer "F.SilkS")
    (effects (font (size 1 1) (thickness 0.15)))
    (tstamp ca4fe52b-f924-48d3-a938-dce86563883c)
  )
  (fp_text value "MountingHole_4.3mm_M4_ISO7380_Pad" (at 0 4.8) (layer "F.Fab")
    (effects (font (size 1 1) (thickness 0.15)))
    (tstamp a3dc0d78-8982-44a5-adbd-6b283dd05485)
  )
  (fp_text user "${REFERENCE}" (at 0.3 0) (layer "F.Fab")
    (effects (font (size 1 1) (thickness 0.15)))
    (tstamp 5105099b-8ad3-4ed6-8ebc-af7c151d6ed3)
  )
  (fp_circle (center 0 0) (end 3.8 0) (layer "Cmts.User") (width 0.15) (fill none) (tstamp 2549f8b7-1f19-4c7c-9ad5-5eec8cfecfc0))
  (fp_circle (center 0 0) (end 4.05 0) (layer "F.CrtYd") (width 0.05) (fill none) (tstamp eb7058c4-2387-4909-aff5-5c7ed7a9590d))
  (pad "1" thru_hole circle (at 0 0) (size 7.6 7.6) (drill 4.3) (layers *.Cu *.Mask) (tstamp 7feab394-4c19-4ff3-a53b-2fda713f8d44))
)
