(footprint "MountingHole_2mm" (version 20211014) (generator pcbnew)
  (layer "F.Cu")
  (tedit 5B924920)
  (descr "Mounting Hole 2mm, no annular")
  (tags "mounting hole 2mm no annular")
  (attr exclude_from_pos_files exclude_from_bom)
  (fp_text reference "REF**" (at 0 -3.2) (layer "F.SilkS")
    (effects (font (size 1 1) (thickness 0.15)))
    (tstamp a6c85626-27f1-4353-8b9d-ea3e559a3b58)
  )
  (fp_text value "MountingHole_2mm" (at 0 3.1) (layer "F.Fab")
    (effects (font (size 1 1) (thickness 0.15)))
    (tstamp 5994e56d-d6af-4c4c-97b6-e7c444cebb1c)
  )
  (fp_text user "${REFERENCE}" (at 0.3 0) (layer "F.Fab")
    (effects (font (size 1 1) (thickness 0.15)))
    (tstamp ab0d0b3e-4d37-4ce2-84a8-10c03ad56292)
  )
  (fp_circle (center 0 0) (end 2 0) (layer "Cmts.User") (width 0.15) (fill none) (tstamp c42e164e-6e17-4713-9d55-c383b3e110ac))
  (fp_circle (center 0 0) (end 2.25 0) (layer "F.CrtYd") (width 0.05) (fill none) (tstamp 69b07897-e8d8-44e3-904e-f1afe3ecde02))
  (pad "" np_thru_hole circle (at 0 0) (size 2 2) (drill 2) (layers *.Cu *.Mask) (tstamp e8294527-4882-4155-8d13-f98b1ba28bee))
)
