(footprint "MountingHole_4.3mm_M4_ISO14580_Pad" (version 20211014) (generator pcbnew)
  (layer "F.Cu")
  (tedit 56D1B4CB)
  (descr "Mounting Hole 4.3mm, M4, ISO14580")
  (tags "mounting hole 4.3mm m4 iso14580")
  (attr exclude_from_pos_files exclude_from_bom)
  (fp_text reference "REF**" (at 0 -4.5) (layer "F.SilkS")
    (effects (font (size 1 1) (thickness 0.15)))
    (tstamp d23b681f-bd2c-4289-aba4-c108e8fe4b0b)
  )
  (fp_text value "MountingHole_4.3mm_M4_ISO14580_Pad" (at 0 4.5) (layer "F.Fab")
    (effects (font (size 1 1) (thickness 0.15)))
    (tstamp 252aaef3-edbd-4158-a132-915cf9bb194b)
  )
  (fp_text user "${REFERENCE}" (at 0.3 0) (layer "F.Fab")
    (effects (font (size 1 1) (thickness 0.15)))
    (tstamp 89d0b75f-9b8c-462c-80ff-95c1ec9327f9)
  )
  (fp_circle (center 0 0) (end 3.5 0) (layer "Cmts.User") (width 0.15) (fill none) (tstamp 85b46e31-17a9-43f4-8490-033a9985d80c))
  (fp_circle (center 0 0) (end 3.75 0) (layer "F.CrtYd") (width 0.05) (fill none) (tstamp 00132b66-fff4-4775-8218-effe9f9c4959))
  (pad "1" thru_hole circle (at 0 0) (size 7 7) (drill 4.3) (layers *.Cu *.Mask) (tstamp 13e157eb-264c-438d-b355-e31cbca6aaea))
)
