(footprint "MountingHole_6.4mm_M6_ISO7380_Pad_TopBottom" (version 20211014) (generator pcbnew)
  (layer "F.Cu")
  (tedit 56D1B4CB)
  (descr "Mounting Hole 6.4mm, M6, ISO7380")
  (tags "mounting hole 6.4mm m6 iso7380")
  (attr exclude_from_pos_files exclude_from_bom)
  (fp_text reference "REF**" (at 0 -6.25) (layer "F.SilkS")
    (effects (font (size 1 1) (thickness 0.15)))
    (tstamp 2e3c7662-c131-4481-8767-e4eeb006b03b)
  )
  (fp_text value "MountingHole_6.4mm_M6_ISO7380_Pad_TopBottom" (at 0 6.25) (layer "F.Fab")
    (effects (font (size 1 1) (thickness 0.15)))
    (tstamp 81b4674b-b4cf-4813-a87d-bf9d4d56779a)
  )
  (fp_text user "${REFERENCE}" (at 0.3 0) (layer "F.Fab")
    (effects (font (size 1 1) (thickness 0.15)))
    (tstamp 6f099671-6c1e-4b10-b757-4f2c5066d659)
  )
  (fp_circle (center 0 0) (end 5.25 0) (layer "Cmts.User") (width 0.15) (fill none) (tstamp e783746e-854a-494d-a8b6-242e212b7ff8))
  (fp_circle (center 0 0) (end 5.5 0) (layer "F.CrtYd") (width 0.05) (fill none) (tstamp bb1c071a-cab9-4cda-b14f-be7cee09659e))
  (pad "1" connect circle (at 0 0) (size 10.5 10.5) (layers "F.Cu" "F.Mask") (tstamp 52e60b9b-5fae-48f0-be2e-d50bef918127))
  (pad "1" connect circle (at 0 0) (size 10.5 10.5) (layers "B.Cu" "B.Mask") (tstamp 9a24349b-3046-444b-8788-298c4c33d460))
  (pad "1" thru_hole circle (at 0 0) (size 6.8 6.8) (drill 6.4) (layers *.Cu *.Mask) (tstamp d9297733-5cea-477d-9b11-284407982d80))
)
