(footprint "MountingHole_2.2mm_M2_ISO14580" (version 20211014) (generator pcbnew)
  (layer "F.Cu")
  (tedit 56D1B4CB)
  (descr "Mounting Hole 2.2mm, no annular, M2, ISO14580")
  (tags "mounting hole 2.2mm no annular m2 iso14580")
  (attr exclude_from_pos_files exclude_from_bom)
  (fp_text reference "REF**" (at 0 -2.9) (layer "F.SilkS")
    (effects (font (size 1 1) (thickness 0.15)))
    (tstamp a4cda5af-87c0-40e7-bbfd-5f39b985cd25)
  )
  (fp_text value "MountingHole_2.2mm_M2_ISO14580" (at 0 2.9) (layer "F.Fab")
    (effects (font (size 1 1) (thickness 0.15)))
    (tstamp 4c1afd36-c607-4941-9899-ac1552c750ff)
  )
  (fp_text user "${REFERENCE}" (at 0.3 0) (layer "F.Fab")
    (effects (font (size 1 1) (thickness 0.15)))
    (tstamp 3e106855-24e4-46a8-9150-cb544a5ff29d)
  )
  (fp_circle (center 0 0) (end 1.9 0) (layer "Cmts.User") (width 0.15) (fill none) (tstamp f88cdf6b-cfff-4538-ac8b-ea5cea6e052c))
  (fp_circle (center 0 0) (end 2.15 0) (layer "F.CrtYd") (width 0.05) (fill none) (tstamp 3aa83a45-edfd-4600-a1d8-66936697a2f3))
  (pad "" np_thru_hole circle (at 0 0) (size 2.2 2.2) (drill 2.2) (layers *.Cu *.Mask) (tstamp 004a26f2-5d6e-49bf-9d3c-833f23ad871e))
)
