(footprint "MountingHole_4mm_Pad_TopOnly" (version 20211014) (generator pcbnew)
  (layer "F.Cu")
  (tedit 56D1B4CB)
  (descr "Mounting Hole 4mm")
  (tags "mounting hole 4mm")
  (attr exclude_from_pos_files exclude_from_bom)
  (fp_text reference "REF**" (at 0 -5) (layer "F.SilkS")
    (effects (font (size 1 1) (thickness 0.15)))
    (tstamp a1c73ef1-1fe7-4efc-bd03-fec46ca087a6)
  )
  (fp_text value "MountingHole_4mm_Pad_TopOnly" (at 0 5) (layer "F.Fab")
    (effects (font (size 1 1) (thickness 0.15)))
    (tstamp 737db1a2-5f66-4d59-a7a2-0c5bb51930bd)
  )
  (fp_text user "${REFERENCE}" (at 0.3 0) (layer "F.Fab")
    (effects (font (size 1 1) (thickness 0.15)))
    (tstamp b511816e-0726-4757-a38d-4fb37ab46c9d)
  )
  (fp_circle (center 0 0) (end 4 0) (layer "Cmts.User") (width 0.15) (fill none) (tstamp cc47881a-5365-4dfc-aecd-5f5026540401))
  (fp_circle (center 0 0) (end 4.25 0) (layer "F.CrtYd") (width 0.05) (fill none) (tstamp 011706af-32ec-4cdd-ae73-30100766cda6))
  (pad "1" thru_hole circle (at 0 0) (size 4.4 4.4) (drill 4) (layers *.Cu *.Mask) (tstamp da1a9aca-20da-4f2b-a0aa-30e965d52843))
  (pad "1" connect circle (at 0 0) (size 8 8) (layers "F.Cu" "F.Mask") (tstamp fc2d6c15-8635-4113-882b-5211b929cb6d))
)
