(footprint "MountingHole_3.2mm_M3_DIN965_Pad" (version 20211014) (generator pcbnew)
  (layer "F.Cu")
  (tedit 56D1B4CB)
  (descr "Mounting Hole 3.2mm, M3, DIN965")
  (tags "mounting hole 3.2mm m3 din965")
  (attr exclude_from_pos_files exclude_from_bom)
  (fp_text reference "REF**" (at 0 -3.8) (layer "F.SilkS")
    (effects (font (size 1 1) (thickness 0.15)))
    (tstamp b9876f71-0e96-425b-9bd7-06557d4a46aa)
  )
  (fp_text value "MountingHole_3.2mm_M3_DIN965_Pad" (at 0 3.8) (layer "F.Fab")
    (effects (font (size 1 1) (thickness 0.15)))
    (tstamp 6900a814-a5b2-45eb-bb93-b38f9327f7b4)
  )
  (fp_text user "${REFERENCE}" (at 0.3 0) (layer "F.Fab")
    (effects (font (size 1 1) (thickness 0.15)))
    (tstamp fadc61ba-f885-4643-a287-3b23f9f82685)
  )
  (fp_circle (center 0 0) (end 2.8 0) (layer "Cmts.User") (width 0.15) (fill none) (tstamp 955dfb6a-0078-4e36-a17b-29ffef82101d))
  (fp_circle (center 0 0) (end 3.05 0) (layer "F.CrtYd") (width 0.05) (fill none) (tstamp 7c3f3c61-2bfd-40ab-bf30-ab489db2bdcc))
  (pad "1" thru_hole circle (at 0 0) (size 5.6 5.6) (drill 3.2) (layers *.Cu *.Mask) (tstamp 4bf03971-0604-4386-9440-7d22631cb33e))
)
