(footprint "MountingHole_8.4mm_M8_Pad_TopOnly" (version 20211014) (generator pcbnew)
  (layer "F.Cu")
  (tedit 56D1B4CB)
  (descr "Mounting Hole 8.4mm, M8")
  (tags "mounting hole 8.4mm m8")
  (attr exclude_from_pos_files exclude_from_bom)
  (fp_text reference "REF**" (at 0 -9.4) (layer "F.SilkS")
    (effects (font (size 1 1) (thickness 0.15)))
    (tstamp df75df61-96bb-427f-822c-83c1f3482291)
  )
  (fp_text value "MountingHole_8.4mm_M8_Pad_TopOnly" (at 0 9.4) (layer "F.Fab")
    (effects (font (size 1 1) (thickness 0.15)))
    (tstamp 2411baae-1f34-4958-9e48-2e24c648121d)
  )
  (fp_text user "${REFERENCE}" (at 0.3 0) (layer "F.Fab")
    (effects (font (size 1 1) (thickness 0.15)))
    (tstamp 876392e0-d54b-4f18-b1f4-ada69a36b57f)
  )
  (fp_circle (center 0 0) (end 8.4 0) (layer "Cmts.User") (width 0.15) (fill none) (tstamp 4fba5f4d-5406-43ef-bcba-cfac2f6a024c))
  (fp_circle (center 0 0) (end 8.65 0) (layer "F.CrtYd") (width 0.05) (fill none) (tstamp 0276f800-529e-439e-8185-7ed9f64270f6))
  (pad "1" connect circle (at 0 0) (size 16.8 16.8) (layers "F.Cu" "F.Mask") (tstamp 18ca7175-f196-43e8-9235-5bf6bf12c21e))
  (pad "1" thru_hole circle (at 0 0) (size 8.8 8.8) (drill 8.4) (layers *.Cu *.Mask) (tstamp 6df04c93-26ee-4541-8e01-bd34c233cef2))
)
