(footprint "MountingHole_5.3mm_M5_Pad_Via" (version 20211014) (generator pcbnew)
  (layer "F.Cu")
  (tedit 56DDC708)
  (descr "Mounting Hole 5.3mm, M5")
  (tags "mounting hole 5.3mm m5")
  (attr exclude_from_pos_files exclude_from_bom)
  (fp_text reference "REF**" (at 0 -6.3) (layer "F.SilkS")
    (effects (font (size 1 1) (thickness 0.15)))
    (tstamp c80b3589-ceaa-421e-abad-2121c271ff77)
  )
  (fp_text value "MountingHole_5.3mm_M5_Pad_Via" (at 0 6.3) (layer "F.Fab")
    (effects (font (size 1 1) (thickness 0.15)))
    (tstamp 88fcbec4-5af8-4212-869a-c94311d1a7cc)
  )
  (fp_text user "${REFERENCE}" (at 0.3 0) (layer "F.Fab")
    (effects (font (size 1 1) (thickness 0.15)))
    (tstamp 1a4c26fa-96d8-4283-970a-3685efd96246)
  )
  (fp_circle (center 0 0) (end 5.3 0) (layer "Cmts.User") (width 0.15) (fill none) (tstamp 1967a480-d7d2-47c8-a939-1de22f26cbfe))
  (fp_circle (center 0 0) (end 5.55 0) (layer "F.CrtYd") (width 0.05) (fill none) (tstamp a28053ce-d567-49f8-bc90-f1c05a996795))
  (pad "1" thru_hole circle (at 0 0) (size 10.6 10.6) (drill 5.3) (layers *.Cu *.Mask) (tstamp 01e01721-5a68-468c-b312-ff1d34ae621b))
  (pad "1" thru_hole circle (at -2.810749 -2.810749) (size 0.9 0.9) (drill 0.6) (layers *.Cu *.Mask) (tstamp 2497c7e0-4f7a-4c11-ba3a-23e98e462e59))
  (pad "1" thru_hole circle (at 2.810749 2.810749) (size 0.9 0.9) (drill 0.6) (layers *.Cu *.Mask) (tstamp 2b041650-80ed-4bf7-b52f-1a4531806098))
  (pad "1" thru_hole circle (at 0 3.975) (size 0.9 0.9) (drill 0.6) (layers *.Cu *.Mask) (tstamp 2cef3041-6664-4198-a60e-7b72cfefe981))
  (pad "1" thru_hole circle (at 0 -3.975) (size 0.9 0.9) (drill 0.6) (layers *.Cu *.Mask) (tstamp 5225d905-fc91-4221-b1f7-03f10ea7d76d))
  (pad "1" thru_hole circle (at -2.810749 2.810749) (size 0.9 0.9) (drill 0.6) (layers *.Cu *.Mask) (tstamp 69fdf03b-edb6-4297-91b2-136706f421a9))
  (pad "1" thru_hole circle (at 2.810749 -2.810749) (size 0.9 0.9) (drill 0.6) (layers *.Cu *.Mask) (tstamp a22459e6-e751-4929-afac-d5b9fcc7f0cd))
  (pad "1" thru_hole circle (at -3.975 0) (size 0.9 0.9) (drill 0.6) (layers *.Cu *.Mask) (tstamp c4c84e59-6c45-4a12-9b0b-0228fb824b00))
  (pad "1" thru_hole circle (at 3.975 0) (size 0.9 0.9) (drill 0.6) (layers *.Cu *.Mask) (tstamp cb94d060-35c5-402b-b5f9-e4bcbd8a1656))
)
