(footprint "MountingHole_3.5mm_Pad" (version 20211014) (generator pcbnew)
  (layer "F.Cu")
  (tedit 56D1B4CB)
  (descr "Mounting Hole 3.5mm")
  (tags "mounting hole 3.5mm")
  (attr exclude_from_pos_files exclude_from_bom)
  (fp_text reference "REF**" (at 0 -4.5) (layer "F.SilkS")
    (effects (font (size 1 1) (thickness 0.15)))
    (tstamp 9a227518-a125-4d55-9587-0c1499ce41a7)
  )
  (fp_text value "MountingHole_3.5mm_Pad" (at 0 4.5) (layer "F.Fab")
    (effects (font (size 1 1) (thickness 0.15)))
    (tstamp 7b8e5c4e-d69b-4184-a234-a02ce7780e15)
  )
  (fp_text user "${REFERENCE}" (at 0.3 0) (layer "F.Fab")
    (effects (font (size 1 1) (thickness 0.15)))
    (tstamp 5d67ecc7-3875-4799-aceb-34a5f82fb9b4)
  )
  (fp_circle (center 0 0) (end 3.5 0) (layer "Cmts.User") (width 0.15) (fill none) (tstamp 004026e5-1625-40f4-9daa-75e998c99afd))
  (fp_circle (center 0 0) (end 3.75 0) (layer "F.CrtYd") (width 0.05) (fill none) (tstamp da86dd0d-6b99-46c2-b3fe-6038c50edf29))
  (pad "1" thru_hole circle (at 0 0) (size 7 7) (drill 3.5) (layers *.Cu *.Mask) (tstamp 309b03f1-dad1-43ee-982a-d14d7cd84475))
)
