(footprint "MountingHole_3.2mm_M3_ISO14580_Pad" (version 20211014) (generator pcbnew)
  (layer "F.Cu")
  (tedit 56D1B4CB)
  (descr "Mounting Hole 3.2mm, M3, ISO14580")
  (tags "mounting hole 3.2mm m3 iso14580")
  (attr exclude_from_pos_files exclude_from_bom)
  (fp_text reference "REF**" (at 0 -3.75) (layer "F.SilkS")
    (effects (font (size 1 1) (thickness 0.15)))
    (tstamp 6e9be20a-4df1-4bc9-8458-b59678088b48)
  )
  (fp_text value "MountingHole_3.2mm_M3_ISO14580_Pad" (at 0 3.75) (layer "F.Fab")
    (effects (font (size 1 1) (thickness 0.15)))
    (tstamp e48a93e1-3d01-46ca-94ae-7d60b7ea84fc)
  )
  (fp_text user "${REFERENCE}" (at 0.3 0) (layer "F.Fab")
    (effects (font (size 1 1) (thickness 0.15)))
    (tstamp bd03dee6-8ce3-471b-a8bc-3d4eea73f17a)
  )
  (fp_circle (center 0 0) (end 2.75 0) (layer "Cmts.User") (width 0.15) (fill none) (tstamp 72ef1394-8509-406d-9850-100065a302c6))
  (fp_circle (center 0 0) (end 3 0) (layer "F.CrtYd") (width 0.05) (fill none) (tstamp 5871bf66-6293-470f-8ec3-d07ca4a36392))
  (pad "1" thru_hole circle (at 0 0) (size 5.5 5.5) (drill 3.2) (layers *.Cu *.Mask) (tstamp 6285d4bd-4ff0-4c24-ab7c-edd0fdcf5b86))
)
