(footprint "MountingHole_3mm_Pad_TopOnly" (version 20211014) (generator pcbnew)
  (layer "F.Cu")
  (tedit 56D1B4CB)
  (descr "Mounting Hole 3mm")
  (tags "mounting hole 3mm")
  (attr exclude_from_pos_files exclude_from_bom)
  (fp_text reference "REF**" (at 0 -4) (layer "F.SilkS")
    (effects (font (size 1 1) (thickness 0.15)))
    (tstamp fc3fa9a1-422b-45a5-9761-badff137a9d2)
  )
  (fp_text value "MountingHole_3mm_Pad_TopOnly" (at 0 4) (layer "F.Fab")
    (effects (font (size 1 1) (thickness 0.15)))
    (tstamp 0c22d126-85dd-46ae-bcd9-a3e8c01f625a)
  )
  (fp_text user "${REFERENCE}" (at 0.3 0) (layer "F.Fab")
    (effects (font (size 1 1) (thickness 0.15)))
    (tstamp 5f015c92-fc6a-4bf4-a23d-698c7f3c11eb)
  )
  (fp_circle (center 0 0) (end 3 0) (layer "Cmts.User") (width 0.15) (fill none) (tstamp 31ad97e7-f4b1-4875-b88c-2ac5f53f0a94))
  (fp_circle (center 0 0) (end 3.25 0) (layer "F.CrtYd") (width 0.05) (fill none) (tstamp e72872a0-ade8-4476-a8f4-cdbcd581515c))
  (pad "1" thru_hole circle (at 0 0) (size 3.4 3.4) (drill 3) (layers *.Cu *.Mask) (tstamp 44216b30-6afe-425e-a43d-9a7ecfd6817d))
  (pad "1" connect circle (at 0 0) (size 6 6) (layers "F.Cu" "F.Mask") (tstamp a69e605a-9052-440f-bcc9-68da52cfa154))
)
