(footprint "MountingHole_2.2mm_M2_ISO14580_Pad" (version 20211014) (generator pcbnew)
  (layer "F.Cu")
  (tedit 56D1B4CB)
  (descr "Mounting Hole 2.2mm, M2, ISO14580")
  (tags "mounting hole 2.2mm m2 iso14580")
  (attr exclude_from_pos_files exclude_from_bom)
  (fp_text reference "REF**" (at 0 -2.9) (layer "F.SilkS")
    (effects (font (size 1 1) (thickness 0.15)))
    (tstamp 63757711-de90-44be-a5aa-2c095f96adc5)
  )
  (fp_text value "MountingHole_2.2mm_M2_ISO14580_Pad" (at 0 2.9) (layer "F.Fab")
    (effects (font (size 1 1) (thickness 0.15)))
    (tstamp 2ee11917-7b71-4fa5-a06f-767d17b31f62)
  )
  (fp_text user "${REFERENCE}" (at 0.3 0) (layer "F.Fab")
    (effects (font (size 1 1) (thickness 0.15)))
    (tstamp b1c5e93f-e81f-4617-8d73-599505372613)
  )
  (fp_circle (center 0 0) (end 1.9 0) (layer "Cmts.User") (width 0.15) (fill none) (tstamp 25e60c30-c624-4df4-a7c5-120301308130))
  (fp_circle (center 0 0) (end 2.15 0) (layer "F.CrtYd") (width 0.05) (fill none) (tstamp 2ce6d3de-4552-4923-b122-afa6f194b79f))
  (pad "1" thru_hole circle (at 0 0) (size 3.8 3.8) (drill 2.2) (layers *.Cu *.Mask) (tstamp 09a1171c-5923-4d70-9fb7-dde883bdb35f))
)
