(footprint "MountingHole_3mm_Pad_TopBottom" (version 20211014) (generator pcbnew)
  (layer "F.Cu")
  (tedit 56D1B4CB)
  (descr "Mounting Hole 3mm")
  (tags "mounting hole 3mm")
  (attr exclude_from_pos_files exclude_from_bom)
  (fp_text reference "REF**" (at 0 -4) (layer "F.SilkS")
    (effects (font (size 1 1) (thickness 0.15)))
    (tstamp 04acde60-b497-4937-bb8b-eeff6fc96252)
  )
  (fp_text value "MountingHole_3mm_Pad_TopBottom" (at 0 4) (layer "F.Fab")
    (effects (font (size 1 1) (thickness 0.15)))
    (tstamp b5d1aa1e-3379-4cf6-bf40-6344ee955f53)
  )
  (fp_text user "${REFERENCE}" (at 0.3 0) (layer "F.Fab")
    (effects (font (size 1 1) (thickness 0.15)))
    (tstamp dda4a752-7cac-48be-82b3-25812a29119a)
  )
  (fp_circle (center 0 0) (end 3 0) (layer "Cmts.User") (width 0.15) (fill none) (tstamp 6fea93c7-07bd-47aa-9d5c-e7f614dd58c0))
  (fp_circle (center 0 0) (end 3.25 0) (layer "F.CrtYd") (width 0.05) (fill none) (tstamp 86ee70d9-0e73-441b-89ab-c9208ab353a1))
  (pad "1" thru_hole circle (at 0 0) (size 3.4 3.4) (drill 3) (layers *.Cu *.Mask) (tstamp 156a852a-e3c2-4f31-97ba-a3b6c6d36ec6))
  (pad "1" connect circle (at 0 0) (size 6 6) (layers "B.Cu" "B.Mask") (tstamp 632f3f04-6daf-423f-b072-35b77c9f10d1))
  (pad "1" connect circle (at 0 0) (size 6 6) (layers "F.Cu" "F.Mask") (tstamp a30c7bb7-06b8-4afc-aaac-3fcd59e6d039))
)
