(footprint "MountingHole_3.2mm_M3" (version 20211014) (generator pcbnew)
  (layer "F.Cu")
  (tedit 56D1B4CB)
  (descr "Mounting Hole 3.2mm, no annular, M3")
  (tags "mounting hole 3.2mm no annular m3")
  (attr exclude_from_pos_files exclude_from_bom)
  (fp_text reference "REF**" (at 0 -4.2) (layer "F.SilkS")
    (effects (font (size 1 1) (thickness 0.15)))
    (tstamp 6b2f9f3e-9c04-460e-ab7e-be9d66dfc170)
  )
  (fp_text value "MountingHole_3.2mm_M3" (at 0 4.2) (layer "F.Fab")
    (effects (font (size 1 1) (thickness 0.15)))
    (tstamp 9edf2490-9469-44a1-85c3-18e287f74a6f)
  )
  (fp_text user "${REFERENCE}" (at 0.3 0) (layer "F.Fab")
    (effects (font (size 1 1) (thickness 0.15)))
    (tstamp 8c11b0c0-6371-43ee-838a-2f470c65b79b)
  )
  (fp_circle (center 0 0) (end 3.2 0) (layer "Cmts.User") (width 0.15) (fill none) (tstamp 8baede52-c088-4b1d-9d27-aeca543abbe1))
  (fp_circle (center 0 0) (end 3.45 0) (layer "F.CrtYd") (width 0.05) (fill none) (tstamp 792ad080-71b4-4d5d-8a54-da90f341ce7d))
  (pad "" np_thru_hole circle (at 0 0) (size 3.2 3.2) (drill 3.2) (layers *.Cu *.Mask) (tstamp fa055336-61f5-479c-bf43-b9204a2cfbf2))
)
