(footprint "MountingHole_5.3mm_M5_DIN965_Pad" (version 20211014) (generator pcbnew)
  (layer "F.Cu")
  (tedit 56D1B4CB)
  (descr "Mounting Hole 5.3mm, M5, DIN965")
  (tags "mounting hole 5.3mm m5 din965")
  (attr exclude_from_pos_files exclude_from_bom)
  (fp_text reference "REF**" (at 0 -5.6) (layer "F.SilkS")
    (effects (font (size 1 1) (thickness 0.15)))
    (tstamp 858166cc-ce3d-46fc-aa22-626a03af40fc)
  )
  (fp_text value "MountingHole_5.3mm_M5_DIN965_Pad" (at 0 5.6) (layer "F.Fab")
    (effects (font (size 1 1) (thickness 0.15)))
    (tstamp 1f621f97-1605-4578-a239-59dcb173ef19)
  )
  (fp_text user "${REFERENCE}" (at 0.3 0) (layer "F.Fab")
    (effects (font (size 1 1) (thickness 0.15)))
    (tstamp 798164a9-321c-457c-a4a7-129ab150a1ae)
  )
  (fp_circle (center 0 0) (end 4.6 0) (layer "Cmts.User") (width 0.15) (fill none) (tstamp a9d7470e-2980-490a-bc5d-7bcd6ac30043))
  (fp_circle (center 0 0) (end 4.85 0) (layer "F.CrtYd") (width 0.05) (fill none) (tstamp a633fb12-439d-4563-b958-536d75c0de52))
  (pad "1" thru_hole circle (at 0 0) (size 9.2 9.2) (drill 5.3) (layers *.Cu *.Mask) (tstamp b4078c5a-3b66-4f2d-8fde-c007740bcb12))
)
