(footprint "MountingHole_6.5mm_Pad_TopOnly" (version 20211014) (generator pcbnew)
  (layer "F.Cu")
  (tedit 56D1B4CB)
  (descr "Mounting Hole 6.5mm")
  (tags "mounting hole 6.5mm")
  (attr exclude_from_pos_files exclude_from_bom)
  (fp_text reference "REF**" (at 0 -7.5) (layer "F.SilkS")
    (effects (font (size 1 1) (thickness 0.15)))
    (tstamp 38b67f93-558c-4c37-b4ea-7f1903fc4b0d)
  )
  (fp_text value "MountingHole_6.5mm_Pad_TopOnly" (at 0 7.5) (layer "F.Fab")
    (effects (font (size 1 1) (thickness 0.15)))
    (tstamp 4c533c63-370a-485b-9e73-781701b948b8)
  )
  (fp_text user "${REFERENCE}" (at 0.3 0) (layer "F.Fab")
    (effects (font (size 1 1) (thickness 0.15)))
    (tstamp 8e2428e6-8212-4dd1-a96a-b17ca4f62cd0)
  )
  (fp_circle (center 0 0) (end 6.5 0) (layer "Cmts.User") (width 0.15) (fill none) (tstamp c2d06d46-3901-4e21-a867-878308575119))
  (fp_circle (center 0 0) (end 6.75 0) (layer "F.CrtYd") (width 0.05) (fill none) (tstamp 6e7bf622-3438-4cf5-b5df-a42327299131))
  (pad "1" connect circle (at 0 0) (size 13 13) (layers "F.Cu" "F.Mask") (tstamp 9a4fe6f0-04bf-4870-9306-257a0dd87a90))
  (pad "1" thru_hole circle (at 0 0) (size 6.9 6.9) (drill 6.5) (layers *.Cu *.Mask) (tstamp ff41f5a2-5ae2-4e4d-90b7-104476011d5b))
)
