(footprint "MountingHole_5.3mm_M5_ISO14580_Pad_TopBottom" (version 20211014) (generator pcbnew)
  (layer "F.Cu")
  (tedit 56D1B4CB)
  (descr "Mounting Hole 5.3mm, M5, ISO14580")
  (tags "mounting hole 5.3mm m5 iso14580")
  (attr exclude_from_pos_files exclude_from_bom)
  (fp_text reference "REF**" (at 0 -5.25) (layer "F.SilkS")
    (effects (font (size 1 1) (thickness 0.15)))
    (tstamp 1b8b0bbe-cd8f-4679-915d-d82e118de2f5)
  )
  (fp_text value "MountingHole_5.3mm_M5_ISO14580_Pad_TopBottom" (at 0 5.25) (layer "F.Fab")
    (effects (font (size 1 1) (thickness 0.15)))
    (tstamp ab5cfc0b-f931-4a3a-8c8e-741a483fbe59)
  )
  (fp_text user "${REFERENCE}" (at 0.3 0) (layer "F.Fab")
    (effects (font (size 1 1) (thickness 0.15)))
    (tstamp a86cb18c-2395-4b2e-a117-1c27767628e6)
  )
  (fp_circle (center 0 0) (end 4.25 0) (layer "Cmts.User") (width 0.15) (fill none) (tstamp ace21df6-3bef-4c30-b388-16f2ca0494b7))
  (fp_circle (center 0 0) (end 4.5 0) (layer "F.CrtYd") (width 0.05) (fill none) (tstamp 9c4a41e2-511e-4a97-849e-7b539af79791))
  (pad "1" connect circle (at 0 0) (size 8.5 8.5) (layers "B.Cu" "B.Mask") (tstamp 0862ae7f-a2b9-4064-abf6-3c784c5af28d))
  (pad "1" thru_hole circle (at 0 0) (size 5.7 5.7) (drill 5.3) (layers *.Cu *.Mask) (tstamp df1e85c4-bb7a-4b1d-85eb-0530a3562e58))
  (pad "1" connect circle (at 0 0) (size 8.5 8.5) (layers "F.Cu" "F.Mask") (tstamp f58d3009-f365-4b8c-9717-2585d6a95ca3))
)
