(footprint "MountingHole_3.2mm_M3_ISO7380" (version 20211014) (generator pcbnew)
  (layer "F.Cu")
  (tedit 56D1B4CB)
  (descr "Mounting Hole 3.2mm, no annular, M3, ISO7380")
  (tags "mounting hole 3.2mm no annular m3 iso7380")
  (attr exclude_from_pos_files exclude_from_bom)
  (fp_text reference "REF**" (at 0 -3.85) (layer "F.SilkS")
    (effects (font (size 1 1) (thickness 0.15)))
    (tstamp f65bf68f-54b7-409d-9561-02d5608a290d)
  )
  (fp_text value "MountingHole_3.2mm_M3_ISO7380" (at 0 3.85) (layer "F.Fab")
    (effects (font (size 1 1) (thickness 0.15)))
    (tstamp 8b2294c3-41c4-4e38-8541-18f15460c70f)
  )
  (fp_text user "${REFERENCE}" (at 0.3 0) (layer "F.Fab")
    (effects (font (size 1 1) (thickness 0.15)))
    (tstamp 08caf59b-c4ec-4253-8a62-a2b6cb57cd1d)
  )
  (fp_circle (center 0 0) (end 2.85 0) (layer "Cmts.User") (width 0.15) (fill none) (tstamp 394de891-859c-4c7b-baff-1cb1931575fc))
  (fp_circle (center 0 0) (end 3.1 0) (layer "F.CrtYd") (width 0.05) (fill none) (tstamp ef55ea80-4907-4d8b-98dd-37223d8f4c70))
  (pad "" np_thru_hole circle (at 0 0) (size 3.2 3.2) (drill 3.2) (layers *.Cu *.Mask) (tstamp 05799cea-d7b2-4fad-a3ea-69fa2f3f99fd))
)
