(footprint "MountingHole_2.7mm_M2.5_Pad_Via" (version 20211014) (generator pcbnew)
  (layer "F.Cu")
  (tedit 56DDBBFF)
  (descr "Mounting Hole 2.7mm")
  (tags "mounting hole 2.7mm")
  (attr exclude_from_pos_files exclude_from_bom)
  (fp_text reference "REF**" (at 0 -3.7) (layer "F.SilkS")
    (effects (font (size 1 1) (thickness 0.15)))
    (tstamp ff28beb2-dacf-46ec-bf68-d4d1b39e0289)
  )
  (fp_text value "MountingHole_2.7mm_M2.5_Pad_Via" (at 0 3.7) (layer "F.Fab")
    (effects (font (size 1 1) (thickness 0.15)))
    (tstamp 0ec517ce-2d34-46ee-9e18-18efa4082ae4)
  )
  (fp_text user "${REFERENCE}" (at 0.3 0) (layer "F.Fab")
    (effects (font (size 1 1) (thickness 0.15)))
    (tstamp a11d2fab-ff48-4d6d-a634-2c6d52bdf69e)
  )
  (fp_circle (center 0 0) (end 2.7 0) (layer "Cmts.User") (width 0.15) (fill none) (tstamp 37539c9d-b282-4444-a698-771fbda0e574))
  (fp_circle (center 0 0) (end 2.95 0) (layer "F.CrtYd") (width 0.05) (fill none) (tstamp 1cb23062-c88d-4edb-9057-d22c2ae814e9))
  (pad "1" thru_hole circle (at -1.431891 1.431891) (size 0.8 0.8) (drill 0.5) (layers *.Cu *.Mask) (tstamp 2975435a-ea5c-4fff-9c6b-6ca4f2ac396c))
  (pad "1" thru_hole circle (at 0 0) (size 5.4 5.4) (drill 2.7) (layers *.Cu *.Mask) (tstamp 29a930be-8887-47f5-b638-77c7dc7bf3be))
  (pad "1" thru_hole circle (at 0 2.025) (size 0.8 0.8) (drill 0.5) (layers *.Cu *.Mask) (tstamp 2ab3f847-47fd-47e5-8aea-d4db632bd75e))
  (pad "1" thru_hole circle (at 1.431891 -1.431891) (size 0.8 0.8) (drill 0.5) (layers *.Cu *.Mask) (tstamp 649ca3a7-9964-4743-9c04-20784df991d1))
  (pad "1" thru_hole circle (at -2.025 0) (size 0.8 0.8) (drill 0.5) (layers *.Cu *.Mask) (tstamp 79fccbaa-4062-47a8-9e4e-db983272ed22))
  (pad "1" thru_hole circle (at 0 -2.025) (size 0.8 0.8) (drill 0.5) (layers *.Cu *.Mask) (tstamp 7c549faa-fed5-45c2-853d-8ddd8183b958))
  (pad "1" thru_hole circle (at 2.025 0) (size 0.8 0.8) (drill 0.5) (layers *.Cu *.Mask) (tstamp bd9a3908-83e0-4346-9c5d-ecbe0cbedcb0))
  (pad "1" thru_hole circle (at 1.431891 1.431891) (size 0.8 0.8) (drill 0.5) (layers *.Cu *.Mask) (tstamp e07eed6c-d183-4c69-8255-044eaac9a1e3))
  (pad "1" thru_hole circle (at -1.431891 -1.431891) (size 0.8 0.8) (drill 0.5) (layers *.Cu *.Mask) (tstamp e8c73c53-7f8b-4ea2-9a3d-826d9fc56818))
)
