(footprint "MountingHole_6.4mm_M6_ISO14580_Pad_TopOnly" (version 20211014) (generator pcbnew)
  (layer "F.Cu")
  (tedit 56D1B4CB)
  (descr "Mounting Hole 6.4mm, M6, ISO14580")
  (tags "mounting hole 6.4mm m6 iso14580")
  (attr exclude_from_pos_files exclude_from_bom)
  (fp_text reference "REF**" (at 0 -6) (layer "F.SilkS")
    (effects (font (size 1 1) (thickness 0.15)))
    (tstamp 8699f07d-f038-448c-bc90-ba6b2d6f4753)
  )
  (fp_text value "MountingHole_6.4mm_M6_ISO14580_Pad_TopOnly" (at 0 6) (layer "F.Fab")
    (effects (font (size 1 1) (thickness 0.15)))
    (tstamp c36fa662-e908-4ad4-9f4d-d2a510e012e0)
  )
  (fp_text user "${REFERENCE}" (at 0.3 0) (layer "F.Fab")
    (effects (font (size 1 1) (thickness 0.15)))
    (tstamp b1744777-c7fb-426d-8ebb-a0d0bb3ac060)
  )
  (fp_circle (center 0 0) (end 5 0) (layer "Cmts.User") (width 0.15) (fill none) (tstamp a90c36d1-8389-4d76-9c91-3687d3ca91dd))
  (fp_circle (center 0 0) (end 5.25 0) (layer "F.CrtYd") (width 0.05) (fill none) (tstamp 987f7596-1d7e-4d3d-a98a-6e213cd03e72))
  (pad "1" connect circle (at 0 0) (size 10 10) (layers "F.Cu" "F.Mask") (tstamp 7c21a3e1-09bc-4184-92d8-53e4ac58a77d))
  (pad "1" thru_hole circle (at 0 0) (size 6.8 6.8) (drill 6.4) (layers *.Cu *.Mask) (tstamp bd5bd451-d6cb-4b81-a375-e008fde458e8))
)
