(footprint "MountingHole_2.7mm_M2.5" (version 20211014) (generator pcbnew)
  (layer "F.Cu")
  (tedit 56D1B4CB)
  (descr "Mounting Hole 2.7mm, no annular, M2.5")
  (tags "mounting hole 2.7mm no annular m2.5")
  (attr exclude_from_pos_files exclude_from_bom)
  (fp_text reference "REF**" (at 0 -3.7) (layer "F.SilkS")
    (effects (font (size 1 1) (thickness 0.15)))
    (tstamp 7019848c-34eb-4da4-9b06-38692c7eb8b5)
  )
  (fp_text value "MountingHole_2.7mm_M2.5" (at 0 3.7) (layer "F.Fab")
    (effects (font (size 1 1) (thickness 0.15)))
    (tstamp 9cb295e9-7d71-4de9-a11f-fb46eb03ae04)
  )
  (fp_text user "${REFERENCE}" (at 0.3 0) (layer "F.Fab")
    (effects (font (size 1 1) (thickness 0.15)))
    (tstamp 6bc73baf-f022-43f0-808c-3d20cf46afd0)
  )
  (fp_circle (center 0 0) (end 2.7 0) (layer "Cmts.User") (width 0.15) (fill none) (tstamp 503a3e0a-c646-40ca-9758-335ce04474ed))
  (fp_circle (center 0 0) (end 2.95 0) (layer "F.CrtYd") (width 0.05) (fill none) (tstamp a30ec54b-ea6b-4043-ab0a-c1283d85de9c))
  (pad "" np_thru_hole circle (at 0 0) (size 2.7 2.7) (drill 2.7) (layers *.Cu *.Mask) (tstamp 804ff500-162b-4cce-94ca-394231c2a810))
)
