(footprint "MountingHole_6.4mm_M6_ISO14580" (version 20211014) (generator pcbnew)
  (layer "F.Cu")
  (tedit 56D1B4CB)
  (descr "Mounting Hole 6.4mm, no annular, M6, ISO14580")
  (tags "mounting hole 6.4mm no annular m6 iso14580")
  (attr exclude_from_pos_files exclude_from_bom)
  (fp_text reference "REF**" (at 0 -6) (layer "F.SilkS")
    (effects (font (size 1 1) (thickness 0.15)))
    (tstamp 509d5e90-a3bc-4e1e-9283-30edf95cccd0)
  )
  (fp_text value "MountingHole_6.4mm_M6_ISO14580" (at 0 6) (layer "F.Fab")
    (effects (font (size 1 1) (thickness 0.15)))
    (tstamp 9ae1b1b1-9b92-4f0b-b477-c4a9751cb750)
  )
  (fp_text user "${REFERENCE}" (at 0.3 0) (layer "F.Fab")
    (effects (font (size 1 1) (thickness 0.15)))
    (tstamp aeb79fdd-dd4c-4b99-93e0-2ba6cfed243c)
  )
  (fp_circle (center 0 0) (end 5 0) (layer "Cmts.User") (width 0.15) (fill none) (tstamp 23b7af3d-0605-47d7-9743-6ea99a0707df))
  (fp_circle (center 0 0) (end 5.25 0) (layer "F.CrtYd") (width 0.05) (fill none) (tstamp 8f34c638-1689-4625-bbe7-78b808262f7b))
  (pad "" np_thru_hole circle (at 0 0) (size 6.4 6.4) (drill 6.4) (layers *.Cu *.Mask) (tstamp dd7aa10a-c8f4-46cd-96af-cc008de086ad))
)
