(footprint "MountingHole_4.5mm_Pad_TopOnly" (version 20211014) (generator pcbnew)
  (layer "F.Cu")
  (tedit 56D1B4CB)
  (descr "Mounting Hole 4.5mm")
  (tags "mounting hole 4.5mm")
  (attr exclude_from_pos_files exclude_from_bom)
  (fp_text reference "REF**" (at 0 -5.5) (layer "F.SilkS")
    (effects (font (size 1 1) (thickness 0.15)))
    (tstamp 1ec29104-b413-406a-bd49-15e7994bcd73)
  )
  (fp_text value "MountingHole_4.5mm_Pad_TopOnly" (at 0 5.5) (layer "F.Fab")
    (effects (font (size 1 1) (thickness 0.15)))
    (tstamp d3b66da5-0fc9-4405-a8f5-00b16f588d66)
  )
  (fp_text user "${REFERENCE}" (at 0.3 0) (layer "F.Fab")
    (effects (font (size 1 1) (thickness 0.15)))
    (tstamp cd793dde-020c-43f3-b715-3b87505fd7f2)
  )
  (fp_circle (center 0 0) (end 4.5 0) (layer "Cmts.User") (width 0.15) (fill none) (tstamp a888afd0-d555-41d7-98af-0676b7801dd1))
  (fp_circle (center 0 0) (end 4.75 0) (layer "F.CrtYd") (width 0.05) (fill none) (tstamp de964fc8-4e34-46b2-bdd2-66dc1f732f1a))
  (pad "1" connect circle (at 0 0) (size 9 9) (layers "F.Cu" "F.Mask") (tstamp 2633cdb0-9134-4a3b-b62c-882bf5718e51))
  (pad "1" thru_hole circle (at 0 0) (size 4.9 4.9) (drill 4.5) (layers *.Cu *.Mask) (tstamp bdce49b6-dea8-432e-a610-fd44510cbd6d))
)
