(footprint "MountingHole_2.5mm" (version 20211014) (generator pcbnew)
  (layer "F.Cu")
  (tedit 56D1B4CB)
  (descr "Mounting Hole 2.5mm, no annular")
  (tags "mounting hole 2.5mm no annular")
  (attr exclude_from_pos_files exclude_from_bom)
  (fp_text reference "REF**" (at 0 -3.5) (layer "F.SilkS")
    (effects (font (size 1 1) (thickness 0.15)))
    (tstamp 60dc95ca-c481-4e14-96df-e61721388cb1)
  )
  (fp_text value "MountingHole_2.5mm" (at 0 3.5) (layer "F.Fab")
    (effects (font (size 1 1) (thickness 0.15)))
    (tstamp 1ba7045f-83dc-4d94-9d12-21cd50de4757)
  )
  (fp_text user "${REFERENCE}" (at 0.3 0) (layer "F.Fab")
    (effects (font (size 1 1) (thickness 0.15)))
    (tstamp c9906d16-ada8-4e03-b374-e39a25c28aa9)
  )
  (fp_circle (center 0 0) (end 2.5 0) (layer "Cmts.User") (width 0.15) (fill none) (tstamp 26384c75-f86e-4bc5-b6a0-53379ec6e00b))
  (fp_circle (center 0 0) (end 2.75 0) (layer "F.CrtYd") (width 0.05) (fill none) (tstamp 8e57077d-b667-4361-8ddd-03e608b3e4b5))
  (pad "" np_thru_hole circle (at 0 0) (size 2.5 2.5) (drill 2.5) (layers *.Cu *.Mask) (tstamp 656f5f67-62ee-4b17-8ec1-f1a6857d27d9))
)
