(footprint "MountingHole_2.7mm_M2.5_ISO14580" (version 20211014) (generator pcbnew)
  (layer "F.Cu")
  (tedit 56D1B4CB)
  (descr "Mounting Hole 2.7mm, no annular, M2.5, ISO14580")
  (tags "mounting hole 2.7mm no annular m2.5 iso14580")
  (attr exclude_from_pos_files exclude_from_bom)
  (fp_text reference "REF**" (at 0 -3.25) (layer "F.SilkS")
    (effects (font (size 1 1) (thickness 0.15)))
    (tstamp b0235959-7ca2-4040-b475-432cebd4c05e)
  )
  (fp_text value "MountingHole_2.7mm_M2.5_ISO14580" (at 0 3.25) (layer "F.Fab")
    (effects (font (size 1 1) (thickness 0.15)))
    (tstamp ce1f7c68-934f-423d-8064-ae24fb268224)
  )
  (fp_text user "${REFERENCE}" (at 0.3 0) (layer "F.Fab")
    (effects (font (size 1 1) (thickness 0.15)))
    (tstamp ab431da2-97ca-4db6-a47b-1a3e77943870)
  )
  (fp_circle (center 0 0) (end 2.25 0) (layer "Cmts.User") (width 0.15) (fill none) (tstamp 65edc26d-14c6-490e-9472-1aab0ca37636))
  (fp_circle (center 0 0) (end 2.5 0) (layer "F.CrtYd") (width 0.05) (fill none) (tstamp 3d5e9506-e5d7-41de-8152-e7afdf38be1b))
  (pad "" np_thru_hole circle (at 0 0) (size 2.7 2.7) (drill 2.7) (layers *.Cu *.Mask) (tstamp 9f06509c-5463-4692-9eca-53faa96024b1))
)
