(footprint "MountingHole_5.3mm_M5_Pad_TopBottom" (version 20211014) (generator pcbnew)
  (layer "F.Cu")
  (tedit 56D1B4CB)
  (descr "Mounting Hole 5.3mm, M5")
  (tags "mounting hole 5.3mm m5")
  (attr exclude_from_pos_files exclude_from_bom)
  (fp_text reference "REF**" (at 0 -6.3) (layer "F.SilkS")
    (effects (font (size 1 1) (thickness 0.15)))
    (tstamp f957fc6c-6c12-46d5-86f8-1c62c5eaa7dd)
  )
  (fp_text value "MountingHole_5.3mm_M5_Pad_TopBottom" (at 0 6.3) (layer "F.Fab")
    (effects (font (size 1 1) (thickness 0.15)))
    (tstamp 09358dd3-fadd-46de-aaec-f09647c52891)
  )
  (fp_text user "${REFERENCE}" (at 0.3 0) (layer "F.Fab")
    (effects (font (size 1 1) (thickness 0.15)))
    (tstamp 0ef1da2d-72a5-47ce-825f-8a727716a8c3)
  )
  (fp_circle (center 0 0) (end 5.3 0) (layer "Cmts.User") (width 0.15) (fill none) (tstamp 4c7c92c0-2a79-4a08-94d1-cf84d3a4a40c))
  (fp_circle (center 0 0) (end 5.55 0) (layer "F.CrtYd") (width 0.05) (fill none) (tstamp cbba983f-6e66-48ff-aaed-5a024dbffb48))
  (pad "1" thru_hole circle (at 0 0) (size 5.7 5.7) (drill 5.3) (layers *.Cu *.Mask) (tstamp 0bb01927-f92e-48d7-80db-4ddbb4fb9cd7))
  (pad "1" connect circle (at 0 0) (size 10.6 10.6) (layers "F.Cu" "F.Mask") (tstamp e785a3ff-e1a7-4911-89d1-abc150d35a83))
  (pad "1" connect circle (at 0 0) (size 10.6 10.6) (layers "B.Cu" "B.Mask") (tstamp eab76789-ea07-40a6-a041-208952c9e9d5))
)
