(footprint "InvenSense_QFN-24_4x4mm_P0.5mm_NoMask" (version 20211014) (generator pcbnew)
  (layer "F.Cu")
  (tedit 5B5A7029)
  (descr "24-Lead Plastic QFN (4mm x 4mm); Pitch 0.5mm; EP 2.7x2.6mm; for InvenSense motion sensors; Mask removed below exposed pad; keepout area marked (Package see: https://store.invensense.com/datasheets/invensense/MPU-6050_DataSheet_V3%204.pdf; See also https://www.invensense.com/wp-content/uploads/2015/02/InvenSense-MEMS-Handling.pdf)")
  (tags "QFN 0.5")
  (attr smd)
  (fp_text reference "REF**" (at 0 -3.375) (layer "F.SilkS")
    (effects (font (size 1 1) (thickness 0.15)))
    (tstamp ed0b4035-678a-4091-808f-aabec7909430)
  )
  (fp_text value "InvenSense_QFN-24_4x4mm_P0.5mm_NoMask" (at 0 3.375) (layer "F.Fab")
    (effects (font (size 1 1) (thickness 0.15)))
    (tstamp 3b57b7ce-2fab-4cf7-845d-8ef17b3a64ab)
  )
  (fp_text user "No Copper" (at 0 -0.1) (layer "Cmts.User")
    (effects (font (size 0.2 0.2) (thickness 0.04)))
    (tstamp 35b84c09-80fc-4010-8704-437428a2bbb9)
  )
  (fp_text user "Directly Below" (at 0 0.25) (layer "Cmts.User")
    (effects (font (size 0.2 0.2) (thickness 0.04)))
    (tstamp 4a69ad3b-29a4-43fa-9be6-2829ccd615bf)
  )
  (fp_text user "Component" (at 0 0.55) (layer "Cmts.User")
    (effects (font (size 0.2 0.2) (thickness 0.04)))
    (tstamp 758eb8f8-2fad-4149-8a8a-c12a7b10d751)
  )
  (fp_text user "KEEPOUT" (at 0 -0.5) (layer "Cmts.User")
    (effects (font (size 0.2 0.2) (thickness 0.04)))
    (tstamp c7ec21e0-e40c-403e-9745-530b2d7fb047)
  )
  (fp_text user "${REFERENCE}" (at 0 0) (layer "F.Fab")
    (effects (font (size 1 1) (thickness 0.15)))
    (tstamp d59186a0-7f9e-491e-bfa8-a2f9925e84da)
  )
  (fp_line (start -2.15 2.15) (end -2.15 1.625) (layer "F.SilkS") (width 0.15) (tstamp 00aa078e-848d-4375-83e0-406b28fe8677))
  (fp_line (start 2.15 2.15) (end 2.15 1.625) (layer "F.SilkS") (width 0.15) (tstamp 10f6709f-d231-421e-a836-c813617858df))
  (fp_line (start 2.15 2.15) (end 1.625 2.15) (layer "F.SilkS") (width 0.15) (tstamp 2fd6ce15-cd53-4aa0-9841-0982e7c5ec5c))
  (fp_line (start 2.15 -2.15) (end 2.15 -1.625) (layer "F.SilkS") (width 0.15) (tstamp 6aa149d4-e13b-4561-958c-8572a767aabe))
  (fp_line (start 2.15 -2.15) (end 1.625 -2.15) (layer "F.SilkS") (width 0.15) (tstamp bf2806a6-1282-4535-bde4-29e06a3c83a8))
  (fp_line (start -2.15 -2.15) (end -1.625 -2.15) (layer "F.SilkS") (width 0.15) (tstamp d4dca7cf-2ce8-4775-ae16-316a34267ce2))
  (fp_line (start -2.15 2.15) (end -1.625 2.15) (layer "F.SilkS") (width 0.15) (tstamp d86a1c0c-49a9-4ee5-8ea6-02820f0e2a16))
  (fp_line (start 1.375 0.825) (end 0.875 1.325) (layer "Dwgs.User") (width 0.05) (tstamp 062f1f49-81a1-4cb2-9763-738a885c3076))
  (fp_line (start -1.375 1.325) (end -1.375 -1.325) (layer "Dwgs.User") (width 0.05) (tstamp 29f6401f-4942-4e24-8f55-aa14656f04e8))
  (fp_line (start 0.025 -1.325) (end -1.375 0.075) (layer "Dwgs.User") (width 0.05) (tstamp 401a2c9f-bd63-4b84-b873-b259e905e49c))
  (fp_line (start 1.375 -1.175) (end -1.125 1.325) (layer "Dwgs.User") (width 0.05) (tstamp 500532f6-ae72-4d08-b932-39426604874e))
  (fp_line (start 1.025 -1.325) (end -1.375 1.075) (layer "Dwgs.User") (width 0.05) (tstamp 59c6fc3f-ef40-4930-b3b3-dba4557f85d5))
  (fp_line (start 1.375 -1.325) (end -1.375 -1.325) (layer "Dwgs.User") (width 0.05) (tstamp 5a5f5484-887c-4e54-a5ef-bb6a3d19698a))
  (fp_line (start 0.525 -1.325) (end -1.375 0.575) (layer "Dwgs.User") (width 0.05) (tstamp 5a74b299-2a25-4d29-8e33-84cdac3bccb5))
  (fp_line (start -0.975 -1.325) (end -1.375 -0.925) (layer "Dwgs.User") (width 0.05) (tstamp 753156ac-1d45-4c37-b2c9-98280bc66b4c))
  (fp_line (start -0.475 -1.325) (end -1.375 -0.425) (layer "Dwgs.User") (width 0.05) (tstamp 9235addf-41fa-4665-8f44-91157cf07c31))
  (fp_line (start 1.375 -0.675) (end -0.625 1.325) (layer "Dwgs.User") (width 0.05) (tstamp b96bc385-7878-48cc-8753-a156eed9f001))
  (fp_line (start 1.375 1.325) (end -1.375 1.325) (layer "Dwgs.User") (width 0.05) (tstamp cbec2ea6-d9d0-44cb-89cc-72efe5a9533c))
  (fp_line (start 1.375 -0.175) (end -0.125 1.325) (layer "Dwgs.User") (width 0.05) (tstamp eafa4887-8c69-4455-aab1-4cb6119b6aba))
  (fp_line (start 1.375 1.325) (end 1.375 -1.325) (layer "Dwgs.User") (width 0.05) (tstamp f367ada8-a8fd-4608-8bb6-bac4c2cd2b86))
  (fp_line (start 1.375 0.325) (end 0.375 1.325) (layer "Dwgs.User") (width 0.05) (tstamp f4edc27d-dc64-4d77-b781-b5b6d298dc66))
  (fp_line (start -2.65 -2.65) (end 2.65 -2.65) (layer "F.CrtYd") (width 0.05) (tstamp 025a7821-e743-4d3a-bfd9-812a55dd024d))
  (fp_line (start -2.65 -2.65) (end -2.65 2.65) (layer "F.CrtYd") (width 0.05) (tstamp 60bca570-84cb-40f2-9dba-9cd995c51b62))
  (fp_line (start -2.65 2.65) (end 2.65 2.65) (layer "F.CrtYd") (width 0.05) (tstamp c318bd03-e441-46d7-8707-1546dd46cfd8))
  (fp_line (start 2.65 -2.65) (end 2.65 2.65) (layer "F.CrtYd") (width 0.05) (tstamp e8dd1fa9-f011-47dc-b6f5-c292a97fadc8))
  (fp_line (start 2 -2) (end 2 2) (layer "F.Fab") (width 0.15) (tstamp 1cb4d237-25c6-49e7-b5f7-0900bbd817f0))
  (fp_line (start -2 2) (end -2 -1) (layer "F.Fab") (width 0.15) (tstamp 3b242bb4-a024-44f1-803b-a40fb0f22288))
  (fp_line (start 2 2) (end -2 2) (layer "F.Fab") (width 0.15) (tstamp 69c7afe5-297c-42a7-949e-dd1e98dd2969))
  (fp_line (start -2 -1) (end -1 -2) (layer "F.Fab") (width 0.15) (tstamp 73c91d5b-5c0b-4698-91af-1eb4298ef96f))
  (fp_line (start -1 -2) (end 2 -2) (layer "F.Fab") (width 0.15) (tstamp af669a63-fc29-43a2-8d1f-e2410a674ceb))
  (pad "" smd roundrect (at 0 0) (size 2.75 2.65) (layers "F.Mask") (roundrect_rratio 0.094) (tstamp 8f3b37a1-c08b-4058-add1-c869a74893ed))
  (pad "1" smd roundrect (at -1.95 -1.25) (size 0.85 0.3) (layers "F.Cu" "F.Paste" "F.Mask") (roundrect_rratio 0.25) (tstamp 7f052b86-d6c3-42ba-aa3f-941182eb05ad))
  (pad "2" smd roundrect (at -1.95 -0.75) (size 0.85 0.3) (layers "F.Cu" "F.Paste" "F.Mask") (roundrect_rratio 0.25) (tstamp 5995976a-ad2e-410a-a9fd-0c5acb5910dd))
  (pad "3" smd roundrect (at -1.95 -0.25) (size 0.85 0.3) (layers "F.Cu" "F.Paste" "F.Mask") (roundrect_rratio 0.25) (tstamp 9de1230c-861f-4ff0-ae7d-f8a353fcf04b))
  (pad "4" smd roundrect (at -1.95 0.25) (size 0.85 0.3) (layers "F.Cu" "F.Paste" "F.Mask") (roundrect_rratio 0.25) (tstamp 4b5841c9-4ed0-4f4e-a57e-874c5e1e31d4))
  (pad "5" smd roundrect (at -1.95 0.75) (size 0.85 0.3) (layers "F.Cu" "F.Paste" "F.Mask") (roundrect_rratio 0.25) (tstamp f5d53640-129c-4f5f-b0d8-978ef6b4f769))
  (pad "6" smd roundrect (at -1.95 1.25) (size 0.85 0.3) (layers "F.Cu" "F.Paste" "F.Mask") (roundrect_rratio 0.25) (tstamp ad211820-7a51-457a-af9d-638bb734918e))
  (pad "7" smd roundrect (at -1.25 1.95 90) (size 0.85 0.3) (layers "F.Cu" "F.Paste" "F.Mask") (roundrect_rratio 0.25) (tstamp ec1b881b-1b6a-44ba-ae3f-4b5e33f812fc))
  (pad "8" smd roundrect (at -0.75 1.95 90) (size 0.85 0.3) (layers "F.Cu" "F.Paste" "F.Mask") (roundrect_rratio 0.25) (tstamp a385674c-1c25-4759-be41-08dea3598ae1))
  (pad "9" smd roundrect (at -0.25 1.95 90) (size 0.85 0.3) (layers "F.Cu" "F.Paste" "F.Mask") (roundrect_rratio 0.25) (tstamp 24862e6e-d0cc-4cf4-afa7-83c7fa927c37))
  (pad "10" smd roundrect (at 0.25 1.95 90) (size 0.85 0.3) (layers "F.Cu" "F.Paste" "F.Mask") (roundrect_rratio 0.25) (tstamp d9411c1a-17ee-4ea1-a67e-7ecfa545ea82))
  (pad "11" smd roundrect (at 0.75 1.95 90) (size 0.85 0.3) (layers "F.Cu" "F.Paste" "F.Mask") (roundrect_rratio 0.25) (tstamp b91ee38c-b906-42fa-ae4a-04fe38a42e69))
  (pad "12" smd roundrect (at 1.25 1.95 90) (size 0.85 0.3) (layers "F.Cu" "F.Paste" "F.Mask") (roundrect_rratio 0.25) (tstamp 02923056-a4de-4e4b-870a-f5780cb61fb5))
  (pad "13" smd roundrect (at 1.95 1.25) (size 0.85 0.3) (layers "F.Cu" "F.Paste" "F.Mask") (roundrect_rratio 0.25) (tstamp 4c33edb0-2659-4ea3-a8b8-569d8724ae6a))
  (pad "14" smd roundrect (at 1.95 0.75) (size 0.85 0.3) (layers "F.Cu" "F.Paste" "F.Mask") (roundrect_rratio 0.25) (tstamp 8c023dc8-7c8e-4944-b494-01090197d8b4))
  (pad "15" smd roundrect (at 1.95 0.25) (size 0.85 0.3) (layers "F.Cu" "F.Paste" "F.Mask") (roundrect_rratio 0.25) (tstamp 2192a100-4cea-4ded-ba8a-6a3e78d96fe3))
  (pad "16" smd roundrect (at 1.95 -0.25) (size 0.85 0.3) (layers "F.Cu" "F.Paste" "F.Mask") (roundrect_rratio 0.25) (tstamp 687f605d-fcd5-4450-9376-4c21e34b20c6))
  (pad "17" smd roundrect (at 1.95 -0.75) (size 0.85 0.3) (layers "F.Cu" "F.Paste" "F.Mask") (roundrect_rratio 0.25) (tstamp 30d1424a-d967-4b38-9300-7464a1eead0a))
  (pad "18" smd roundrect (at 1.95 -1.25) (size 0.85 0.3) (layers "F.Cu" "F.Paste" "F.Mask") (roundrect_rratio 0.25) (tstamp 2f79fec7-d94f-40f8-b8bf-d476cb2cbb06))
  (pad "19" smd roundrect (at 1.25 -1.95 90) (size 0.85 0.3) (layers "F.Cu" "F.Paste" "F.Mask") (roundrect_rratio 0.25) (tstamp 045e1143-a1a9-46fe-aea0-f3f753b79614))
  (pad "20" smd roundrect (at 0.75 -1.95 90) (size 0.85 0.3) (layers "F.Cu" "F.Paste" "F.Mask") (roundrect_rratio 0.25) (tstamp 36744c79-3a81-431b-abc5-8a885b0574c0))
  (pad "21" smd roundrect (at 0.25 -1.95 90) (size 0.85 0.3) (layers "F.Cu" "F.Paste" "F.Mask") (roundrect_rratio 0.25) (tstamp 5fb19a1e-340c-42a9-b2f1-b459b0218177))
  (pad "22" smd roundrect (at -0.25 -1.95 90) (size 0.85 0.3) (layers "F.Cu" "F.Paste" "F.Mask") (roundrect_rratio 0.25) (tstamp 36c7788a-c669-4729-bf6f-b79eef461a9a))
  (pad "23" smd roundrect (at -0.75 -1.95 90) (size 0.85 0.3) (layers "F.Cu" "F.Paste" "F.Mask") (roundrect_rratio 0.25) (tstamp 7a0ac5fb-1b9c-4544-979d-44a1618ef7e5))
  (pad "24" smd roundrect (at -1.25 -1.95 90) (size 0.85 0.3) (layers "F.Cu" "F.Paste" "F.Mask") (roundrect_rratio 0.25) (tstamp d1c3f8a7-c20b-4093-877a-f39cd5d064e8))
  (model "${KICAD6_3DMODEL_DIR}/Package_DFN_QFN.3dshapes/QFN-24-1EP_4x4mm_P0.5mm_EP2.7x2.6mm.wrl"
    (offset (xyz 0 0 0))
    (scale (xyz 1 1 1))
    (rotate (xyz 0 0 0))
  )
)
