(footprint "Linx_RXM-GPS" (version 20211014) (generator pcbnew)
  (layer "F.Cu")
  (tedit 5C292B4D)
  (descr "GPS Module, Linx")
  (tags "gps linx")
  (attr smd)
  (fp_text reference "REF**" (at 0 -9) (layer "F.SilkS")
    (effects (font (size 1 1) (thickness 0.15)))
    (tstamp 77c1551b-7c6f-4932-a356-62033f344bc1)
  )
  (fp_text value "Linx_RXM-GPS" (at 0 -3) (layer "F.Fab")
    (effects (font (size 1 1) (thickness 0.15)))
    (tstamp cebb6e4c-448c-4e5c-8e4c-72f494edba22)
  )
  (fp_text user "Keepout Area" (at 0 -6.44) (layer "Cmts.User")
    (effects (font (size 1 1) (thickness 0.1)))
    (tstamp 49a5820a-1cf9-42c7-b76a-572a96cea925)
  )
  (fp_text user "Only GND" (at 0.04 5.31) (layer "Cmts.User")
    (effects (font (size 0.8 0.8) (thickness 0.1)))
    (tstamp 53548568-b41f-43cb-926e-184f168d12cb)
  )
  (fp_text user "on the other side" (at 0.02 6.74) (layer "Cmts.User")
    (effects (font (size 0.8 0.8) (thickness 0.1)))
    (tstamp bf76770e-0be7-4f4b-89c3-341e6d06b3e9)
  )
  (fp_text user "${REFERENCE}" (at 0 0) (layer "F.Fab")
    (effects (font (size 1 1) (thickness 0.1)))
    (tstamp c411a436-42ac-4b5c-9c63-a5a24eb5d01f)
  )
  (fp_line (start -6.6 -7) (end -7.3 -7) (layer "F.SilkS") (width 0.12) (tstamp 098b14ee-8aba-4a98-bd53-110525c22546))
  (fp_line (start -6.6 7.6) (end 6.6 7.6) (layer "F.SilkS") (width 0.12) (tstamp 4d669da6-c519-46d9-bb80-1ede71d0050d))
  (fp_line (start -6.6 6.95) (end -6.6 7.6) (layer "F.SilkS") (width 0.12) (tstamp 5e0a362c-6afa-4151-8eed-34eef3149ace))
  (fp_line (start 6.6 7.6) (end 6.6 6.85) (layer "F.SilkS") (width 0.12) (tstamp 9f92fc22-3b4e-4ae8-bdc6-74b318978419))
  (fp_line (start -6.6 -7.6) (end 6.6 -7.6) (layer "F.SilkS") (width 0.12) (tstamp ba7b9607-36c0-483b-9746-6ff621c997fb))
  (fp_line (start 6.6 -7.6) (end 6.6 -6.9) (layer "F.SilkS") (width 0.12) (tstamp d9169611-4760-49c2-928e-ec679c5fbd25))
  (fp_line (start -6.6 -7) (end -6.6 -7.6) (layer "F.SilkS") (width 0.12) (tstamp fe24c410-73d7-4214-801e-b7b0d37e87a9))
  (fp_line (start -7.2 -7.75) (end 7.2 7.75) (layer "Dwgs.User") (width 0.05) (tstamp baaf2487-1642-4ca3-849e-d449708777c3))
  (fp_line (start -7.2 7.75) (end 7.2 -7.75) (layer "Dwgs.User") (width 0.05) (tstamp dee291f7-7496-4b77-9cd5-596b2e5f70b3))
  (fp_line (start -7.2 -7.75) (end 7.2 -7.75) (layer "F.CrtYd") (width 0.05) (tstamp 533172f6-3b34-4994-b583-8da99f76779a))
  (fp_line (start 7.2 7.75) (end 7.2 -7.75) (layer "F.CrtYd") (width 0.05) (tstamp 921d58df-6f6d-4449-8141-e11e0b75c70b))
  (fp_line (start -7.2 -7.75) (end -7.2 7.75) (layer "F.CrtYd") (width 0.05) (tstamp a9ecff67-06c6-4583-a3ed-66b3f986193e))
  (fp_line (start -7.2 7.75) (end 7.2 7.75) (layer "F.CrtYd") (width 0.05) (tstamp b5882b1c-0d9b-416a-bce3-223d86649087))
  (fp_line (start 6.5 -7.5) (end -5.23 -7.5) (layer "F.Fab") (width 0.1) (tstamp 239ff0e5-38ad-43e7-8ffa-e7da8d597f95))
  (fp_line (start -6.5 7.5) (end 6.5 7.5) (layer "F.Fab") (width 0.1) (tstamp 760a7256-4540-4e85-b9a9-f72f74addefa))
  (fp_line (start 6.5 7.5) (end 6.5 -7.5) (layer "F.Fab") (width 0.1) (tstamp 9a72d8ed-8231-4079-828e-35ce427710d3))
  (fp_line (start -5.23 -7.5) (end -6.5 -6.23) (layer "F.Fab") (width 0.1) (tstamp ad042ba9-0200-4689-af33-e6991834c410))
  (fp_line (start -6.5 -6.23) (end -6.5 7.5) (layer "F.Fab") (width 0.1) (tstamp f932febc-ce6a-48ea-9222-3134df535c98))
  (pad "1" smd rect (at -6.5 -6.35 90) (size 0.7 0.9) (layers "F.Cu" "F.Paste" "F.Mask") (tstamp f7aab547-5d5a-4aae-8aca-49296f334581))
  (pad "2" smd rect (at -6.5 -5.08 90) (size 0.7 0.9) (layers "F.Cu" "F.Paste" "F.Mask") (tstamp c4cd0605-df4f-486e-952e-d930f17d16f4))
  (pad "3" smd rect (at -6.5 -3.81 90) (size 0.7 0.9) (layers "F.Cu" "F.Paste" "F.Mask") (tstamp 2ceec664-7ce0-4811-bd8e-e6a43f272703))
  (pad "4" smd rect (at -6.5 -2.54 90) (size 0.7 0.9) (layers "F.Cu" "F.Paste" "F.Mask") (tstamp 79997c8d-67b9-4b18-bc4e-fc6eb6d64a37))
  (pad "5" smd rect (at -6.5 -1.27 90) (size 0.7 0.9) (layers "F.Cu" "F.Paste" "F.Mask") (tstamp 6f67e4b0-490d-406b-b057-cf0042f3aedc))
  (pad "6" smd rect (at -6.5 1.27 90) (size 0.7 0.9) (layers "F.Cu" "F.Paste" "F.Mask") (tstamp 0de7224a-b272-4d0e-86ac-ac2d68408be6))
  (pad "7" smd rect (at -6.5 2.54 90) (size 0.7 0.9) (layers "F.Cu" "F.Paste" "F.Mask") (tstamp 3b82ba4e-0c83-490e-926f-457a5f8554ce))
  (pad "8" smd rect (at -6.5 3.81 90) (size 0.7 0.9) (layers "F.Cu" "F.Paste" "F.Mask") (tstamp 08d185a2-f5f5-455f-9cfc-0704a99587ce))
  (pad "9" smd rect (at -6.5 5.08 90) (size 0.7 0.9) (layers "F.Cu" "F.Paste" "F.Mask") (tstamp affa5b76-873a-4396-af4a-7fed2108214c))
  (pad "10" smd rect (at -6.5 6.35 90) (size 0.7 0.9) (layers "F.Cu" "F.Paste" "F.Mask") (tstamp 9f1ffd94-127e-4cfe-bb20-875ca058b682))
  (pad "11" smd rect (at 6.5 6.35 90) (size 0.7 0.9) (layers "F.Cu" "F.Paste" "F.Mask") (tstamp ad35a739-a230-4570-abb5-b0cea7fd67fa))
  (pad "12" smd rect (at 6.5 5.08 90) (size 0.7 0.9) (layers "F.Cu" "F.Paste" "F.Mask") (tstamp ba0aafd1-5e17-41ee-a31b-647a003150e9))
  (pad "13" smd rect (at 6.5 3.81 90) (size 0.7 0.9) (layers "F.Cu" "F.Paste" "F.Mask") (tstamp ad15a566-54e9-4560-a8f4-7a9a6a94b202))
  (pad "14" smd rect (at 6.5 2.54 90) (size 0.7 0.9) (layers "F.Cu" "F.Paste" "F.Mask") (tstamp 47090ecc-0cfe-41f7-b163-3739543bc66c))
  (pad "15" smd rect (at 6.5 1.27 90) (size 0.7 0.9) (layers "F.Cu" "F.Paste" "F.Mask") (tstamp c0d64213-13ff-4a3a-8a16-a35a109e19bf))
  (pad "16" smd rect (at 6.5 -1.27 90) (size 0.7 0.9) (layers "F.Cu" "F.Paste" "F.Mask") (tstamp a9ae14aa-290a-4f02-9ced-2a11ffb7acb1))
  (pad "17" smd rect (at 6.5 -2.54 90) (size 0.7 0.9) (layers "F.Cu" "F.Paste" "F.Mask") (tstamp a023f266-2738-46c0-b23e-8e6b47060c04))
  (pad "18" smd rect (at 6.5 -3.81 90) (size 0.7 0.9) (layers "F.Cu" "F.Paste" "F.Mask") (tstamp 51f257ac-60cb-4060-a8b1-6eda57f7b53f))
  (pad "19" smd rect (at 6.5 -5.08 90) (size 0.7 0.9) (layers "F.Cu" "F.Paste" "F.Mask") (tstamp 3eeac0a2-ee8b-4146-a343-bf41ded9f965))
  (pad "20" smd rect (at 6.5 -6.35 90) (size 0.7 0.9) (layers "F.Cu" "F.Paste" "F.Mask") (tstamp 4c781c9a-e807-49d4-86ff-6cdd1c359e5b))
  (pad "21" smd rect (at -6.3 0 90) (size 0.92 0.5) (layers "F.Cu" "F.Paste" "F.Mask") (tstamp 2ace8487-40da-41e8-ba8c-fda79875719f))
  (pad "22" smd rect (at 6.3 0 90) (size 0.92 0.5) (layers "F.Cu" "F.Paste" "F.Mask") (tstamp 8bd25b4b-dd37-4432-8ed4-7622bdbe8e23))
  (model "${KICAD6_3DMODEL_DIR}/RF_GPS.3dshapes/Linx_RXM-GPS.wrl"
    (offset (xyz 0 0 0))
    (scale (xyz 1 1 1))
    (rotate (xyz 0 0 0))
  )
)
