(footprint "Jack_3.5mm_QingPu_WQP-PJ398SM_Vertical_CircularHoles" (version 20211014) (generator pcbnew)
  (layer "F.Cu")
  (tedit 5C2B6BB2)
  (descr "TRS 3.5mm, vertical, Thonkiconn, PCB mount, (http://www.qingpu-electronics.com/en/products/WQP-PJ398SM-362.html)")
  (tags "WQP-PJ398SM WQP-PJ301M-12 TRS 3.5mm mono vertical jack thonkiconn qingpu")
  (attr through_hole)
  (fp_text reference "REF**" (at -4.03 1.08 180) (layer "F.SilkS")
    (effects (font (size 1 1) (thickness 0.15)))
    (tstamp ff79a596-1913-4551-9f28-0f12a44b1cd7)
  )
  (fp_text value "Jack_3.5mm_QingPu_WQP-PJ398SM_Vertical_CircularHoles" (at 0 5 180) (layer "F.Fab")
    (effects (font (size 1 1) (thickness 0.15)))
    (tstamp 464b1a29-49d5-4249-ad50-092cf78383c9)
  )
  (fp_text user "KEEPOUT" (at 0 6.48) (layer "Cmts.User")
    (effects (font (size 0.4 0.4) (thickness 0.051)))
    (tstamp 7315ea65-45ec-4b6d-ae3c-5d071a2927f1)
  )
  (fp_text user "${REFERENCE}" (at 0 8 180) (layer "F.Fab")
    (effects (font (size 1 1) (thickness 0.15)))
    (tstamp 102a9c00-053f-46d1-a5d5-528ae70b297c)
  )
  (fp_line (start -4.5 1.98) (end -4.5 12.48) (layer "F.SilkS") (width 0.12) (tstamp 100b5f99-ad6e-406a-bbbc-244f7d189042))
  (fp_line (start -0.35 1.98) (end -4.5 1.98) (layer "F.SilkS") (width 0.12) (tstamp 1eaaae8d-b4e4-4131-90b3-97de4c74d4ed))
  (fp_line (start 4.5 12.48) (end 0.5 12.48) (layer "F.SilkS") (width 0.12) (tstamp 36cd35a5-9839-4718-8d92-225de83519d0))
  (fp_line (start 4.5 1.98) (end 0.35 1.98) (layer "F.SilkS") (width 0.12) (tstamp 81fd6856-4251-417c-b7d0-87fc59a1eec3))
  (fp_line (start 4.5 1.98) (end 4.5 12.48) (layer "F.SilkS") (width 0.12) (tstamp 8e50786a-6262-48a6-8aa3-0d45ee4ebddb))
  (fp_line (start -1.06 -1) (end -1.06 -0.2) (layer "F.SilkS") (width 0.12) (tstamp a0b6b62f-56a0-48b4-9432-afa3dfe977b9))
  (fp_line (start -1.06 -1) (end -0.2 -1) (layer "F.SilkS") (width 0.12) (tstamp a117fcdd-651d-424b-8f53-beba942d51c3))
  (fp_line (start -0.5 12.48) (end -4.5 12.48) (layer "F.SilkS") (width 0.12) (tstamp dc3e03c3-e1e1-43c0-a5a5-25ed70fe63c2))
  (fp_circle (center 0 6.48) (end 1.8 6.48) (layer "F.SilkS") (width 0.12) (fill none) (tstamp 717c5284-d869-48f4-9891-62c3fdfe0914))
  (fp_line (start -0.58 7.83) (end 1.36 5.89) (layer "Dwgs.User") (width 0.12) (tstamp 0239ae7d-1ce2-4bcb-9b21-a657a9091508))
  (fp_line (start 0.09 7.96) (end 1.48 6.57) (layer "Dwgs.User") (width 0.12) (tstamp 4af1d3b0-ccaf-4d95-af87-d4c9bf7d38ab))
  (fp_line (start -1.41 6.02) (end -0.46 5.07) (layer "Dwgs.User") (width 0.12) (tstamp 6c0f887b-b344-49be-ba9f-7deb81d942fd))
  (fp_line (start -1.42 6.875) (end 0.4 5.06) (layer "Dwgs.User") (width 0.12) (tstamp 8e8403e8-4c44-48b1-a245-0997979d6f8e))
  (fp_line (start -1.07 7.49) (end 1.01 5.41) (layer "Dwgs.User") (width 0.12) (tstamp 9a58db14-029e-4d9c-8de6-5a11eba64c0f))
  (fp_circle (center 0 6.48) (end 1.5 6.48) (layer "Dwgs.User") (width 0.12) (fill none) (tstamp cf293bfd-7b3e-44ff-a6ba-421d8a6a66f9))
  (fp_line (start 5 12.98) (end 5 -1.42) (layer "F.CrtYd") (width 0.05) (tstamp 74789408-4dcf-417c-8e0a-3256d868d63a))
  (fp_line (start -5 12.98) (end -5 -1.42) (layer "F.CrtYd") (width 0.05) (tstamp 7a9773d3-207e-42fb-9250-a02b5a70b81b))
  (fp_line (start 5 -1.42) (end -5 -1.42) (layer "F.CrtYd") (width 0.05) (tstamp aa48ad06-7097-4b1b-bdff-f94770fb746d))
  (fp_line (start 5 12.98) (end -5 12.98) (layer "F.CrtYd") (width 0.05) (tstamp ec93b8a0-a081-4dd8-bbcf-a88864cdef88))
  (fp_line (start 0 0) (end 0 2.03) (layer "F.Fab") (width 0.1) (tstamp 1a09691a-94fb-4f1c-9b4f-11fb466abbe8))
  (fp_line (start 4.5 12.48) (end 4.5 2.08) (layer "F.Fab") (width 0.1) (tstamp 4e4173cb-53df-408a-95a6-89de39d88a5b))
  (fp_line (start 4.5 2.03) (end -4.5 2.03) (layer "F.Fab") (width 0.1) (tstamp 5ad77acd-08d1-4c0f-8930-9f31dd603090))
  (fp_line (start 4.5 12.48) (end -4.5 12.48) (layer "F.Fab") (width 0.1) (tstamp 87120475-974a-4d70-9dbf-33e4d8e4177e))
  (fp_line (start -4.5 12.48) (end -4.5 2.08) (layer "F.Fab") (width 0.1) (tstamp ba5783c7-f7ef-45ab-a8a5-e5f697c2dfe0))
  (fp_circle (center 0 6.48) (end 1.8 6.48) (layer "F.Fab") (width 0.1) (fill none) (tstamp 26bdea80-10b0-4fb9-ae7b-b2c233c959f0))
  (pad "S" thru_hole rect (at 0 0 180) (size 1.93 1.83) (drill 1.22) (layers *.Cu *.Mask) (tstamp 0b67ef7d-aa07-468b-8b69-dc9882e360cd))
  (pad "T" thru_hole circle (at 0 11.4 180) (size 2.13 2.13) (drill 1.43) (layers *.Cu *.Mask) (tstamp 4f738bd3-724e-4772-9327-aecaf3c20e94))
  (pad "TN" thru_hole circle (at 0 3.1 180) (size 2.13 2.13) (drill 1.42) (layers *.Cu *.Mask) (tstamp d4c5c408-d503-4605-8374-886fbb668ae0))
  (model "${KICAD6_3DMODEL_DIR}/Connector_Audio.3dshapes/Jack_3.5mm_QingPu_WQP-PJ398SM_Vertical.wrl"
    (offset (xyz 0 0 0))
    (scale (xyz 1 1 1))
    (rotate (xyz 0 0 0))
  )
)
