(footprint "CF-Card_3M_N7E50-7516PK-20-WF" (version 20211014) (generator pcbnew)
  (layer "F.Cu")
  (tedit 5A29BD9E)
  (descr "Compact Flash Card connector (https://multimedia.3m.com/mws/media/22365O/3mtm-cf-card-header-compactflashtm-type-i-sm-ts0662.pdf)")
  (tags "connector cf")
  (attr smd)
  (fp_text reference "REF**" (at 7.22 0 90) (layer "F.SilkS")
    (effects (font (size 1 1) (thickness 0.15)))
    (tstamp e220ab5a-b18f-456c-8ed7-330d74cfb903)
  )
  (fp_text value "CF-Card_3M_N7E50-7516PK-20-WF" (at 10.39 0 90) (layer "F.Fab")
    (effects (font (size 1 1) (thickness 0.15)))
    (tstamp 09882426-7772-4113-b0a2-71a775bdbb1c)
  )
  (fp_text user "${REFERENCE}" (at 0.535 0 90) (layer "F.Fab")
    (effects (font (size 1 1) (thickness 0.15)))
    (tstamp 616679e5-23a8-474f-94d0-6e01165e21d8)
  )
  (fp_line (start -5.85 -15.31) (end -5.35 -15.56) (layer "F.SilkS") (width 0.12) (tstamp 026e6f79-130c-41fc-8f0a-8526c305f27c))
  (fp_line (start 11.08 22.48) (end 11.08 20.55) (layer "F.SilkS") (width 0.12) (tstamp 06213242-8bac-4621-91e9-062050b968a7))
  (fp_line (start -2.64 -22.48) (end -0.28 -22.48) (layer "F.SilkS") (width 0.12) (tstamp 0f7929f3-b81c-4309-85e1-de04390a0234))
  (fp_line (start -4.52 17.42) (end -4.52 16.41) (layer "F.SilkS") (width 0.12) (tstamp 127845df-e02c-4429-ae1a-397fe33c532d))
  (fp_line (start 23.09 21.59) (end 29.44 21.59) (layer "F.SilkS") (width 0.12) (tstamp 1522dce4-066e-4292-8525-7256e50890dc))
  (fp_line (start 40.87 -10.79) (end 40.87 -17.14) (layer "F.SilkS") (width 0.12) (tstamp 157d2d18-f6f3-41ca-8b43-282baed29c9b))
  (fp_line (start -0.28 22.48) (end -2.64 22.48) (layer "F.SilkS") (width 0.12) (tstamp 192292d7-30d8-4dd2-9823-4cbbdc458d51))
  (fp_line (start -4.52 -16.41) (end -4.52 -17.42) (layer "F.SilkS") (width 0.12) (tstamp 222e6186-1102-4ede-a8a8-91c069aade50))
  (fp_line (start 33.89 -21.59) (end 40.87 -21.59) (layer "F.SilkS") (width 0.12) (tstamp 253cc25c-e989-43b3-b16d-5d5dd1cbd2ab))
  (fp_line (start 40.87 10.79) (end 40.87 4.45) (layer "F.SilkS") (width 0.12) (tstamp 29d3d6e6-6b68-4ec1-80de-a7a233bb5490))
  (fp_line (start 40.87 -18.41) (end 40.87 -20.32) (layer "F.SilkS") (width 0.12) (tstamp 3d53423b-fbb5-4c80-bb0b-81be8f938d37))
  (fp_line (start -2.64 -17.42) (end -2.64 -22.48) (layer "F.SilkS") (width 0.12) (tstamp 42f1c36b-6561-4c0c-be3d-45ab84765e79))
  (fp_line (start 1.09 -16.41) (end -4.52 -16.41) (layer "F.SilkS") (width 0.12) (tstamp 57c10a50-e375-487d-829a-90d3261e20f8))
  (fp_line (start 12.3 -21.59) (end 18.65 -21.59) (layer "F.SilkS") (width 0.12) (tstamp 5d65f52f-8bfb-4612-9210-8de31f612828))
  (fp_line (start -4.52 16.41) (end 1.09 16.41) (layer "F.SilkS") (width 0.12) (tstamp 6768c3ee-8018-4bdf-848a-bc103bbda00e))
  (fp_line (start -2.64 22.48) (end -2.64 17.42) (layer "F.SilkS") (width 0.12) (tstamp 6e3ec1db-1298-46c0-b136-dbf14034fb3d))
  (fp_line (start 19.92 -21.59) (end 21.82 -21.59) (layer "F.SilkS") (width 0.12) (tstamp 85b2d55c-4826-49ae-88b4-59b13cbb3b21))
  (fp_line (start 11.08 -22.48) (end 5.41 -22.48) (layer "F.SilkS") (width 0.12) (tstamp 8992436b-dd14-4185-80f2-e0cd2b03537c))
  (fp_line (start 12.3 21.59) (end 18.65 21.59) (layer "F.SilkS") (width 0.12) (tstamp 949fc5ac-df17-4baf-a617-2621bc90c314))
  (fp_line (start 4.4 -20.55) (end 11.08 -20.55) (layer "F.SilkS") (width 0.12) (tstamp 960d5a36-8dab-48af-842b-2ac479d0c091))
  (fp_line (start -5.35 -15.56) (end -5.85 -15.81) (layer "F.SilkS") (width 0.12) (tstamp 978e5061-d395-4b41-a736-8a562d32065d))
  (fp_line (start -4.52 -17.42) (end -2.64 -17.42) (layer "F.SilkS") (width 0.12) (tstamp 9944250a-88e0-41b2-90aa-a0de03c247ed))
  (fp_line (start 11.08 -20.55) (end 11.08 -22.48) (layer "F.SilkS") (width 0.12) (tstamp a2ddfff1-9e82-4d14-9862-2cfdb21a6b0e))
  (fp_line (start 11.08 20.55) (end 4.4 20.55) (layer "F.SilkS") (width 0.12) (tstamp a37560f7-57d3-4560-9dcc-af23f91fb0ee))
  (fp_line (start 5.41 22.48) (end 11.08 22.48) (layer "F.SilkS") (width 0.12) (tstamp a421ccc2-2653-4778-979f-597a43e32a1a))
  (fp_line (start 4.4 20.55) (end 4.4 -20.55) (layer "F.SilkS") (width 0.12) (tstamp a43c5fc7-d222-4546-a6b0-06a195c46b27))
  (fp_line (start 40.87 13.97) (end 40.87 12.06) (layer "F.SilkS") (width 0.12) (tstamp b2140797-78db-46a9-9aa4-7fd0a54211d5))
  (fp_line (start 33.89 21.59) (end 40.87 21.59) (layer "F.SilkS") (width 0.12) (tstamp b30b2178-d1cf-4bef-bb2c-268cb55fc34d))
  (fp_line (start 23.09 -21.59) (end 29.44 -21.59) (layer "F.SilkS") (width 0.12) (tstamp b312315b-21b0-471e-b3b8-f5dc7b68be1b))
  (fp_line (start -5.85 -15.81) (end -5.85 -15.31) (layer "F.SilkS") (width 0.12) (tstamp b3eaa00c-cda4-4a0c-a943-8df7ef4191f3))
  (fp_line (start 40.87 21.59) (end 40.87 15.24) (layer "F.SilkS") (width 0.12) (tstamp ba558dc5-115e-4cea-890f-b7516d148a4e))
  (fp_line (start 30.71 -21.59) (end 32.62 -21.59) (layer "F.SilkS") (width 0.12) (tstamp c1cebc05-b1d2-4e38-9c70-323759f98d60))
  (fp_line (start 40.87 3.17) (end 40.87 1.27) (layer "F.SilkS") (width 0.12) (tstamp cc2c8c26-e747-4f7c-89aa-3b29da8f29b1))
  (fp_line (start 40.87 -7.62) (end 40.87 -9.53) (layer "F.SilkS") (width 0.12) (tstamp e4768a38-5523-4a69-9201-8ff497a96d98))
  (fp_line (start 1.09 16.41) (end 1.09 -16.41) (layer "F.SilkS") (width 0.12) (tstamp ea22b218-fabc-46c2-ba03-ae8273a045f9))
  (fp_line (start -2.64 17.42) (end -4.52 17.42) (layer "F.SilkS") (width 0.12) (tstamp ed883b7d-14cd-4180-86c3-d4a53008ae8b))
  (fp_line (start 30.71 21.59) (end 32.62 21.59) (layer "F.SilkS") (width 0.12) (tstamp f02a4271-287a-4dc6-8150-c74dce62e7a8))
  (fp_line (start 40.87 0) (end 40.87 -6.35) (layer "F.SilkS") (width 0.12) (tstamp f34d4c81-8cfb-4855-a47a-b0aceff1e697))
  (fp_line (start 19.92 21.59) (end 21.82 21.59) (layer "F.SilkS") (width 0.12) (tstamp f403a26c-484e-4d08-a375-859b41276a87))
  (fp_line (start 41.3 24.8) (end 41.3 -24.85) (layer "F.CrtYd") (width 0.05) (tstamp 32dc5ed8-3970-45e2-a467-81134c473d8f))
  (fp_line (start -5.1 24.8) (end 41.3 24.8) (layer "F.CrtYd") (width 0.05) (tstamp 8efec1fb-7dcd-4b52-9c12-62a9ede6e310))
  (fp_line (start -5.1 24.84) (end -5.1 -24.84) (layer "F.CrtYd") (width 0.05) (tstamp aa1a776e-b13f-41dc-9e2e-eddd465a4fe3))
  (fp_line (start -5.1 -24.85) (end 41.3 -24.85) (layer "F.CrtYd") (width 0.05) (tstamp f14c90d7-feee-44fe-81d1-39bde4197c71))
  (fp_line (start -2.58 -17.4) (end -4.43 -17.4) (layer "F.Fab") (width 0.1) (tstamp 18466712-41a7-4659-8f73-9eebfa98f9ac))
  (fp_line (start -1.1 -15.56) (end -0.1 -15.06) (layer "F.Fab") (width 0.1) (tstamp 218a422d-b3f0-4d8b-96ac-7810caa6a711))
  (fp_line (start 11.02 -21.5) (end 4.77 -21.5) (layer "F.Fab") (width 0.1) (tstamp 23767e7a-5eec-4c24-b002-a1d54f542992))
  (fp_line (start 4.37 21.1) (end 4.32 21.05) (layer "F.Fab") (width 0.1) (tstamp 257d605d-6486-4b03-9aff-fdeded1d202a))
  (fp_line (start -4.43 17.35) (end -2.58 17.35) (layer "F.Fab") (width 0.1) (tstamp 32b0b75a-9d5a-40d5-9ac5-1b5fb8b1f4ed))
  (fp_line (start 11.02 21.5) (end 4.77 21.5) (layer "F.Fab") (width 0.1) (tstamp 3cebd620-e28c-40f5-b1d6-d20b02d87aa5))
  (fp_line (start 11.02 -20.6) (end 11.02 -22.4) (layer "F.Fab") (width 0.1) (tstamp 4748c3e6-47ce-4fb2-bf1c-608c5935dfb6))
  (fp_line (start 4.32 -21.05) (end 4.32 -20.55) (layer "F.Fab") (width 0.1) (tstamp 488d3204-8f6e-4d78-87ea-ac9f7ef60ac3))
  (fp_line (start 4.32 20.6) (end 4.32 -20.6) (layer "F.Fab") (width 0.1) (tstamp 5125eeeb-6f87-4d03-9bde-e9d123ae4ba0))
  (fp_line (start 1.17 -16.45) (end 1.17 16.5) (layer "F.Fab") (width 0.1) (tstamp 59ff1112-28a1-4bc3-8b8b-3d5bf506e30f))
  (fp_line (start 1.17 16.5) (end -4.43 16.5) (layer "F.Fab") (width 0.1) (tstamp 6bf38b98-58bb-43b6-bead-6111dce7a03f))
  (fp_line (start -2.58 17.35) (end -2.58 22.4) (layer "F.Fab") (width 0.1) (tstamp 700e655e-e3ea-435d-9339-8e3efb9bd487))
  (fp_line (start 11.02 22.4) (end 11.02 20.6) (layer "F.Fab") (width 0.1) (tstamp 72ca1363-cf9e-44cf-8917-8b084618dbd7))
  (fp_line (start -4.43 -17.4) (end -4.43 -16.45) (layer "F.Fab") (width 0.1) (tstamp 7ce6ac96-4658-4d0b-8f6b-fcce84bfca7e))
  (fp_line (start -4.43 16.5) (end -4.43 17.35) (layer "F.Fab") (width 0.1) (tstamp 85dd4ded-3d59-4bbf-9260-8ce1f6cee85a))
  (fp_line (start 2.14 0.64) (end 3.41 -0.64) (layer "F.Fab") (width 0.1) (tstamp 87ea2ddb-5b06-4e76-986f-ecda2965a838))
  (fp_line (start -2.58 22.4) (end -2.48 22.4) (layer "F.Fab") (width 0.1) (tstamp 8867ed38-58d7-4d0f-a6cd-07d707b86265))
  (fp_line (start 4.77 21.5) (end 4.37 21.1) (layer "F.Fab") (width 0.1) (tstamp 89296c6e-8441-49d4-9f13-a3fdd4d05eff))
  (fp_line (start 4.77 -21.5) (end 4.32 -21.05) (layer "F.Fab") (width 0.1) (tstamp 928f09d3-ab64-457c-9911-d1a9e1707ea6))
  (fp_line (start -2.53 22.4) (end 11.02 22.4) (layer "F.Fab") (width 0.1) (tstamp 96d436f2-e438-4b05-af23-42bdddaaf7c1))
  (fp_line (start -2.58 -22.4) (end -2.58 -17.4) (layer "F.Fab") (width 0.1) (tstamp 97bbea06-2e08-45e8-89e9-b97a74a03df3))
  (fp_line (start 2.14 -0.64) (end 3.41 0.64) (layer "F.Fab") (width 0.1) (tstamp acc34940-e089-4132-96e8-9ba8df216560))
  (fp_line (start -0.1 -15.06) (end -0.1 -16.06) (layer "F.Fab") (width 0.1) (tstamp b11734f8-5e55-40dc-86a4-9f9e88a04b73))
  (fp_line (start 11.02 20.6) (end 4.32 20.6) (layer "F.Fab") (width 0.1) (tstamp c71b4f3e-06d5-4234-b152-4cd615bf0d51))
  (fp_line (start 4.32 21.05) (end 4.32 20.6) (layer "F.Fab") (width 0.1) (tstamp cb24a62a-96f2-4850-a45d-c3873ee7f668))
  (fp_line (start -4.43 -16.45) (end 1.17 -16.45) (layer "F.Fab") (width 0.1) (tstamp e117b5e6-3a8f-4e51-9b7d-8db810e6bcca))
  (fp_line (start 4.32 -20.6) (end 11.02 -20.6) (layer "F.Fab") (width 0.1) (tstamp e8860a74-61f3-4648-a106-fa91f4ac8216))
  (fp_line (start 11.02 -22.4) (end -2.58 -22.4) (layer "F.Fab") (width 0.1) (tstamp f567ed4b-430d-45a1-a7c4-c7e6c4ff4797))
  (fp_line (start -0.1 -16.06) (end -1.1 -15.56) (layer "F.Fab") (width 0.1) (tstamp f8366548-b0cb-4907-a594-4b6ae386a05e))
  (pad "" thru_hole circle (at -0.1 19.37 90) (size 3.99 3.99) (drill 2.21) (layers *.Cu *.Mask) (tstamp 498d2ee3-a805-430c-838d-72359f8ea18e))
  (pad "" np_thru_hole circle (at 2.9 -19.37 90) (size 1.7 1.7) (drill 1.7) (layers *.Cu *.Mask) (tstamp 65899d21-6468-422c-af78-7ac68bef899d))
  (pad "" np_thru_hole circle (at 2.9 19.37 90) (size 1.7 1.7) (drill 1.7) (layers *.Cu *.Mask) (tstamp aee586ae-859b-46e1-9234-8db4d402b923))
  (pad "" smd rect (at 2.57 23.34 90) (size 2.49 4.57) (layers "F.Cu" "F.Paste" "F.Mask") (tstamp af267d13-3460-4cd8-80f1-070505dc5fac))
  (pad "" smd rect (at 2.57 -23.34 90) (size 2.49 4.57) (layers "F.Cu" "F.Paste" "F.Mask") (tstamp c65d1cdf-3604-46b7-bedc-0f53c8775ac3))
  (pad "" thru_hole circle (at -0.1 -19.37 90) (size 3.99 3.99) (drill 2.21) (layers *.Cu *.Mask) (tstamp ddb8d4dd-cbca-4a89-b2ed-479a794cb8df))
  (pad "1" smd rect (at -3.1 -15.56 90) (size 0.41 3.51) (layers "F.Cu" "F.Paste" "F.Mask") (tstamp 02a1b158-5a76-41d3-a531-a255c256e084))
  (pad "2" smd rect (at -3.1 -14.29 90) (size 0.41 3.51) (layers "F.Cu" "F.Paste" "F.Mask") (tstamp 457b3774-1559-4794-a365-2dd7df3260be))
  (pad "3" smd rect (at -3.1 -13.02 90) (size 0.41 3.51) (layers "F.Cu" "F.Paste" "F.Mask") (tstamp 71376271-a86a-4ab0-ac7a-eb5a74b27114))
  (pad "4" smd rect (at -3.1 -11.75 90) (size 0.41 3.51) (layers "F.Cu" "F.Paste" "F.Mask") (tstamp fef111eb-5e18-4c50-8511-2cf8dae65b41))
  (pad "5" smd rect (at -3.1 -10.48 90) (size 0.41 3.51) (layers "F.Cu" "F.Paste" "F.Mask") (tstamp 0e4ac17a-7e99-498e-a023-cf14877afe02))
  (pad "6" smd rect (at -3.1 -9.21 90) (size 0.41 3.51) (layers "F.Cu" "F.Paste" "F.Mask") (tstamp ee410a74-fdc9-4382-8f0a-c85660863348))
  (pad "7" smd rect (at -3.1 -7.94 90) (size 0.41 3.51) (layers "F.Cu" "F.Paste" "F.Mask") (tstamp 24a5ca70-51dc-4f81-b417-31271b8d1d78))
  (pad "8" smd rect (at -3.1 -6.67 90) (size 0.41 3.51) (layers "F.Cu" "F.Paste" "F.Mask") (tstamp 55b8a757-5805-49cb-afd6-c229d67e0c47))
  (pad "9" smd rect (at -3.1 -5.4 90) (size 0.41 3.51) (layers "F.Cu" "F.Paste" "F.Mask") (tstamp 5cfaf3d4-8a71-45b3-b26b-1092cb877540))
  (pad "10" smd rect (at -3.1 -4.13 90) (size 0.41 3.51) (layers "F.Cu" "F.Paste" "F.Mask") (tstamp fe61f8b1-6cd4-493c-9016-a5cc6e3a7a33))
  (pad "11" smd rect (at -3.1 -2.86 90) (size 0.41 3.51) (layers "F.Cu" "F.Paste" "F.Mask") (tstamp 2ab92afb-c718-45bc-b2e9-c07ae04563f3))
  (pad "12" smd rect (at -3.1 -1.59 90) (size 0.41 3.51) (layers "F.Cu" "F.Paste" "F.Mask") (tstamp b6efa4d8-c18b-4f8c-bd39-4967d25100b9))
  (pad "13" smd rect (at -3.1 -0.32 90) (size 0.41 3.51) (layers "F.Cu" "F.Paste" "F.Mask") (tstamp 70c44d07-4778-4c26-b51b-4d68e0963957))
  (pad "14" smd rect (at -3.1 0.95 90) (size 0.41 3.51) (layers "F.Cu" "F.Paste" "F.Mask") (tstamp 6b46e8fa-4310-4fa4-b649-dbce042bde15))
  (pad "15" smd rect (at -3.1 2.22 90) (size 0.41 3.51) (layers "F.Cu" "F.Paste" "F.Mask") (tstamp 87f386ff-641d-412a-8203-7d0817e6f99f))
  (pad "16" smd rect (at -3.1 3.49 90) (size 0.41 3.51) (layers "F.Cu" "F.Paste" "F.Mask") (tstamp 87e34ffc-35c2-4f8d-b9c1-d1e394ece653))
  (pad "17" smd rect (at -3.1 4.76 90) (size 0.41 3.51) (layers "F.Cu" "F.Paste" "F.Mask") (tstamp 06858da3-61ce-42a1-889a-68f5ef26d6fb))
  (pad "18" smd rect (at -3.1 6.03 90) (size 0.41 3.51) (layers "F.Cu" "F.Paste" "F.Mask") (tstamp 54c48d7e-7f83-482a-b399-67f7d244f971))
  (pad "19" smd rect (at -3.1 7.3 90) (size 0.41 3.51) (layers "F.Cu" "F.Paste" "F.Mask") (tstamp 03bba59b-25ea-4c36-a52a-157c4983bacc))
  (pad "20" smd rect (at -3.1 8.57 90) (size 0.41 3.51) (layers "F.Cu" "F.Paste" "F.Mask") (tstamp d115608e-74ea-4144-b588-b3e437f71393))
  (pad "21" smd rect (at -3.1 9.84 90) (size 0.41 3.51) (layers "F.Cu" "F.Paste" "F.Mask") (tstamp bb2c5abd-11e2-41c0-8260-c8335913876b))
  (pad "22" smd rect (at -3.1 11.11 90) (size 0.41 3.51) (layers "F.Cu" "F.Paste" "F.Mask") (tstamp 40ef402a-798d-40fe-a4f3-00899df7509c))
  (pad "23" smd rect (at -3.1 12.38 90) (size 0.41 3.51) (layers "F.Cu" "F.Paste" "F.Mask") (tstamp 0c3a8f2d-a9f2-4b50-991f-b8bb48e549f2))
  (pad "24" smd rect (at -3.1 13.65 90) (size 0.41 3.51) (layers "F.Cu" "F.Paste" "F.Mask") (tstamp 3cf82d58-437c-48f5-871d-6ff3590eb427))
  (pad "25" smd rect (at -3.1 14.92 90) (size 0.41 3.51) (layers "F.Cu" "F.Paste" "F.Mask") (tstamp 768077e2-6e71-42ed-af56-510910cb3f21))
  (pad "26" smd rect (at -3.1 -14.92 90) (size 0.41 3.51) (layers "F.Cu" "F.Paste" "F.Mask") (tstamp c99b1770-0736-4c17-8dd6-0872ff7a2f18))
  (pad "27" smd rect (at -3.1 -13.65 90) (size 0.41 3.51) (layers "F.Cu" "F.Paste" "F.Mask") (tstamp d6570ca2-bd52-4b93-b8a9-b8a54182a0e7))
  (pad "28" smd rect (at -3.1 -12.38 90) (size 0.41 3.51) (layers "F.Cu" "F.Paste" "F.Mask") (tstamp f9fa53d2-f976-4f4c-af44-273fc0146d31))
  (pad "29" smd rect (at -3.1 -11.11 90) (size 0.41 3.51) (layers "F.Cu" "F.Paste" "F.Mask") (tstamp 537b4490-1243-4d2c-8e1c-e71506dc1c01))
  (pad "30" smd rect (at -3.1 -9.84 90) (size 0.41 3.51) (layers "F.Cu" "F.Paste" "F.Mask") (tstamp 9f371745-68b1-4bcc-a145-bedff48df11b))
  (pad "31" smd rect (at -3.1 -8.57 90) (size 0.41 3.51) (layers "F.Cu" "F.Paste" "F.Mask") (tstamp 449e8428-9611-4edd-b64b-f4b160313426))
  (pad "32" smd rect (at -3.1 -7.3 90) (size 0.41 3.51) (layers "F.Cu" "F.Paste" "F.Mask") (tstamp 4e4f923f-04f3-47bd-b877-4d4c76de8d1f))
  (pad "33" smd rect (at -3.1 -6.03 90) (size 0.41 3.51) (layers "F.Cu" "F.Paste" "F.Mask") (tstamp 61f8a550-e1f6-4003-aa8f-9c0e9b67b581))
  (pad "34" smd rect (at -3.1 -4.76 90) (size 0.41 3.51) (layers "F.Cu" "F.Paste" "F.Mask") (tstamp 939fc00d-ac9f-4485-b78d-3881de1d7636))
  (pad "35" smd rect (at -3.1 -3.49 90) (size 0.41 3.51) (layers "F.Cu" "F.Paste" "F.Mask") (tstamp e0f5b396-5e93-4bfb-98d4-d73bc04af15e))
  (pad "36" smd rect (at -3.1 -2.22 90) (size 0.41 3.51) (layers "F.Cu" "F.Paste" "F.Mask") (tstamp 91071b5f-88a4-4055-b003-a4a7c4892bc9))
  (pad "37" smd rect (at -3.1 -0.95 90) (size 0.41 3.51) (layers "F.Cu" "F.Paste" "F.Mask") (tstamp c8160482-ea2e-4f9c-8fde-1516c86b01ac))
  (pad "38" smd rect (at -3.1 0.32 90) (size 0.41 3.51) (layers "F.Cu" "F.Paste" "F.Mask") (tstamp 28c9ba39-bc4e-4c1d-87fc-da6fcaac4cc9))
  (pad "39" smd rect (at -3.1 1.59 90) (size 0.41 3.51) (layers "F.Cu" "F.Paste" "F.Mask") (tstamp 026bb5f0-e3ee-4afc-9ee8-6bb9d3f901ac))
  (pad "40" smd rect (at -3.1 2.86 90) (size 0.41 3.51) (layers "F.Cu" "F.Paste" "F.Mask") (tstamp 57ff3d5c-52c7-4850-b508-b8ab9878dae1))
  (pad "41" smd rect (at -3.1 4.13 90) (size 0.41 3.51) (layers "F.Cu" "F.Paste" "F.Mask") (tstamp 1c72a620-a8cd-4a32-9ce0-9a78fc126abf))
  (pad "42" smd rect (at -3.1 5.4 90) (size 0.41 3.51) (layers "F.Cu" "F.Paste" "F.Mask") (tstamp f8312015-696c-4ee3-be64-d2b513a8ee5e))
  (pad "43" smd rect (at -3.1 6.67 90) (size 0.41 3.51) (layers "F.Cu" "F.Paste" "F.Mask") (tstamp a4e0e64a-925a-45c5-81bb-a6a2aa2e2a9c))
  (pad "44" smd rect (at -3.1 7.94 90) (size 0.41 3.51) (layers "F.Cu" "F.Paste" "F.Mask") (tstamp c51ca171-897c-4dbb-a5e4-0b581cd7ec7d))
  (pad "45" smd rect (at -3.1 9.21 90) (size 0.41 3.51) (layers "F.Cu" "F.Paste" "F.Mask") (tstamp 9844172c-c934-407d-962b-ac6fdf2c7f0f))
  (pad "46" smd rect (at -3.1 10.48 90) (size 0.41 3.51) (layers "F.Cu" "F.Paste" "F.Mask") (tstamp 6491e57b-3680-40a8-bf13-f697cdd022f1))
  (pad "47" smd rect (at -3.1 11.75 90) (size 0.41 3.51) (layers "F.Cu" "F.Paste" "F.Mask") (tstamp 94bf9e3d-adda-41e1-b171-0b2925a8d389))
  (pad "48" smd rect (at -3.1 13.02 90) (size 0.41 3.51) (layers "F.Cu" "F.Paste" "F.Mask") (tstamp 0264b7aa-673d-4fdd-8ddb-8b032bd0c3ad))
  (pad "49" smd rect (at -3.1 14.29 90) (size 0.41 3.51) (layers "F.Cu" "F.Paste" "F.Mask") (tstamp a314234c-37da-4b5b-86ca-6d7859a5d1a1))
  (pad "50" smd rect (at -3.1 15.56 90) (size 0.41 3.51) (layers "F.Cu" "F.Paste" "F.Mask") (tstamp 096cb515-34ed-4038-91f6-870497da74d7))
  (model "${KICAD6_3DMODEL_DIR}/Connector_Card.3dshapes/CF-Card_3M_N7E50-7516PK-20-WF.wrl"
    (offset (xyz 0 0 0))
    (scale (xyz 1 1 1))
    (rotate (xyz 0 0 0))
  )
)
